VirtualBox VM 5.1.22 r115126 darwin.amd64 (Apr 28 2017 17:26:14) release log
00:00:03.683816 Log opened 2017-11-06T10:08:07.609955000Z
00:00:03.683820 Build Type: release
00:00:03.683857 OS Product: Darwin
00:00:03.683878 OS Release: 16.0.0
00:00:03.683898 OS Version: Darwin Kernel Version 16.0.0: Mon Aug 29 17:56:20 PDT 2016; root:xnu-3789.1.32~3/RELEASE_X86_64
00:00:03.684183 DMI Product Name: MacBookAir6,2
00:00:03.684338 DMI Product Version: 1.0
00:00:03.684361 Host RAM: 4096MB (4.0GB) total, 905MB available
00:00:03.684368 Executable: /Applications/VirtualBox.app/Contents/MacOS/VirtualBoxVM
00:00:03.684371 Process ID: 88089
00:00:03.684373 Package type: DARWIN_64BITS_GENERIC
00:00:03.689794 Installed Extension Packs:
00:00:03.689823   None installed!
00:00:03.695772 Console: Machine state changed to 'Restoring'
00:00:03.697840 Qt version: 5.6.2
00:00:03.737815 SUP: Loaded VMMR0.r0 (/Applications/VirtualBox.app/Contents/MacOS/VMMR0.r0) at 0xXXXXXXXXXXXXXXXX - ModuleInit at XXXXXXXXXXXXXXXX and ModuleTerm at XXXXXXXXXXXXXXXX
00:00:03.737920 SUP: VMMR0EntryEx located at XXXXXXXXXXXXXXXX and VMMR0EntryFast at XXXXXXXXXXXXXXXX
00:00:03.755612 Guest OS type: 'Other_64'
00:00:03.791847 fHMForced=true - No raw-mode support in this build!
00:00:03.812231 GUI: UIMediumEnumerator: Medium-enumeration finished!
00:00:03.851926 File system of '/Users/amin/VirtualBox VMs/osand/Snapshots' (snapshots) is hfs
00:00:03.851979 File system of '/Users/amin/VirtualBox VMs/osand/osand.vdi' is hfs
00:00:03.870081 File system of '/Users/amin/Downloads/android-x86_64-7.1-rc2.iso' (DVD) is hfs
00:00:03.976330 Shared clipboard service loaded
00:00:03.976467 Shared clipboard mode: Off
00:00:03.983530 Drag and drop service loaded
00:00:03.983577 Drag and drop mode: Off
00:00:04.001241 Guest Control service loaded
00:00:04.018881 ************************* CFGM dump *************************
00:00:04.020003 [/] (level 0)
00:00:04.020021   CpuExecutionCap   <integer> = 0x0000000000000064 (100)
00:00:04.020035   EnablePAE         <integer> = 0x0000000000000001 (1)
00:00:04.020039   HMEnabled         <integer> = 0x0000000000000001 (1)
00:00:04.020043   MemBalloonSize    <integer> = 0x0000000000000000 (0)
00:00:04.020046   Name              <string>  = "osand" (cb=6)
00:00:04.020050   NumCPUs           <integer> = 0x0000000000000001 (1)
00:00:04.020054   PageFusionAllowed <integer> = 0x0000000000000000 (0)
00:00:04.020056   RamHoleSize       <integer> = 0x0000000020000000 (536 870 912, 512 MB)
00:00:04.020111   RamSize           <integer> = 0x0000000080000000 (2 147 483 648, 2 048 MB)
00:00:04.020124   TimerMillies      <integer> = 0x000000000000000a (10)
00:00:04.020131   UUID              <bytes>   = "c7 f3 63 80 b3 e6 42 41 90 b5 09 82 13 f4 5c fe" (cb=16)
00:00:04.020170 
00:00:04.020172 [/CPUM/] (level 1)
00:00:04.020177   GuestCpuName       <string>  = "host" (cb=5)
00:00:04.020180   PortableCpuIdLevel <integer> = 0x0000000000000000 (0)
00:00:04.020184 
00:00:04.020185 [/DBGC/] (level 1)
00:00:04.020189   GlobalInitScript <string>  = "/Users/amin/Library/VirtualBox/dbgc-init" (cb=41)
00:00:04.020192   HistoryFile      <string>  = "/Users/amin/Library/VirtualBox/dbgc-history" (cb=44)
00:00:04.020195   LocalInitScript  <string>  = "/Users/amin/VirtualBox VMs/osand/dbgc-init" (cb=43)
00:00:04.020198 
00:00:04.020199 [/DBGF/] (level 1)
00:00:04.020202   Path <string>  = "/Users/amin/VirtualBox VMs/osand/debug/;/Users/amin/VirtualBox VMs/osand/;/Users/amin/" (cb=87)
00:00:04.020205 
00:00:04.020206 [/Devices/] (level 1)
00:00:04.020210 
00:00:04.020211 [/Devices/8237A/] (level 2)
00:00:04.020214 
00:00:04.020216 [/Devices/8237A/0/] (level 3)
00:00:04.020220   Trusted <integer> = 0x0000000000000001 (1)
00:00:04.020223 
00:00:04.020224 [/Devices/VMMDev/] (level 2)
00:00:04.020228 
00:00:04.020229 [/Devices/VMMDev/0/] (level 3)
00:00:04.020233   PCIBusNo      <integer> = 0x0000000000000000 (0)
00:00:04.020236   PCIDeviceNo   <integer> = 0x0000000000000004 (4)
00:00:04.020239   PCIFunctionNo <integer> = 0x0000000000000000 (0)
00:00:04.020241   Trusted       <integer> = 0x0000000000000001 (1)
00:00:04.020244 
00:00:04.020246 [/Devices/VMMDev/0/Config/] (level 4)
00:00:04.020250   GuestCoreDumpDir <string>  = "/Users/amin/VirtualBox VMs/osand/Snapshots" (cb=43)
00:00:04.020253 
00:00:04.020254 [/Devices/VMMDev/0/LUN#0/] (level 4)
00:00:04.020258   Driver <string>  = "HGCM" (cb=5)
00:00:04.020261 
00:00:04.020262 [/Devices/VMMDev/0/LUN#0/Config/] (level 5)
00:00:04.020266   Object <integer> = 0x00007fb9adbe0580 (140 435 460 588 928)
00:00:04.020272 
00:00:04.020274 [/Devices/VMMDev/0/LUN#999/] (level 4)
00:00:04.020277   Driver <string>  = "MainStatus" (cb=11)
00:00:04.020280 
00:00:04.020281 [/Devices/VMMDev/0/LUN#999/Config/] (level 5)
00:00:04.020285   First   <integer> = 0x0000000000000000 (0)
00:00:04.020288   Last    <integer> = 0x0000000000000000 (0)
00:00:04.020291   papLeds <integer> = 0x00007fb9ab8341a0 (140 435 423 183 264)
00:00:04.020296 
00:00:04.020298 [/Devices/acpi/] (level 2)
00:00:04.020301 
00:00:04.020302 [/Devices/acpi/0/] (level 3)
00:00:04.020307   PCIBusNo      <integer> = 0x0000000000000000 (0)
00:00:04.020309   PCIDeviceNo   <integer> = 0x0000000000000007 (7)
00:00:04.020312   PCIFunctionNo <integer> = 0x0000000000000000 (0)
00:00:04.020315   Trusted       <integer> = 0x0000000000000001 (1)
00:00:04.020317 
00:00:04.020319 [/Devices/acpi/0/Config/] (level 4)
00:00:04.020324   CpuHotPlug          <integer> = 0x0000000000000000 (0)
00:00:04.020327   FdcEnabled          <integer> = 0x0000000000000000 (0)
00:00:04.020330   HostBusPciAddress   <integer> = 0x0000000000000000 (0)
00:00:04.020333   HpetEnabled         <integer> = 0x0000000000000000 (0)
00:00:04.020336   IOAPIC              <integer> = 0x0000000000000001 (1)
00:00:04.020339   IocPciAddress       <integer> = 0x0000000000010000 (65 536)
00:00:04.020343   NumCPUs             <integer> = 0x0000000000000001 (1)
00:00:04.020346   Parallel0IoPortBase <integer> = 0x0000000000000000 (0)
00:00:04.020349   Parallel0Irq        <integer> = 0x0000000000000000 (0)
00:00:04.020352   Parallel1IoPortBase <integer> = 0x0000000000000000 (0)
00:00:04.020354   Parallel1Irq        <integer> = 0x0000000000000000 (0)
00:00:04.020357   Serial0IoPortBase   <integer> = 0x0000000000000000 (0)
00:00:04.020360   Serial0Irq          <integer> = 0x0000000000000000 (0)
00:00:04.020362   Serial1IoPortBase   <integer> = 0x0000000000000000 (0)
00:00:04.020365   Serial1Irq          <integer> = 0x0000000000000000 (0)
00:00:04.020368   ShowCpu             <integer> = 0x0000000000000001 (1)
00:00:04.020371   ShowRtc             <integer> = 0x0000000000000000 (0)
00:00:04.020374   SmcEnabled          <integer> = 0x0000000000000000 (0)
00:00:04.020377 
00:00:04.020378 [/Devices/acpi/0/LUN#0/] (level 4)
00:00:04.020382   Driver <string>  = "ACPIHost" (cb=9)
00:00:04.020385 
00:00:04.020386 [/Devices/acpi/0/LUN#0/Config/] (level 5)
00:00:04.020390 
00:00:04.020392 [/Devices/apic/] (level 2)
00:00:04.020395 
00:00:04.020396 [/Devices/apic/0/] (level 3)
00:00:04.020399   Trusted <integer> = 0x0000000000000001 (1)
00:00:04.020402 
00:00:04.020403 [/Devices/apic/0/Config/] (level 4)
00:00:04.020407   IOAPIC  <integer> = 0x0000000000000001 (1)
00:00:04.020410   Mode    <integer> = 0x0000000000000002 (2)
00:00:04.020413   NumCPUs <integer> = 0x0000000000000001 (1)
00:00:04.020415 
00:00:04.020416 [/Devices/e1000/] (level 2)
00:00:04.020420 
00:00:04.020421 [/Devices/i8254/] (level 2)
00:00:04.020424 
00:00:04.020426 [/Devices/i8254/0/] (level 3)
00:00:04.020429 
00:00:04.020430 [/Devices/i8254/0/Config/] (level 4)
00:00:04.020434 
00:00:04.020435 [/Devices/i8259/] (level 2)
00:00:04.020438 
00:00:04.020440 [/Devices/i8259/0/] (level 3)
00:00:04.020443   Trusted <integer> = 0x0000000000000001 (1)
00:00:04.020445 
00:00:04.020447 [/Devices/i8259/0/Config/] (level 4)
00:00:04.020450 
00:00:04.020452 [/Devices/ichac97/] (level 2)
00:00:04.020455 
00:00:04.020456 [/Devices/ichac97/0/] (level 3)
00:00:04.020460   PCIBusNo      <integer> = 0x0000000000000000 (0)
00:00:04.020463   PCIDeviceNo   <integer> = 0x0000000000000005 (5)
00:00:04.020466   PCIFunctionNo <integer> = 0x0000000000000000 (0)
00:00:04.020468   Trusted       <integer> = 0x0000000000000001 (1)
00:00:04.020471 
00:00:04.020472 [/Devices/ichac97/0/AudioConfig/] (level 4)
00:00:04.020476 
00:00:04.020478 [/Devices/ichac97/0/Config/] (level 4)
00:00:04.020482   Codec <string>  = "STAC9700" (cb=9)
00:00:04.020484 
00:00:04.020485 [/Devices/ichac97/0/LUN#0/] (level 4)
00:00:04.020489   Driver <string>  = "AUDIO" (cb=6)
00:00:04.020492 
00:00:04.020493 [/Devices/ichac97/0/LUN#0/AttachedDriver/] (level 5)
00:00:04.020498   Driver <string>  = "CoreAudio" (cb=10)
00:00:04.020500 
00:00:04.020502 [/Devices/ichac97/0/LUN#0/AttachedDriver/Config/] (level 6)
00:00:04.020506   StreamName <string>  = "osand" (cb=6)
00:00:04.020509 
00:00:04.020510 [/Devices/ichac97/0/LUN#0/Config/] (level 5)
00:00:04.020515 
00:00:04.020516 [/Devices/ichac97/0/LUN#1/] (level 4)
00:00:04.020520   Driver <string>  = "AUDIO" (cb=6)
00:00:04.020522 
00:00:04.020523 [/Devices/ichac97/0/LUN#1/AttachedDriver/] (level 5)
00:00:04.020527   Driver <string>  = "AudioVRDE" (cb=10)
00:00:04.020529 
00:00:04.020531 [/Devices/ichac97/0/LUN#1/AttachedDriver/Config/] (level 6)
00:00:04.020535   AudioDriver      <string>  = "AudioVRDE" (cb=10)
00:00:04.020538   Object           <integer> = 0x00007fb9adb9d5d0 (140 435 460 314 576)
00:00:04.020543   ObjectVRDPServer <integer> = 0x00007fb9ac957800 (140 435 441 154 048)
00:00:04.020548   StreamName       <string>  = "osand" (cb=6)
00:00:04.020551 
00:00:04.020552 [/Devices/ioapic/] (level 2)
00:00:04.020556 
00:00:04.020557 [/Devices/ioapic/0/] (level 3)
00:00:04.020560   Trusted <integer> = 0x0000000000000001 (1)
00:00:04.020563 
00:00:04.020564 [/Devices/ioapic/0/Config/] (level 4)
00:00:04.020568   NumCPUs <integer> = 0x0000000000000001 (1)
00:00:04.020570 
00:00:04.020572 [/Devices/mc146818/] (level 2)
00:00:04.020575 
00:00:04.020576 [/Devices/mc146818/0/] (level 3)
00:00:04.020579 
00:00:04.020581 [/Devices/mc146818/0/Config/] (level 4)
00:00:04.020585   UseUTC <integer> = 0x0000000000000000 (0)
00:00:04.020587 
00:00:04.020589 [/Devices/parallel/] (level 2)
00:00:04.020592 
00:00:04.020593 [/Devices/pcarch/] (level 2)
00:00:04.020596 
00:00:04.020597 [/Devices/pcarch/0/] (level 3)
00:00:04.020601   Trusted <integer> = 0x0000000000000001 (1)
00:00:04.020604 
00:00:04.020605 [/Devices/pcarch/0/Config/] (level 4)
00:00:04.020609 
00:00:04.020610 [/Devices/pcbios/] (level 2)
00:00:04.020613 
00:00:04.020614 [/Devices/pcbios/0/] (level 3)
00:00:04.020618   Trusted <integer> = 0x0000000000000001 (1)
00:00:04.020620 
00:00:04.020622 [/Devices/pcbios/0/Config/] (level 4)
00:00:04.020627   APIC           <integer> = 0x0000000000000001 (1)
00:00:04.020630   BootDevice0    <string>  = "FLOPPY" (cb=7)
00:00:04.020633   BootDevice1    <string>  = "DVD" (cb=4)
00:00:04.020636   BootDevice2    <string>  = "IDE" (cb=4)
00:00:04.020638   BootDevice3    <string>  = "NONE" (cb=5)
00:00:04.020640   FloppyDevice   <string>  = "i82078" (cb=7)
00:00:04.020643   HardDiskDevice <string>  = "piix3ide" (cb=9)
00:00:04.020645   IOAPIC         <integer> = 0x0000000000000001 (1)
00:00:04.020648   McfgBase       <integer> = 0x0000000000000000 (0)
00:00:04.020651   McfgLength     <integer> = 0x0000000000000000 (0)
00:00:04.020654   NumCPUs        <integer> = 0x0000000000000001 (1)
00:00:04.020657   PXEDebug       <integer> = 0x0000000000000000 (0)
00:00:04.020660   UUID           <bytes>   = "c7 f3 63 80 b3 e6 42 41 90 b5 09 82 13 f4 5c fe" (cb=16)
00:00:04.020669 
00:00:04.020671 [/Devices/pcbios/0/Config/NetBoot/] (level 5)
00:00:04.020675 
00:00:04.020676 [/Devices/pcbios/0/Config/NetBoot/0/] (level 6)
00:00:04.020681   NIC           <integer> = 0x0000000000000000 (0)
00:00:04.020684   PCIBusNo      <integer> = 0x0000000000000000 (0)
00:00:04.020687   PCIDeviceNo   <integer> = 0x0000000000000003 (3)
00:00:04.020690   PCIFunctionNo <integer> = 0x0000000000000000 (0)
00:00:04.020692 
00:00:04.020694 [/Devices/pci/] (level 2)
00:00:04.020697 
00:00:04.020698 [/Devices/pci/0/] (level 3)
00:00:04.020702   Trusted <integer> = 0x0000000000000001 (1)
00:00:04.020704 
00:00:04.020706 [/Devices/pci/0/Config/] (level 4)
00:00:04.020710   IOAPIC <integer> = 0x0000000000000001 (1)
00:00:04.020712 
00:00:04.020714 [/Devices/pckbd/] (level 2)
00:00:04.020717 
00:00:04.020718 [/Devices/pckbd/0/] (level 3)
00:00:04.020722   Trusted <integer> = 0x0000000000000001 (1)
00:00:04.020725 
00:00:04.020726 [/Devices/pckbd/0/Config/] (level 4)
00:00:04.020730 
00:00:04.020731 [/Devices/pckbd/0/LUN#0/] (level 4)
00:00:04.020735   Driver <string>  = "KeyboardQueue" (cb=14)
00:00:04.020737 
00:00:04.020739 [/Devices/pckbd/0/LUN#0/AttachedDriver/] (level 5)
00:00:04.020743   Driver <string>  = "MainKeyboard" (cb=13)
00:00:04.020746 
00:00:04.020747 [/Devices/pckbd/0/LUN#0/AttachedDriver/Config/] (level 6)
00:00:04.020752   Object <integer> = 0x00007fb9adc48d50 (140 435 461 016 912)
00:00:04.020756 
00:00:04.020758 [/Devices/pckbd/0/LUN#0/Config/] (level 5)
00:00:04.020762   QueueSize <integer> = 0x0000000000000040 (64)
00:00:04.020765 
00:00:04.020767 [/Devices/pckbd/0/LUN#1/] (level 4)
00:00:04.020771   Driver <string>  = "MouseQueue" (cb=11)
00:00:04.020773 
00:00:04.020774 [/Devices/pckbd/0/LUN#1/AttachedDriver/] (level 5)
00:00:04.020779   Driver <string>  = "MainMouse" (cb=10)
00:00:04.020781 
00:00:04.020782 [/Devices/pckbd/0/LUN#1/AttachedDriver/Config/] (level 6)
00:00:04.020787   Object <integer> = 0x00007fb9ab434780 (140 435 418 990 464)
00:00:04.020792 
00:00:04.020793 [/Devices/pckbd/0/LUN#1/Config/] (level 5)
00:00:04.020797   QueueSize <integer> = 0x0000000000000080 (128)
00:00:04.020800 
00:00:04.020802 [/Devices/pcnet/] (level 2)
00:00:04.020805 
00:00:04.020806 [/Devices/pcnet/0/] (level 3)
00:00:04.020810   PCIBusNo      <integer> = 0x0000000000000000 (0)
00:00:04.020813   PCIDeviceNo   <integer> = 0x0000000000000003 (3)
00:00:04.020815   PCIFunctionNo <integer> = 0x0000000000000000 (0)
00:00:04.020818   Trusted       <integer> = 0x0000000000000001 (1)
00:00:04.020821 
00:00:04.020822 [/Devices/pcnet/0/Config/] (level 4)
00:00:04.020826   Am79C973       <integer> = 0x0000000000000001 (1)
00:00:04.020829   CableConnected <integer> = 0x0000000000000001 (1)
00:00:04.020832   LineSpeed      <integer> = 0x0000000000000000 (0)
00:00:04.020834   MAC            <bytes>   = "08 00 27 d7 f9 99" (cb=6)
00:00:04.020840 
00:00:04.020841 [/Devices/pcnet/0/LUN#0/] (level 4)
00:00:04.020845   Driver <string>  = "NAT" (cb=4)
00:00:04.020848 
00:00:04.020849 [/Devices/pcnet/0/LUN#0/Config/] (level 5)
00:00:04.020854   AliasMode       <integer> = 0x0000000000000000 (0)
00:00:04.020857   BootFile        <string>  = "osand.pxe" (cb=10)
00:00:04.020860   DNSProxy        <integer> = 0x0000000000000000 (0)
00:00:04.020863   Network         <string>  = "10.0.2.0/24" (cb=12)
00:00:04.020865   PassDomain      <integer> = 0x0000000000000001 (1)
00:00:04.020868   TFTPPrefix      <string>  = "/Users/amin/Library/VirtualBox/TFTP" (cb=36)
00:00:04.020871   UseHostResolver <integer> = 0x0000000000000000 (0)
00:00:04.020873 
00:00:04.020875 [/Devices/pcnet/0/LUN#999/] (level 4)
00:00:04.020879   Driver <string>  = "MainStatus" (cb=11)
00:00:04.020881 
00:00:04.020882 [/Devices/pcnet/0/LUN#999/Config/] (level 5)
00:00:04.020886   First   <integer> = 0x0000000000000000 (0)
00:00:04.020889   Last    <integer> = 0x0000000000000000 (0)
00:00:04.020892   papLeds <integer> = 0x00007fb9ab834080 (140 435 423 182 976)
00:00:04.020896 
00:00:04.020898 [/Devices/piix3ide/] (level 2)
00:00:04.020901 
00:00:04.020902 [/Devices/piix3ide/0/] (level 3)
00:00:04.020906   PCIBusNo      <integer> = 0x0000000000000000 (0)
00:00:04.020909   PCIDeviceNo   <integer> = 0x0000000000000001 (1)
00:00:04.020911   PCIFunctionNo <integer> = 0x0000000000000001 (1)
00:00:04.020914   Trusted       <integer> = 0x0000000000000001 (1)
00:00:04.020917 
00:00:04.020918 [/Devices/piix3ide/0/Config/] (level 4)
00:00:04.020922   Type <string>  = "PIIX4" (cb=6)
00:00:04.020924 
00:00:04.020926 [/Devices/piix3ide/0/Config/PrimaryMaster/] (level 5)
00:00:04.020930   NonRotationalMedium <integer> = 0x0000000000000000 (0)
00:00:04.020933 
00:00:04.020934 [/Devices/piix3ide/0/Config/PrimarySlave/] (level 5)
00:00:04.020939   NonRotationalMedium <integer> = 0x0000000000000000 (0)
00:00:04.020941 
00:00:04.020942 [/Devices/piix3ide/0/LUN#0/] (level 4)
00:00:04.020946   Driver <string>  = "VD" (cb=3)
00:00:04.020949 
00:00:04.020950 [/Devices/piix3ide/0/LUN#0/Config/] (level 5)
00:00:04.020954   Format    <string>  = "VDI" (cb=4)
00:00:04.020957   Mountable <integer> = 0x0000000000000000 (0)
00:00:04.020960   Path      <string>  = "/Users/amin/VirtualBox VMs/osand/osand.vdi" (cb=43)
00:00:04.020963   Type      <string>  = "HardDisk" (cb=9)
00:00:04.020965 
00:00:04.020966 [/Devices/piix3ide/0/LUN#1/] (level 4)
00:00:04.020970   Driver <string>  = "VD" (cb=3)
00:00:04.020972 
00:00:04.020974 [/Devices/piix3ide/0/LUN#1/Config/] (level 5)
00:00:04.020978   Format    <string>  = "RAW" (cb=4)
00:00:04.020981   Mountable <integer> = 0x0000000000000001 (1)
00:00:04.020983   Path      <string>  = "/Users/amin/Downloads/android-x86_64-7.1-rc2.iso" (cb=49)
00:00:04.020986   ReadOnly  <integer> = 0x0000000000000001 (1)
00:00:04.020989   Type      <string>  = "DVD" (cb=4)
00:00:04.020991 
00:00:04.020992 [/Devices/piix3ide/0/LUN#999/] (level 4)
00:00:04.020996   Driver <string>  = "MainStatus" (cb=11)
00:00:04.020998 
00:00:04.021000 [/Devices/piix3ide/0/LUN#999/Config/] (level 5)
00:00:04.021004   DeviceInstance        <string>  = "piix3ide/0" (cb=11)
00:00:04.021007   First                 <integer> = 0x0000000000000000 (0)
00:00:04.021010   Last                  <integer> = 0x0000000000000003 (3)
00:00:04.021014   pConsole              <integer> = 0x00007fb9ab833a00 (140 435 423 181 312)
00:00:04.021019   papLeds               <integer> = 0x00007fb9ab833d80 (140 435 423 182 208)
00:00:04.021025   pmapMediumAttachments <integer> = 0x00007fb9ab8341c0 (140 435 423 183 296)
00:00:04.021030 
00:00:04.021031 [/Devices/serial/] (level 2)
00:00:04.021034 
00:00:04.021036 [/Devices/usb-ohci/] (level 2)
00:00:04.021039 
00:00:04.021040 [/Devices/usb-ohci/0/] (level 3)
00:00:04.021044   PCIBusNo      <integer> = 0x0000000000000000 (0)
00:00:04.021047   PCIDeviceNo   <integer> = 0x0000000000000006 (6)
00:00:04.021050   PCIFunctionNo <integer> = 0x0000000000000000 (0)
00:00:04.021052   Trusted       <integer> = 0x0000000000000001 (1)
00:00:04.021055 
00:00:04.021056 [/Devices/usb-ohci/0/Config/] (level 4)
00:00:04.021060 
00:00:04.021062 [/Devices/usb-ohci/0/LUN#0/] (level 4)
00:00:04.021066   Driver <string>  = "VUSBRootHub" (cb=12)
00:00:04.021068 
00:00:04.021069 [/Devices/usb-ohci/0/LUN#0/Config/] (level 5)
00:00:04.021074 
00:00:04.021075 [/Devices/usb-ohci/0/LUN#999/] (level 4)
00:00:04.021079   Driver <string>  = "MainStatus" (cb=11)
00:00:04.021081 
00:00:04.021082 [/Devices/usb-ohci/0/LUN#999/Config/] (level 5)
00:00:04.021087   First   <integer> = 0x0000000000000000 (0)
00:00:04.021089   Last    <integer> = 0x0000000000000000 (0)
00:00:04.021092   papLeds <integer> = 0x00007fb9ab8341a8 (140 435 423 183 272)
00:00:04.021097 
00:00:04.021098 [/Devices/vga/] (level 2)
00:00:04.021101 
00:00:04.021103 [/Devices/vga/0/] (level 3)
00:00:04.021107   PCIBusNo      <integer> = 0x0000000000000000 (0)
00:00:04.021110   PCIDeviceNo   <integer> = 0x0000000000000002 (2)
00:00:04.021112   PCIFunctionNo <integer> = 0x0000000000000000 (0)
00:00:04.021115   Trusted       <integer> = 0x0000000000000001 (1)
00:00:04.021118 
00:00:04.021119 [/Devices/vga/0/Config/] (level 4)
00:00:04.021124   CustomVideoModes <integer> = 0x0000000000000000 (0)
00:00:04.021127   FadeIn           <integer> = 0x0000000000000001 (1)
00:00:04.021130   FadeOut          <integer> = 0x0000000000000001 (1)
00:00:04.021133   HeightReduction  <integer> = 0x0000000000000000 (0)
00:00:04.021135   LogoFile         <string>  = "" (cb=1)
00:00:04.021138   LogoTime         <integer> = 0x0000000000000000 (0)
00:00:04.021141   MonitorCount     <integer> = 0x0000000000000001 (1)
00:00:04.021144   ShowBootMenu     <integer> = 0x0000000000000002 (2)
00:00:04.021147   VRamSize         <integer> = 0x0000000000600000 (6 291 456, 6 MB)
00:00:04.021152 
00:00:04.021153 [/Devices/vga/0/LUN#0/] (level 4)
00:00:04.021157   Driver <string>  = "MainDisplay" (cb=12)
00:00:04.021160 
00:00:04.021161 [/Devices/vga/0/LUN#0/Config/] (level 5)
00:00:04.021165   Object <integer> = 0x00007fb9ac125a00 (140 435 432 561 152)
00:00:04.021170 
00:00:04.021171 [/Devices/vga/0/LUN#999/] (level 4)
00:00:04.021175   Driver <string>  = "MainStatus" (cb=11)
00:00:04.021177 
00:00:04.021179 [/Devices/vga/0/LUN#999/Config/] (level 5)
00:00:04.021183   First   <integer> = 0x0000000000000000 (0)
00:00:04.021185   Last    <integer> = 0x0000000000000000 (0)
00:00:04.021188   papLeds <integer> = 0x00007fb9ab8341b8 (140 435 423 183 288)
00:00:04.021193 
00:00:04.021194 [/Devices/virtio-net/] (level 2)
00:00:04.021197 
00:00:04.021198 [/EM/] (level 1)
00:00:04.021202   TripleFaultReset <integer> = 0x0000000000000000 (0)
00:00:04.021204 
00:00:04.021205 [/GIM/] (level 1)
00:00:04.021208   Provider <string>  = "None" (cb=5)
00:00:04.021211 
00:00:04.021212 [/HM/] (level 1)
00:00:04.021216   64bitEnabled       <integer> = 0x0000000000000001 (1)
00:00:04.021218   EnableLargePages   <integer> = 0x0000000000000001 (1)
00:00:04.021221   EnableNestedPaging <integer> = 0x0000000000000001 (1)
00:00:04.021224   EnableUX           <integer> = 0x0000000000000001 (1)
00:00:04.021227   EnableVPID         <integer> = 0x0000000000000001 (1)
00:00:04.021230   Exclusive          <integer> = 0x0000000000000000 (0)
00:00:04.021232   HMForced           <integer> = 0x0000000000000001 (1)
00:00:04.021235 
00:00:04.021237 [/MM/] (level 1)
00:00:04.021239   CanUseLargerHeap <integer> = 0x0000000000000000 (0)
00:00:04.021242 
00:00:04.021243 [/PDM/] (level 1)
00:00:04.021246 
00:00:04.021247 [/PDM/AsyncCompletion/] (level 2)
00:00:04.021251 
00:00:04.021252 [/PDM/AsyncCompletion/File/] (level 3)
00:00:04.021256 
00:00:04.021257 [/PDM/AsyncCompletion/File/BwGroups/] (level 4)
00:00:04.021262 
00:00:04.021263 [/PDM/BlkCache/] (level 2)
00:00:04.021266   CacheSize <integer> = 0x0000000000500000 (5 242 880, 5 MB)
00:00:04.021271 
00:00:04.021272 [/PDM/Devices/] (level 2)
00:00:04.021275 
00:00:04.021276 [/PDM/Drivers/] (level 2)
00:00:04.021279 
00:00:04.021281 [/PDM/Drivers/VBoxC/] (level 3)
00:00:04.021284   Path <string>  = "/Applications/VirtualBox.app/Contents/MacOS/components/VBoxC" (cb=61)
00:00:04.021287 
00:00:04.021288 [/PDM/NetworkShaper/] (level 2)
00:00:04.021291 
00:00:04.021293 [/PDM/NetworkShaper/BwGroups/] (level 3)
00:00:04.021296 
00:00:04.021298 [/TM/] (level 1)
00:00:04.021301   UTCOffset <integer> = 0x0000000000000000 (0)
00:00:04.021303 
00:00:04.021304 [/USB/] (level 1)
00:00:04.021307 
00:00:04.021308 [/USB/USBProxy/] (level 2)
00:00:04.021312 
00:00:04.021313 [/USB/USBProxy/GlobalConfig/] (level 3)
00:00:04.021317 
00:00:04.021319 ********************* End of CFGM dump **********************
00:00:04.021325 VM: fHMEnabled=true  (configured) fRecompileUser=false fRecompileSupervisor=false
00:00:04.021331 VM: fRawRing1Enabled=false CSAM=false PATM=false
00:00:04.022668 HM: HMR3Init: VT-x w/ nested paging and unrestricted guest execution hw support
00:00:04.022924 MM: cbHyperHeap=0x100000 (1048576)
00:00:04.029174 CPUM: fXStateHostMask=0x7; initial: 0x7; host XCR0=0x7
00:00:04.035025 CPUM: Matched host CPU INTEL 0x6/0x45/0x1 Intel_Core7_Haswell with CPU DB entry 'Intel Core i7-5600U' (INTEL 0x6/0x3d/0x4 Intel_Core7_Broadwell)
00:00:04.037065 CPUM: MXCSR_MASK=0xffff (host: 0xffff)
00:00:04.038338 CPUM: SetGuestCpuIdFeature: Enabled PAE
00:00:04.038373 CPUM: VCPU  0: Cached APIC base MSR = 0x0
00:00:04.044153 PGM: HCPhysInterPD=000000000fe2e000 HCPhysInterPaePDPT=000000000fe2b000 HCPhysInterPaePML4=000000000fe29000
00:00:04.044194 PGM: apInterPTs={000000000fe2d000,000000000fe2c000} apInterPaePTs={0000000159be6000,000000015b7e7000} apInterPaePDs={000000015bc68000,000000015ca29000,000000015d3ea000,000000015c5ab000} pInterPaePDPT64=000000000fe2a000
00:00:04.044214 PGM: Host paging mode: AMD64+PGE+NX
00:00:04.044266 PGM: PGMPool: cMaxPages=1072 (u64MaxPages=1058)
00:00:04.044277 PGM: pgmR3PoolInit: cMaxPages=0x430 cMaxUsers=0x860 cMaxPhysExts=0x860 fCacheEnable=true 
00:00:04.068798 TM: GIP - u32Mode=3 (Invariant) u32UpdateHz=100 u32UpdateIntervalNS=10000000 enmUseTscDelta=2 (Pratically Zero) fGetGipCpu=0x5 cCpus=4
00:00:04.068875 TM: GIP - u64CpuHz=1 899 999 998 (0x713fb2fe)  SUPGetCpuHzFromGip => 1 899 999 998
00:00:04.068898 TM: GIP - CPU: iCpuSet=0x0 idCpu=0x0 idApic=0x0 iGipCpu=0x0 i64TSCDelta=0 enmState=3 u64CpuHz=1899999998(*) cErrors=0
00:00:04.068919 TM: GIP - CPU: iCpuSet=0x1 idCpu=0x1 idApic=0x1 iGipCpu=0x1 i64TSCDelta=0 enmState=3 u64CpuHz=1899996647(*) cErrors=0
00:00:04.068937 TM: GIP - CPU: iCpuSet=0x2 idCpu=0x2 idApic=0x2 iGipCpu=0x3 i64TSCDelta=0 enmState=3 u64CpuHz=1899999996(*) cErrors=0
00:00:04.068954 TM: GIP - CPU: iCpuSet=0x3 idCpu=0x3 idApic=0x3 iGipCpu=0x2 i64TSCDelta=0 enmState=3 u64CpuHz=1899999870(*) cErrors=0
00:00:04.069767 TM: cTSCTicksPerSecond=1 899 999 998 (0x713fb2fe) enmTSCMode=3 (Dynamic)
00:00:04.069783 TM: TSCTiedToExecution=false TSCNotTiedToHalt=false
00:00:04.074008 IEM: TargetCpu=CURRENT, Microarch=Intel_Core7_Haswell
00:00:04.075858 GIM: Using provider 'None' (Implementation version: 0)
00:00:04.077190 AIOMgr: Default manager type is 'Async'
00:00:04.077236 AIOMgr: Default file backend is 'NonBuffered'
00:00:04.078176 BlkCache: Cache successfully initialized. Cache size is 5242880 bytes
00:00:04.078214 BlkCache: Cache commit interval is 10000 ms
00:00:04.078229 BlkCache: Cache commit threshold is 2621440 bytes
00:00:04.147904 PcBios: [SMP] BIOS with 1 CPUs
00:00:04.149060 PcBios: Using the 386+ BIOS image.
00:00:04.152621 PcBios: MPS table at 000e1300
00:00:04.162191 PcBios: fCheckShutdownStatusForSoftReset=true   fClearShutdownStatusOnHardReset=true 
00:00:04.172005 SUP: Loaded VBoxDDR0.r0 (/Applications/VirtualBox.app/Contents/MacOS/VBoxDDR0.r0) at 0xXXXXXXXXXXXXXXXX - ModuleInit at XXXXXXXXXXXXXXXX and ModuleTerm at XXXXXXXXXXXXXXXX
00:00:04.179218 CPUM: SetGuestCpuIdFeature: Enabled xAPIC
00:00:04.183521 IOAPIC: Using implementation 2.0!
00:00:04.184672 PIT: mode=3 count=0x10000 (65536) - 18.20 Hz (ch=0)
00:00:04.204267 Shared Folders service loaded
00:00:04.222843 VGA: Using the 386+ BIOS image.
00:00:04.253346 DrvVD: Flushes will be ignored
00:00:04.253380 DrvVD: Async flushes will be passed to the disk
00:00:04.253854 VD: VDInit finished
00:00:04.254024 VD: Opening the disk took 577671 ns
00:00:04.255154 PIIX3 ATA: LUN#0: disk, PCHS=4161/16/63, total number of sectors 4194304
00:00:04.255254 DrvVD: Flushes will be ignored
00:00:04.255280 DrvVD: Async flushes will be passed to the disk
00:00:04.255571 VD: Opening the disk took 269165 ns
00:00:04.255902 PIIX3 ATA: LUN#1: CD/DVD, total number of sectors 412160, passthrough disabled
00:00:04.256024 PIIX3 ATA: LUN#2: no unit
00:00:04.256049 PIIX3 ATA: LUN#3: no unit
00:00:04.256264 PIIX3 ATA: Ctl#1: finished processing RESET
00:00:04.256318 PIIX3 ATA: Ctl#0: finished processing RESET
00:00:04.288681 NAT: Guest address guess set to 10.0.2.15 by initialization
00:00:04.290020 NAT: resolv.conf: nameserver 192.168.0.2
00:00:04.290061 NAT: resolv.conf: nameserver 0.0.0.0
00:00:04.290103 NAT: DNS#0: 192.168.0.2
00:00:04.290116 NAT: DNS#1: 0.0.0.0
00:00:04.294901 Audio: Initializing Core Audio driver
00:00:04.294938 Audio: Using VBox 5.0.x audio code!
00:00:04.385640 Audio: Host audio backend supports 2 output streams and 2 input streams at once
00:00:04.385812 Audio: Initializing VRDE driver
00:00:04.385862 Audio: Using VBox 5.0.x audio code!
00:00:04.385877 Audio: Host audio backend supports 1 output streams and 2 input streams at once
00:00:04.386003 AC97: Reset
00:00:04.426032 PGM: The CPU physical address width is 39 bits
00:00:04.426071 PGM: PGMR3InitFinalize: 4 MB PSE mask 0000007fffffffff
00:00:04.426253 TM: TMR3InitFinalize: fTSCModeSwitchAllowed=false
00:00:04.446753 VMM: Thread-context hooks unavailable
00:00:04.447631 HM: Using VT-x implementation 2.0
00:00:04.447631 HM: Host CR4                        = 0x1627e0
00:00:04.447631 HM: Host EFER                       = 0xd01
00:00:04.447631 HM: MSR_IA32_SMM_MONITOR_CTL        = 0x0
00:00:04.447631 HM: MSR_IA32_FEATURE_CONTROL        = 0x5
00:00:04.447631 HM: MSR_IA32_VMX_BASIC_INFO         = 0xda040000000012
00:00:04.447631 HM:   VMCS id                         = 0x12
00:00:04.447631 HM:   VMCS size                       = 1024 bytes
00:00:04.447631 HM:   VMCS physical address limit     = None
00:00:04.447631 HM:   VMCS memory type                = 0x6
00:00:04.447631 HM:   Dual-monitor treatment support  = true 
00:00:04.447631 HM:   OUTS & INS instruction-info     = true 
00:00:04.447631 HM: Max resume loops                = 8192
00:00:04.447631 HM: MSR_IA32_VMX_PINBASED_CTLS      = 0x7f00000016
00:00:04.447631 HM:   EXT_INT_EXIT
00:00:04.447631 HM:   NMI_EXIT
00:00:04.447631 HM:   VIRTUAL_NMI
00:00:04.447631 HM:   PREEMPT_TIMER
00:00:04.447631 HM:   POSTED_INTR (must be cleared)
00:00:04.447631 HM: MSR_IA32_VMX_PROCBASED_CTLS     = 0xfff9fffe0401e172
00:00:04.447631 HM:   INT_WINDOW_EXIT
00:00:04.447631 HM:   USE_TSC_OFFSETTING
00:00:04.447631 HM:   HLT_EXIT
00:00:04.447631 HM:   INVLPG_EXIT
00:00:04.447631 HM:   MWAIT_EXIT
00:00:04.447888 HM:   RDPMC_EXIT
00:00:04.447891 HM:   RDTSC_EXIT
00:00:04.447893 HM:   CR3_LOAD_EXIT (must be set)
00:00:04.447895 HM:   CR3_STORE_EXIT (must be set)
00:00:04.447898 HM:   CR8_LOAD_EXIT
00:00:04.447900 HM:   CR8_STORE_EXIT
00:00:04.447902 HM:   USE_TPR_SHADOW
00:00:04.447904 HM:   NMI_WINDOW_EXIT
00:00:04.447906 HM:   MOV_DR_EXIT
00:00:04.447908 HM:   UNCOND_IO_EXIT
00:00:04.447910 HM:   USE_IO_BITMAPS
00:00:04.447913 HM:   MONITOR_TRAP_FLAG
00:00:04.447949 HM:   USE_MSR_BITMAPS
00:00:04.447951 HM:   MONITOR_EXIT
00:00:04.447952 HM:   PAUSE_EXIT
00:00:04.447954 HM:   USE_SECONDARY_EXEC_CTRL
00:00:04.447955 HM: MSR_IA32_VMX_PROCBASED_CTLS2    = 0x3cff00000000
00:00:04.447959 HM:   VIRT_APIC
00:00:04.447960 HM:   EPT
00:00:04.447962 HM:   DESCRIPTOR_TABLE_EXIT
00:00:04.447963 HM:   RDTSCP
00:00:04.447964 HM:   VIRT_X2APIC
00:00:04.447966 HM:   VPID
00:00:04.447967 HM:   WBINVD_EXIT
00:00:04.447969 HM:   UNRESTRICTED_GUEST
00:00:04.447970 HM:   APIC_REG_VIRT (must be cleared)
00:00:04.447972 HM:   VIRT_INTR_DELIVERY (must be cleared)
00:00:04.447974 HM:   PAUSE_LOOP_EXIT
00:00:04.447975 HM:   RDRAND_EXIT
00:00:04.447976 HM:   INVPCID
00:00:04.447978 HM:   VMFUNC
00:00:04.447979 HM:   VMCS_SHADOWING (must be cleared)
00:00:04.447981 HM:   ENCLS_EXIT (must be cleared)
00:00:04.447982 HM:   RDSEED_EXIT (must be cleared)
00:00:04.447984 HM:   PML (must be cleared)
00:00:04.447985 HM:   EPT_VE (must be cleared)
00:00:04.447987 HM:   CONCEAL_FROM_PT (must be cleared)
00:00:04.447989 HM:   XSAVES_XRSTORS (must be cleared)
00:00:04.447990 HM:   TSC_SCALING (must be cleared)
00:00:04.447992 HM: MSR_IA32_VMX_ENTRY_CTLS         = 0xffff000011ff
00:00:04.447994 HM:   LOAD_DEBUG (must be set)
00:00:04.447996 HM:   IA32E_MODE_GUEST
00:00:04.447997 HM:   ENTRY_SMM
00:00:04.447999 HM:   DEACTIVATE_DUALMON
00:00:04.448000 HM:   LOAD_GUEST_PERF_MSR
00:00:04.448031 HM:   LOAD_GUEST_PAT_MSR
00:00:04.448033 HM:   LOAD_GUEST_EFER_MSR
00:00:04.448034 HM: MSR_IA32_VMX_EXIT_CTLS          = 0x7fffff00036dff
00:00:04.448038 HM:   SAVE_DEBUG (must be set)
00:00:04.448039 HM:   HOST_ADDR_SPACE_SIZE
00:00:04.448040 HM:   LOAD_PERF_MSR
00:00:04.448042 HM:   ACK_EXT_INT
00:00:04.448043 HM:   SAVE_GUEST_PAT_MSR
00:00:04.448045 HM:   LOAD_HOST_PAT_MSR
00:00:04.448046 HM:   SAVE_GUEST_EFER_MSR
00:00:04.448047 HM:   LOAD_HOST_EFER_MSR
00:00:04.448049 HM:   SAVE_VMX_PREEMPT_TIMER
00:00:04.448050 HM: MSR_IA32_VMX_EPT_VPID_CAP       = 0xf0106334141
00:00:04.448083 HM:   RWX_X_ONLY
00:00:04.448084 HM:   PAGE_WALK_LENGTH_4
00:00:04.448086 HM:   EMT_UC
00:00:04.448087 HM:   EMT_WB
00:00:04.448088 HM:   PDE_2M
00:00:04.448090 HM:   PDPTE_1G
00:00:04.448091 HM:   INVEPT
00:00:04.448093 HM:   EPT_ACCESS_DIRTY
00:00:04.448094 HM:   INVEPT_SINGLE_CONTEXT
00:00:04.448096 HM:   INVEPT_ALL_CONTEXTS
00:00:04.448097 HM:   INVVPID
00:00:04.448099 HM:   INVVPID_INDIV_ADDR
00:00:04.448100 HM:   INVVPID_SINGLE_CONTEXT
00:00:04.448102 HM:   INVVPID_ALL_CONTEXTS
00:00:04.448103 HM:   INVVPID_SINGLE_CONTEXT_RETAIN_GLOBALS
00:00:04.448105 HM: MSR_IA32_VMX_MISC               = 0x300481e5
00:00:04.448108 HM:   PREEMPT_TSC_BIT                 = 0x5
00:00:04.448110 HM:   STORE_EFERLMA_VMEXIT            = true 
00:00:04.448112 HM:   ACTIVITY_STATES                 = 0x7
00:00:04.448114 HM:   CR3_TARGET                      = 0x4
00:00:04.448116 HM:   MAX_MSR                         = 512
00:00:04.448118 HM:   RDMSR_SMBASE_MSR_SMM            = true 
00:00:04.448121 HM:   SMM_MONITOR_CTL_B2              = true 
00:00:04.448123 HM:   VMWRITE_VMEXIT_INFO             = true 
00:00:04.448125 HM:   MSEG_ID                         = 0x0
00:00:04.448127 HM: MSR_IA32_VMX_CR0_FIXED0         = 0x80000021
00:00:04.448130 HM: MSR_IA32_VMX_CR0_FIXED1         = 0xffffffff
00:00:04.448132 HM: MSR_IA32_VMX_CR4_FIXED0         = 0x2000
00:00:04.448135 HM: MSR_IA32_VMX_CR4_FIXED1         = 0x1727ff
00:00:04.448138 HM: MSR_IA32_VMX_VMCS_ENUM          = 0x2a
00:00:04.448140 HM:   HIGHEST_INDEX                   = 0x15
00:00:04.448142 HM: MSR_IA32_VMX_VMFUNC             = 0x1
00:00:04.448144 HM:   EPTP_SWITCHING
00:00:04.448146 HM: APIC-access page physaddr       = 0x0000000010a05000
00:00:04.448149 HM: VCPU  0: MSR bitmap physaddr    = 0x0000000010a0d000
00:00:04.448153 HM: VCPU  0: VMCS physaddr          = 0x0000000010a09000
00:00:04.448157 HM: Guest support: 32-bit and 64-bit
00:00:04.448188 HM: Supports VMCS EFER fields       = true 
00:00:04.448190 HM: Enabled VMX
00:00:04.448196 CPUM: SetGuestCpuIdFeature: Enabled SYSENTER/EXIT
00:00:04.448198 CPUM: SetGuestCpuIdFeature: Enabled PAE
00:00:04.448200 CPUM: SetGuestCpuIdFeature: Enabled LONG MODE
00:00:04.448202 CPUM: SetGuestCpuIdFeature: Enabled SYSCALL/RET
00:00:04.448203 CPUM: SetGuestCpuIdFeature: Enabled LAHF/SAHF
00:00:04.448205 CPUM: SetGuestCpuIdFeature: Enabled NX
00:00:04.448207 HM: Enabled nested paging
00:00:04.448208 HM:   EPT flush type                = VMXFLUSHEPT_SINGLE_CONTEXT
00:00:04.448210 HM: Enabled unrestricted guest execution
00:00:04.448212 HM: Enabled large page support
00:00:04.448213 HM: Enabled VPID
00:00:04.448215 HM:   VPID flush type               = VMXFLUSHVPID_SINGLE_CONTEXT
00:00:04.448216 HM: Enabled VMX-preemption timer (cPreemptTimerShift=5)
00:00:04.448219 HM: VT-x/AMD-V init method: GLOBAL
00:00:04.448255 CPUM: VCPU  0: Cached APIC base MSR = 0xfee00900
00:00:04.448947 PcBios: ATA LUN#0 LCHS=520/128/63
00:00:04.449008 APIC: fPostedIntrsEnabled=false fVirtApicRegsEnabled=false fSupportsTscDeadline=false
00:00:04.449040 VMM: fUsePeriodicPreemptionTimers=false
00:00:04.449578 CPUM: Logical host processors: 4 present, 4 max, 4 online, online mask: 000000000000000f
00:00:04.449597 CPUM: Physical host cores: 2
00:00:04.449600 ************************* CPUID dump ************************
00:00:04.449710          Raw Standard CPUID Leaves
00:00:04.449712      Leaf/sub-leaf  eax      ebx      ecx      edx
00:00:04.449715 Gst: 00000000/0000  0000000d 756e6547 6c65746e 49656e69
00:00:04.449721 Hst:                0000000d 756e6547 6c65746e 49656e69
00:00:04.449764 Gst: 00000001/0000  00040651 00000800 56d8220b 078bfbff
00:00:04.449770 Hst:                00040651 02100800 7ffafbbf bfebfbff
00:00:04.449775 Gst: 00000002/0000  76036301 00f0b5ff 00000000 00c10000
00:00:04.449780 Hst:                76036301 00f0b5ff 00000000 00c10000
00:00:04.449785 Gst: 00000003/0000  00000000 00000000 00000000 00000000
00:00:04.449788 Hst:                00000000 00000000 00000000 00000000
00:00:04.449791 Gst: 00000004/0000  00000121 01c0003f 0000003f 00000000
00:00:04.449795 Hst:                1c004121 01c0003f 0000003f 00000000
00:00:04.449800 Gst: 00000004/0001  00000122 01c0003f 0000003f 00000000
00:00:04.449803 Hst:                1c004122 01c0003f 0000003f 00000000
00:00:04.449807 Gst: 00000004/0002  00000143 01c0003f 000001ff 00000000
00:00:04.449811 Hst:                1c004143 01c0003f 000001ff 00000000
00:00:04.449815 Gst: 00000004/0003  00000163 02c0003f 00000fff 00000006
00:00:04.449819 Hst:                1c03c163 02c0003f 00000fff 00000006
00:00:04.449823 Gst: 00000004/0004  00000000 00000000 00000000 00000000
00:00:04.449826 Hst:                00000000 00000000 00000000 00000000
00:00:04.449829 Gst: 00000005/0000  00000040 00000040 00000000 00000000
00:00:04.449832 Hst:                00000040 00000040 00000003 11142120
00:00:04.449837 Gst: 00000006/0000  00000000 00000000 00000000 00000000
00:00:04.449840 Hst:                00000077 00000002 00000009 00000000
00:00:04.449843 Gst: 00000007/0000  00000000 00002000 00000000 00000000
00:00:04.449847 Hst:                00000000 000027ab 00000000 00000000
00:00:04.449850 Gst: 00000007/0001  00000000 00000000 00000000 00000000
00:00:04.449853 Hst:                00000000 00000000 00000000 00000000
00:00:04.449856 Gst: 00000008/0000  00000000 00000000 00000000 00000000
00:00:04.449859 Hst:                00000000 00000000 00000000 00000000
00:00:04.449862 Gst: 00000009/0000  00000000 00000000 00000000 00000000
00:00:04.449865 Hst:                00000000 00000000 00000000 00000000
00:00:04.449868 Gst: 0000000a/0000  00000000 00000000 00000000 00000000
00:00:04.449871 Hst:                07300403 00000000 00000000 00000603
00:00:04.449875 Gst: 0000000b/0000  00000000 00000001 00000100 00000000
00:00:04.449878 Hst:                00000001 00000002 00000100 00000002
00:00:04.449881 Gst: 0000000b/0001  00000001 00000001 00000201 00000000
00:00:04.449884 Hst:                00000004 00000004 00000201 00000002
00:00:04.449888 Gst: 0000000b/0002  00000000 00000000 00000002 00000000
00:00:04.449891 Hst:                00000000 00000000 00000002 00000002
00:00:04.449894 Gst: 0000000c/0000  00000000 00000000 00000000 00000000
00:00:04.449897 Hst:                00000000 00000000 00000000 00000000
00:00:04.449900 Gst: 0000000d/0000  00000007 00000340 00000340 00000000
00:00:04.449903 Hst:                00000007 00000340 00000340 00000000
00:00:04.449906 Gst: 0000000d/0001  00000000 00000000 00000000 00000000
00:00:04.449909 Hst:                00000001 00000000 00000000 00000000
00:00:04.449912 Gst: 0000000d/0002  00000100 00000240 00000000 00000000
00:00:04.449916 Hst:                00000100 00000240 00000000 00000000
00:00:04.449919 Gst: 0000000d/0003  00000000 00000000 00000000 00000000
00:00:04.449922 Hst:                00000000 00000000 00000000 00000000
00:00:04.449981                                Name: GenuineIntel
00:00:04.449986                            Supports: 0x00000000-0x0000000d
00:00:04.449991                              Family:  6 	Extended: 0 	Effective: 6
00:00:04.449996                               Model:  5 	Extended: 4 	Effective: 69
00:00:04.450001                            Stepping: 1
00:00:04.450048                                Type: 0 (primary)
00:00:04.450054                             APIC ID: 0x00
00:00:04.450058                        Logical CPUs: 0
00:00:04.450062                        CLFLUSH Size: 8
00:00:04.450065                            Brand ID: 0x00
00:00:04.450072 Features
00:00:04.450074   Mnemonic - Description                                  = guest (host)
00:00:04.450077   FPU - x87 FPU on Chip                                   = 1 (1)
00:00:04.450083   VME - Virtual 8086 Mode Enhancements                    = 1 (1)
00:00:04.450088   DE - Debugging extensions                               = 1 (1)
00:00:04.450092   PSE - Page Size Extension                               = 1 (1)
00:00:04.450097   TSC - Time Stamp Counter                                = 1 (1)
00:00:04.450101   MSR - Model Specific Registers                          = 1 (1)
00:00:04.450106   PAE - Physical Address Extension                        = 1 (1)
00:00:04.450110   MCE - Machine Check Exception                           = 1 (1)
00:00:04.450114   CX8 - CMPXCHG8B instruction                             = 1 (1)
00:00:04.450118   APIC - APIC On-Chip                                     = 1 (1)
00:00:04.450123   SEP - SYSENTER and SYSEXIT Present                      = 1 (1)
00:00:04.450127   MTRR - Memory Type Range Registers                      = 1 (1)
00:00:04.450131   PGE - PTE Global Bit                                    = 1 (1)
00:00:04.450135   MCA - Machine Check Architecture                        = 1 (1)
00:00:04.450139   CMOV - Conditional Move instructions                    = 1 (1)
00:00:04.450144   PAT - Page Attribute Table                              = 1 (1)
00:00:04.450151   PSE-36 - 36-bit Page Size Extension                     = 1 (1)
00:00:04.450156   PSN - Processor Serial Number                           = 0 (0)
00:00:04.450161   CLFSH - CLFLUSH instruction                             = 1 (1)
00:00:04.450165   DS - Debug Store                                        = 0 (1)
00:00:04.450170   ACPI - Thermal Mon. & Soft. Clock Ctrl.                 = 0 (1)
00:00:04.450173   MMX - Intel MMX Technology                              = 1 (1)
00:00:04.450178   FXSR - FXSAVE and FXRSTOR instructions                  = 1 (1)
00:00:04.450181   SSE - SSE support                                       = 1 (1)
00:00:04.450186   SSE2 - SSE2 support                                     = 1 (1)
00:00:04.450193   SS - Self Snoop                                         = 0 (1)
00:00:04.450201   HTT - Hyper-Threading Technology                        = 0 (1)
00:00:04.450208   TM - Therm. Monitor                                     = 0 (1)
00:00:04.450214   PBE - Pending Break Enabled                             = 0 (1)
00:00:04.450221   SSE3 - SSE3 support                                     = 1 (1)
00:00:04.450285   PCLMUL - PCLMULQDQ support (for AES-GCM)                = 1 (1)
00:00:04.450290   DTES64 - DS Area 64-bit Layout                          = 0 (1)
00:00:04.450295   MONITOR - MONITOR/MWAIT instructions                    = 1 (1)
00:00:04.450299   CPL-DS - CPL Qualified Debug Store                      = 0 (1)
00:00:04.450302   VMX - Virtual Machine Extensions                        = 0 (1)
00:00:04.450307   SMX - Safer Mode Extensions                             = 0 (0)
00:00:04.450311   EST - Enhanced SpeedStep Technology                     = 0 (1)
00:00:04.450315   TM2 - Terminal Monitor 2                                = 0 (1)
00:00:04.450319   SSSE3 - Supplemental Streaming SIMD Extensions 3        = 1 (1)
00:00:04.450323   CNTX-ID - L1 Context ID                                 = 0 (0)
00:00:04.450327   SDBG - Silicon Debug interface                          = 0 (1)
00:00:04.450332   FMA - Fused Multiply Add extensions                     = 0 (1)
00:00:04.450335   CX16 - CMPXCHG16B instruction                           = 1 (1)
00:00:04.450340   TPRUPDATE - xTPR Update Control                         = 0 (1)
00:00:04.450344   PDCM - Perf/Debug Capability MSR                        = 0 (1)
00:00:04.450348   PCID - Process Context Identifiers                      = 0 (1)
00:00:04.450352   DCA - Direct Cache Access                               = 0 (0)
00:00:04.450356   SSE4_1 - SSE4_1 support                                 = 1 (1)
00:00:04.450361   SSE4_2 - SSE4_2 support                                 = 1 (1)
00:00:04.450365   X2APIC - x2APIC support                                 = 0 (1)
00:00:04.450369   MOVBE - MOVBE instruction                               = 1 (1)
00:00:04.450374   POPCNT - POPCNT instruction                             = 1 (1)
00:00:04.450378   TSCDEADL - Time Stamp Counter Deadline                  = 0 (1)
00:00:04.450382   AES - AES instructions                                  = 1 (1)
00:00:04.450386   XSAVE - XSAVE instruction                               = 1 (1)
00:00:04.450390   OSXSAVE - OSXSAVE instruction                           = 0 (1)
00:00:04.450394   AVX - AVX support                                       = 1 (1)
00:00:04.450399   F16C - 16-bit floating point conversion instructions    = 0 (1)
00:00:04.450402   RDRAND - RDRAND instruction                             = 1 (1)
00:00:04.450406   HVP - Hypervisor Present (we're a guest)                = 0 (0)
00:00:04.450411 Structured Extended Feature Flags Enumeration (leaf 7):
00:00:04.450413   Mnemonic - Description                                  = guest (host)
00:00:04.450415   FSGSBASE - RDFSBASE/RDGSBASE/WRFSBASE/WRGSBASE instr.   = 0 (1)
00:00:04.450418   TSCADJUST - Supports MSR_IA32_TSC_ADJUST                = 0 (1)
00:00:04.450422   SGX - Supports Software Guard Extensions                = 0 (0)
00:00:04.450426   BMI1 - Advanced Bit Manipulation extension 1            = 0 (1)
00:00:04.450429   HLE - Hardware Lock Elision                             = 0 (0)
00:00:04.450433   AVX2 - Advanced Vector Extensions 2                     = 0 (1)
00:00:04.450437   FDP_EXCPTN_ONLY - FPU DP only updated on exceptions     = 0 (0)
00:00:04.450440   SMEP - Supervisor Mode Execution Prevention             = 0 (1)
00:00:04.450444   BMI2 - Advanced Bit Manipulation extension 2            = 0 (1)
00:00:04.450447   ERMS - Enhanced REP MOVSB/STOSB instructions            = 0 (1)
00:00:04.450451   INVPCID - INVPCID instruction                           = 0 (1)
00:00:04.450455   RTM - Restricted Transactional Memory                   = 0 (0)
00:00:04.450458   PQM - Platform Quality of Service Monitoring            = 0 (0)
00:00:04.450462   DEPFPU_CS_DS - Deprecates FPU CS, FPU DS values if set  = 1 (1)
00:00:04.450465   MPE - Intel Memory Protection Extensions                = 0 (0)
00:00:04.450468   PQE - Platform Quality of Service Enforcement           = 0 (0)
00:00:04.450472   AVX512F - AVX512 Foundation instructions                = 0 (0)
00:00:04.450476   RDSEED - RDSEED instruction                             = 0 (0)
00:00:04.450480   ADX - ADCX/ADOX instructions                            = 0 (0)
00:00:04.450484   SMAP - Supervisor Mode Access Prevention                = 0 (0)
00:00:04.450488   CLFLUSHOPT - CLFLUSHOPT (Cache Line Flush) instruction  = 0 (0)
00:00:04.450491   INTEL_PT - Intel Processor Trace                        = 0 (0)
00:00:04.450495   AVX512PF - AVX512 Prefetch instructions                 = 0 (0)
00:00:04.450531   AVX512ER - AVX512 Exponential & Reciprocal instructions = 0 (0)
00:00:04.450537   AVX512CD - AVX512 Conflict Detection instructions       = 0 (0)
00:00:04.450542   SHA - Secure Hash Algorithm extensions                  = 0 (0)
00:00:04.450547   PREFETCHWT1 - PREFETCHWT1 instruction                   = 0 (0)
00:00:04.450550   PKU - Protection Key for Usermode pages                 = 0 (0)
00:00:04.450554   OSPKU - CR4.PKU mirror                                  = 0 (0)
00:00:04.450560 Processor Extended State Enumeration (leaf 0xd):
00:00:04.450562    XSAVE area cur/max size by XCR0, guest: 0x340/0x340
00:00:04.450566     XSAVE area cur/max size by XCR0, host: 0x340/0x340
00:00:04.450570                    Valid XCR0 bits, guest: 0x00000000`00000007 ( x87 SSE YMM_Hi128 )
00:00:04.450577                     Valid XCR0 bits, host: 0x00000000`00000007 ( x87 SSE YMM_Hi128 )
00:00:04.450583                     XSAVE features, guest:
00:00:04.450588                      XSAVE features, host: XSAVEOPT
00:00:04.450595       XSAVE area cur size XCR0|XSS, guest: 0x0
00:00:04.450599        XSAVE area cur size XCR0|XSS, host: 0x0
00:00:04.450601                Valid IA32_XSS bits, guest: 0x00000000`00000000
00:00:04.450605                 Valid IA32_XSS bits, host: 0x00000000`00000000
00:00:04.450608   State #2, guest: off=0x0240, cb=0x0100 IA32_XSS-bit -- YMM_Hi128
00:00:04.450615   State #2, host:  off=0x0240, cb=0x0100 IA32_XSS-bit -- YMM_Hi128
00:00:04.450649          Raw Extended CPUID Leaves
00:00:04.450650      Leaf/sub-leaf  eax      ebx      ecx      edx
00:00:04.450652 Gst: 80000000/0000  80000008 00000000 00000000 00000000
00:00:04.450657 Hst:                80000008 00000000 00000000 00000000
00:00:04.450661 Gst: 80000001/0000  00000000 00000000 00000021 28100800
00:00:04.450666 Hst:                00000000 00000000 00000021 2c100800
00:00:04.450672 Gst: 80000002/0000  65746e49 2952286c 726f4320 4d542865
00:00:04.450679 Hst:                65746e49 2952286c 726f4320 4d542865
00:00:04.450686 Gst: 80000003/0000  35692029 3532342d 43205530 40205550
00:00:04.450691 Hst:                35692029 3532342d 43205530 40205550
00:00:04.450697 Gst: 80000004/0000  332e3120 7a484730 00000000 00000000
00:00:04.450703 Hst:                332e3120 7a484730 00000000 00000000
00:00:04.450709 Gst: 80000005/0000  00000000 00000000 00000000 00000000
00:00:04.450713 Hst:                00000000 00000000 00000000 00000000
00:00:04.450715 Gst: 80000006/0000  00000000 00000000 01006040 00000000
00:00:04.450719 Hst:                00000000 00000000 01006040 00000000
00:00:04.450724 Gst: 80000007/0000  00000000 00000000 00000000 00000100
00:00:04.450729 Hst:                00000000 00000000 00000000 00000100
00:00:04.450733 Gst: 80000008/0000  00003027 00000000 00000000 00000000
00:00:04.450738 Hst:                00003027 00000000 00000000 00000000
00:00:04.450741 Ext Name:                        
00:00:04.450745 Ext Supports:                    0x80000000-0x80000008
00:00:04.450862 Family:                          0  	Extended: 0 	Effective: 0
00:00:04.450872 Model:                           0  	Extended: 0 	Effective: 0
00:00:04.450875 Stepping:                        0
00:00:04.450877 Brand ID:                        0x000
00:00:04.450881 Ext Features
00:00:04.450883   Mnemonic - Description                                  = guest (host)
00:00:04.450885   FPU - x87 FPU on Chip                                   = 0 (0)
00:00:04.450892   VME - Virtual 8086 Mode Enhancements                    = 0 (0)
00:00:04.450897   DE - Debugging extensions                               = 0 (0)
00:00:04.450901   PSE - Page Size Extension                               = 0 (0)
00:00:04.450906   TSC - Time Stamp Counter                                = 0 (0)
00:00:04.450910   MSR - K86 Model Specific Registers                      = 0 (0)
00:00:04.450914   PAE - Physical Address Extension                        = 0 (0)
00:00:04.450918   MCE - Machine Check Exception                           = 0 (0)
00:00:04.450922   CX8 - CMPXCHG8B instruction                             = 0 (0)
00:00:04.450926   APIC - APIC On-Chip                                     = 0 (0)
00:00:04.450931   SEP - SYSCALL/SYSRET                                    = 1 (1)
00:00:04.450936   MTRR - Memory Type Range Registers                      = 0 (0)
00:00:04.450940   PGE - PTE Global Bit                                    = 0 (0)
00:00:04.450944   MCA - Machine Check Architecture                        = 0 (0)
00:00:04.450948   CMOV - Conditional Move instructions                    = 0 (0)
00:00:04.450952   PAT - Page Attribute Table                              = 0 (0)
00:00:04.450956   PSE-36 - 36-bit Page Size Extension                     = 0 (0)
00:00:04.450965   NX - No-Execute/Execute-Disable                         = 1 (1)
00:00:04.450969   AXMMX - AMD Extensions to MMX instructions              = 0 (0)
00:00:04.450973   MMX - Intel MMX Technology                              = 0 (0)
00:00:04.450977   FXSR - FXSAVE and FXRSTOR Instructions                  = 0 (0)
00:00:04.450981   FFXSR - AMD fast FXSAVE and FXRSTOR instructions        = 0 (0)
00:00:04.450984   Page1GB - 1 GB large page                               = 0 (1)
00:00:04.450989   RDTSCP - RDTSCP instruction                             = 1 (1)
00:00:04.450995   LM - AMD64 Long Mode                                    = 1 (1)
00:00:04.451000   3DNOWEXT - AMD Extensions to 3DNow                      = 0 (0)
00:00:04.451004   3DNOW - AMD 3DNow                                       = 0 (0)
00:00:04.451009   LahfSahf - LAHF/SAHF support in 64-bit mode             = 1 (1)
00:00:04.451013   CmpLegacy - Core multi-processing legacy mode           = 0 (0)
00:00:04.451016   SVM - AMD Secure Virtual Machine extensions             = 0 (0)
00:00:04.451020   EXTAPIC - AMD Extended APIC registers                   = 0 (0)
00:00:04.451023   CR8L - AMD LOCK MOV CR0 means MOV CR8                   = 0 (0)
00:00:04.451027   ABM - AMD Advanced Bit Manipulation                     = 1 (1)
00:00:04.451031   SSE4A - SSE4A instructions                              = 0 (0)
00:00:04.451035   MISALIGNSSE - AMD Misaligned SSE mode                   = 0 (0)
00:00:04.451039   3DNOWPRF - AMD PREFETCH and PREFETCHW instructions      = 0 (0)
00:00:04.451042   OSVW - AMD OS Visible Workaround                        = 0 (0)
00:00:04.451046   IBS - Instruct Based Sampling                           = 0 (0)
00:00:04.451050   XOP - Extended Operation support                        = 0 (0)
00:00:04.451054   SKINIT - SKINIT, STGI, and DEV support                  = 0 (0)
00:00:04.451057   WDT - AMD Watchdog Timer support                        = 0 (0)
00:00:04.451061   LWP - Lightweight Profiling support                     = 0 (0)
00:00:04.451065   FMA4 - Four operand FMA instruction support             = 0 (0)
00:00:04.451069   NodeId - NodeId in MSR C001_100C                        = 0 (0)
00:00:04.451073   TBM - Trailing Bit Manipulation instructions            = 0 (0)
00:00:04.451076   TOPOEXT - Topology Extensions                           = 0 (0)
00:00:04.451081 Full Name:                       "Intel(R) Core(TM) i5-4250U CPU @ 1.30GHz"
00:00:04.451084 TLB 2/4M Instr/Uni:              res0     0 entries
00:00:04.451086 TLB 2/4M Data:                   res0     0 entries
00:00:04.451089 TLB 4K Instr/Uni:                res0     0 entries
00:00:04.451091 TLB 4K Data:                     res0     0 entries
00:00:04.451093 L1 Instr Cache Line Size:        0 bytes
00:00:04.451095 L1 Instr Cache Lines Per Tag:    0
00:00:04.451100 L1 Instr Cache Associativity:    res0  
00:00:04.451101 L1 Instr Cache Size:             0 KB
00:00:04.451103 L1 Data Cache Line Size:         0 bytes
00:00:04.451105 L1 Data Cache Lines Per Tag:     0
00:00:04.451107 L1 Data Cache Associativity:     res0  
00:00:04.451109 L1 Data Cache Size:              0 KB
00:00:04.451111 L2 TLB 2/4M Instr/Uni:           off       0 entries
00:00:04.451114 L2 TLB 2/4M Data:                off       0 entries
00:00:04.451116 L2 TLB 4K Instr/Uni:             off       0 entries
00:00:04.451118 L2 TLB 4K Data:                  off       0 entries
00:00:04.451120 L2 Cache Line Size:              0 bytes
00:00:04.451122 L2 Cache Lines Per Tag:          0
00:00:04.451124 L2 Cache Associativity:          off   
00:00:04.451126 L2 Cache Size:                   0 KB
00:00:04.451128 APM Features:                    TscInvariant
00:00:04.451132 Host Invariant-TSC support:      true 
00:00:04.451140 Physical Address Width:          39 bits
00:00:04.451142 Virtual Address Width:           48 bits
00:00:04.451144 Guest Physical Address Width:    0 bits
00:00:04.451146 Physical Core Count:             1
00:00:04.451150 
00:00:04.451153 ******************** End of CPUID dump **********************
00:00:04.469192 VMEmt: Halt method global1 (5)
00:00:04.469265 VMEmt: HaltedGlobal1 config: cNsSpinBlockThresholdCfg=2000
00:00:04.469278 Changing the VM state from 'CREATING' to 'CREATED'
00:00:04.484646 Changing the VM state from 'CREATED' to 'LOADING'
00:00:04.486039 SSM: File header: Format 2.0, VirtualBox Version 5.1.22 r115126, 64-bit host, cbGCPhys=8, cbGCPtr=8
00:00:04.488816 SSM: Saved state info:
00:00:04.488864 SSM:   Build Type: release
00:00:04.488881 SSM:   Host OS: darwin.amd64
00:00:04.489906 PCI:    PIIX3/0: register 60: 0b -> 8b
00:00:04.489942 PCI:    PIIX3/0: register 61: 09 -> 8b
00:00:04.489957 PCI:    PIIX3/0: register 62: 0b -> 8a
00:00:04.489970 PCI:    PIIX3/0: register 63: 09 -> 8b
00:00:04.489984 PCI:    PIIX3/0: register ad: 00 -> ef
00:00:04.489999 PCI:    PIIX3/0: register de: 00 -> be
00:00:04.490015 PCI: piix3ide/0:  8-bit field LATENCY_TIMER: 0 -> 40
00:00:04.490190 PCI: piix3ide/0: register 40: 00 -> 37
00:00:04.490210 PCI: piix3ide/0: register 41: 80 -> e3
00:00:04.490225 PCI: piix3ide/0: register 43: 80 -> c0
00:00:04.490238 PCI: piix3ide/0: register 44: 00 -> 0b
00:00:04.490252 PCI: piix3ide/0: register 48: 00 -> 03
00:00:04.490266 PCI: piix3ide/0: register 4a: 00 -> 22
00:00:04.490283 PCI:      vga/0:  8-bit field INTERRUPT_LINE: 9 -> b
00:00:04.490298 PCI:      vga/0: 16-bit field COMMAND: 3 -> 7
00:00:04.490944 PCI:    pcnet/0:  8-bit field LATENCY_TIMER: 0 -> 40
00:00:04.491112 PCI:    pcnet/0:  8-bit field INTERRUPT_LINE: b -> a
00:00:04.491496 PCI:   VMMDev/0: 16-bit field COMMAND: 3 -> 7
00:00:04.491575 PCI:  ichac97/0:  8-bit field LATENCY_TIMER: 0 -> 40
00:00:04.491642 PCI:  ichac97/0: 16-bit field COMMAND: 1 -> 7
00:00:04.491664 PCI: usb-ohci/0:  8-bit field LATENCY_TIMER: 0 -> 40
00:00:04.491680 PCI: usb-ohci/0:  8-bit field INTERRUPT_LINE: 9 -> b
00:00:04.491694 PCI: usb-ohci/0: 16-bit field COMMAND: 2 -> 7
00:00:04.491773 PCI:     acpi/0: 16-bit field COMMAND: 1 -> 7
00:00:17.419498 TM: cTSCTicksPerSecond=0x713fb2fe (1 899 999 998) enmTSCMode=3 (Dynamic) (state load)
00:00:17.434839 PIT: mode=0 count=0x10000 (65536) - 18.20 Hz (ch=0) (restore)
00:00:17.435440 RTC: stopped the periodic timer (restore)
00:00:17.437706 HGCM: restoring [VBoxSharedFolders]
00:00:17.437746 HGCM: restoring [VBoxGuestControlSvc]
00:00:17.437758 HGCM: restoring [VBoxGuestPropSvc]
00:00:17.437768 HGCM: restoring [VBoxDragAndDropSvc]
00:00:17.437776 HGCM: restoring [VBoxSharedClipboard]
00:00:17.475575 CPUM: VCPU  0: Cached APIC base MSR = 0xfee00900
00:00:17.487267 Changing the VM state from 'LOADING' to 'SUSPENDED'
00:00:17.489167 Changing the VM state from 'SUSPENDED' to 'RESUMING'
00:00:17.492568 Changing the VM state from 'RESUMING' to 'RUNNING'
00:00:17.493167 Console: Machine state changed to 'Running'
00:00:18.274607 GUI: UISession::sltAdditionsChange: GA state change event came, notifying listeners.
00:00:18.274721 GUI: UIMachineLogicNormal::sltCheckForRequestedVisualStateType: Requested-state=0, Machine-state=13
00:00:18.442216 Display::handleDisplayResize: uScreenId=0 pvVRAM=0000000118dff000 w=1024 h=768 bpp=32 cbLine=0x1000 flags=0x0
00:00:18.445304 GUI: UIFrameBufferPrivate::NotifyChange: Screen=0, Origin=0x0, Size=1024x768, Sending to async-handler
00:00:18.691791 GUI: UIMachineView::sltHandleNotifyChange: Screen=0, Size=1024x768
00:00:18.691826 GUI: UIFrameBufferPrivate::handleNotifyChange: Size=1024x768
00:00:18.691850 GUI: UIFrameBufferPrivate::performResize: Size=1024x768, Directly using source bitmap content
00:00:20.135636 GUI: UIMachineViewNormal::adjustGuestScreenSize: Adjust guest-screen size if necessary.
00:00:20.144159 GUI: 2D video acceleration is disabled
00:00:20.144188 GUI: HID LEDs sync is enabled
00:00:20.307153 GUI: UIMachineLogicNormal::sltCheckForRequestedVisualStateType: Requested-state=0, Machine-state=5
00:00:23.438649 PCNet#0: The link is back up again after the restore.
00:00:24.736807 NAT: IPv6 not supported
00:00:24.869890 NAT: DHCP offered IP address 10.0.2.15
00:00:24.873498 NAT: DHCP offered IP address 10.0.2.15
00:05:08.186703 Pausing VM execution, reason 'host suspend'
00:05:08.209198 Changing the VM state from 'RUNNING' to 'SUSPENDING'
00:05:08.423741 PDMR3Suspend: 202 307 561 ns run time
00:05:08.423857 Changing the VM state from 'SUSPENDING' to 'SUSPENDED'
00:05:08.424503 Console: Machine state changed to 'Paused'
00:05:44.134149 NAT: DNS servers changed, triggering reconnect
00:05:57.162770 NAT: DNS servers changed, triggering reconnect
00:05:57.216202 NAT: DNS servers changed, triggering reconnect
00:06:08.808029 Resuming VM execution, reason 'host resume'
00:06:08.813030 Changing the VM state from 'SUSPENDED' to 'RESUMING'
00:06:08.834855 Changing the VM state from 'RESUMING' to 'RUNNING'
00:06:08.835590 Console: Machine state changed to 'Running'
00:06:13.887023 PCNet#0: The link is back up again after the restore.
00:06:15.252660 NAT: DHCP offered IP address 10.0.2.15
00:06:15.264073 NAT: DHCP offered IP address 10.0.2.15
00:12:52.160815 OHCI: USB Resume
00:12:52.196287 OHCI: USB Operational
00:12:52.214426 OHCI: USB Suspended
00:12:55.780696 PCNet#0: Init: ss32=1 GCRDRA=0x7f5cc000[32] GCTDRA=0x7cf50000[16]
00:12:55.785808 PIIX3 ATA: Ctl#0: RESET, DevSel=0 AIOIf=0 CmdIf0=0xe0 (-1 usec ago) CmdIf1=0xa0 (-1 usec ago)
00:12:55.786203 PIIX3 ATA: Ctl#0: finished processing RESET
00:12:55.786560 PIIX3 ATA: Ctl#1: RESET, DevSel=0 AIOIf=0 CmdIf0=0x00 (-1 usec ago) CmdIf1=0x00 (-1 usec ago)
00:12:55.788125 PIIX3 ATA: Ctl#1: finished processing RESET
00:12:55.791346 AC97: Reset
00:12:55.802655 OHCI: USB Resume
00:12:55.837553 OHCI: USB Operational
00:12:55.951890 OHCI: USB Suspended
00:42:09.400270 Changing the VM state from 'RUNNING' to 'SUSPENDING'
00:42:09.498720 PDMR3Suspend: 96 440 577 ns run time
00:42:09.498756 Changing the VM state from 'SUSPENDING' to 'SUSPENDED'
00:42:09.499930 Console: Machine state changed to 'Paused'
00:42:11.974538 GUI: Request for close-action to save VM state.
00:42:11.975010 GUI: Passing request to save VM state from machine-logic to UI session.
00:42:11.982759 Console: Machine state changed to 'Saving'
00:42:11.985926 Changing the VM state from 'SUSPENDED' to 'SAVING'
00:42:27.592932 SSM: Footer at 0x3cfec2ab (1023328939), 32 directory entries.
00:42:27.637678 SSM: Successfully saved the VM state to '/Users/amin/VirtualBox VMs/osand/Snapshots/2017-11-06T10-50-13-981788000Z.sav'
00:42:27.637722 Changing the VM state from 'SAVING' to 'SUSPENDED'
00:42:27.637915 Console::powerDown(): A request to power off the VM has been issued (mMachineState=Saving, InUninit=0)
00:42:27.639796 Display::handleDisplayResize: uScreenId=0 pvVRAM=0000000118dff000 w=1024 h=768 bpp=32 cbLine=0x1000 flags=0x0
00:42:27.641541 GUI: UIFrameBufferPrivate::NotifyChange: Screen=0, Origin=0x0, Size=1024x768, Sending to async-handler
00:42:27.641911 GUI: UIMachineView::sltHandleNotifyChange: Screen=0, Size=1024x768
00:42:27.645175 Changing the VM state from 'SUSPENDED' to 'POWERING_OFF'
00:42:27.645263 ****************** Guest state at power off for VCpu 0 ******************
00:42:27.646966 Guest CPUM (VCPU 0) state: 
00:42:27.646995 rax=0000000000000000 rbx=ffffffffa060e500 rcx=0000000000000000 rdx=0000000000000000
00:42:27.647017 rsi=0000000000000000 rdi=0000000000000000 r8 =0000000000000000 r9 =0000000000000002
00:42:27.647020 r10=0000000000000000 r11=7fffffffffffffff r12=0000000000000000 r13=0000000000000000
00:42:27.647024 r14=ffffffffa060e500 r15=ffffffffa060e500
00:42:27.647027 rip=ffffffffa0021041 rsp=ffffffffa0603f18 rbp=0000000000000000 iopl=0         nv up ei pl nz na po nc
00:42:27.647622 cs={0010 base=0000000000000000 limit=ffffffff flags=0000a09b}
00:42:27.647628 ds={0000 base=0000000000000000 limit=ffffffff flags=0001c000}
00:42:27.647632 es={0000 base=0000000000000000 limit=ffffffff flags=0001c000}
00:42:27.647635 fs={0000 base=0000000000000000 limit=ffffffff flags=0001c000}
00:42:27.647637 gs={0000 base=ffff9cc8bfc00000 limit=ffffffff flags=0001c000}
00:42:27.647641 ss={0018 base=0000000000000000 limit=ffffffff flags=0000c093}
00:42:27.647643 cr0=0000000080050033 cr2=0000706b35071000 cr3=0000000061508000 cr4=00000000000406f0
00:42:27.647648 dr0=0000000000000000 dr1=0000000000000000 dr2=0000000000000000 dr3=0000000000000000
00:42:27.647650 dr4=0000000000000000 dr5=0000000000000000 dr6=00000000ffff0ff0 dr7=0000000000000400
00:42:27.647653 gdtr=ffff9cc8bfc04000:007f  idtr=ffffffffff57c000:0fff  eflags=00000246
00:42:27.647658 ldtr={0000 base=00000000 limit=ffffffff flags=0001c000}
00:42:27.647661 tr  ={0040 base=ffff9cc8bfc15180 limit=00002087 flags=0000008b}
00:42:27.647664 SysEnter={cs=0010 eip=ffffffffa0022ff0 esp=0000000000000000}
00:42:27.647692 xcr=0000000000000007 xcr1=0000000000000000 xss=0000000000000000 (fXStateMask=0000000000000007)
00:42:27.647695 FCW=037f FSW=0100 FTW=0000 FOP=0000 MXCSR=00001fa7 MXCSR_MASK=0000ffff
00:42:27.647699 FPUIP=5383179e CS=706b Rsrvd1=0000  FPUDP=e13b6e3c DS=7ffc Rsvrd2=0000
00:42:27.647704 ST(0)=FPR0={0000'00000000'00000000} t0 +0.0000000000000000000000 * 2 ^ -16383 (*)
00:42:27.647710 ST(1)=FPR1={0000'00000000'00000000} t0 +0.0000000000000000000000 * 2 ^ -16383 (*)
00:42:27.647714 ST(2)=FPR2={0000'00000000'00000000} t0 +0.0000000000000000000000 * 2 ^ -16383 (*)
00:42:27.647718 ST(3)=FPR3={0000'00000000'00000000} t0 +0.0000000000000000000000 * 2 ^ -16383 (*)
00:42:27.647721 ST(4)=FPR4={0000'00000000'00000000} t0 +0.0000000000000000000000 * 2 ^ -16383 (*)
00:42:27.647724 ST(5)=FPR5={0000'00000000'00000000} t0 +0.0000000000000000000000 * 2 ^ -16383 (*)
00:42:27.647728 ST(6)=FPR6={3ffe'b3333000'00000000} t0 +1.0003689345296304701440 * 2 ^ -1 (*)
00:42:27.647733 ST(7)=FPR7={3ffe'b3333000'00000000} t0 +1.0003689345296304701440 * 2 ^ -1 (*)
00:42:27.647757 YMM0 =00000000'00000000'00000000'00000000'00000000'00000000'00000000'00000000
00:42:27.647761 YMM1 =00000000'00000000'00000000'00000000'00000000'00000000'00000000'00000068
00:42:27.647765 YMM2 =00000000'00000000'00000000'00000000'00000000'00000000'73682a85'00000000
00:42:27.647769 YMM3 =00000000'00000000'00000000'00000000'00000000'00000000'006e0061'004d0079
00:42:27.647773 YMM4 =00000000'00000000'00000000'00000000'00000000'00000000'3b656369'7672003b
00:42:27.647777 YMM5 =00000000'00000000'00000000'00000000'00000000'00000000'00720064'006e0061
00:42:27.647781 YMM6 =00000000'00000000'00000000'00000000'00000000'00000000'0064006e'00650076
00:42:27.647785 YMM7 =00000000'00000000'00000000'00000000'00000000'00000000'00650074'006e0069
00:42:27.647789 YMM8 =00000000'00000000'00000000'00000000'00000000'00000000'00000003'00000002
00:42:27.649391 YMM9 =00000000'00000000'00000000'00000000'501d7762'42e003ce'902f0885'834ecc94
00:42:27.649398 YMM10=00000000'00000000'00000000'00000000'74803e2c'00000000'00000000'00000000
00:42:27.649403 YMM11=00000000'00000000'00000000'00000000'ca62c1d6'ca62c1d6'ca62c1d6'ca62c1d6
00:42:27.649408 YMM12=00000000'00000000'00000000'00000000'00000000'00000000'00000000'00000000
00:42:27.649412 YMM13=00000000'00000000'00000000'00000000'00000000'00000000'00000000'00000000
00:42:27.649415 YMM14=00000000'00000000'00000000'00000000'00000000'00000000'00000000'00000000
00:42:27.649419 YMM15=00000000'00000000'00000000'00000000'00000000'00000000'00000000'00000000
00:42:27.649423 EFER         =0000000000000d01
00:42:27.649425 PAT          =0007040600070406
00:42:27.649428 STAR         =0023001000000000
00:42:27.649430 CSTAR        =ffffffffa0023050
00:42:27.649432 LSTAR        =ffffffffa0021b00
00:42:27.649434 SFMASK       =0000000000047700
00:42:27.649435 KERNELGSBASE =0000000000000000
00:42:27.649441 ***
00:42:27.651012 Guest paging mode (VCPU #0):  AMD64+NX (changed 3 times), A20 enabled (changed 0 times)
00:42:27.651523 Shadow paging mode (VCPU #0): EPT
00:42:27.652080 Host paging mode:              AMD64+G+NX
00:42:27.652085 ***
00:42:27.652448 Active Timers (pVM=000000011602b000)
00:42:27.652453 pTimerR3         offNext  offPrev  offSched Clock               Time             Expire HzHint State                     Description
00:42:27.652462 000000011707d2f0 000080e0 00000000 00000000 Real           169819380          169801133      0 2-ACTIVE                  VGA Refresh Timer
00:42:27.652497 00000001170853d0 ffffff80 ffff7f20 00000000 Real           169819380          169801149      0 2-ACTIVE                  EMT Yielder
00:42:27.653125 0000000117085350 00000000 00000080 00000000 Real           169819381          169801919      0 2-ACTIVE                  CPU Load Timer
00:42:27.653149 00000001170833d0 ffffe050 00000000 00000000 Virt       3597988116965      3597875620271      0 2-ACTIVE                  USB Frame Timer
00:42:27.653655 0000000117081420 00000620 00001fb0 00000000 Virt       3597988116965      3597875641216      0 2-ACTIVE                  PCNet Poll Timer
00:42:27.654081 0000000117081a40 00000000 fffff9e0 00000000 Virt       3597988116965      3597880148806      0 2-ACTIVE                  DevIchAc97
00:42:27.654090 000000011706de50 000012a0 00000000 00000000 VrSy       3597874620271      3597952093413      7 2-ACTIVE                  APIC Timer 0
00:42:27.654095 000000011706f0f0 00016000 ffffed60 00000000 VrSy       3597874620271      3597990000000      0 2-ACTIVE                  MC146818 RTC/CMOS - Second
00:42:27.654100 00000001170850f0 00000000 fffea000 00000000 VrSy       3597874620271      3599592095654      0 2-ACTIVE                  ACPI PM Timer
00:42:27.654108 ***
00:42:27.654151 ************** End of Guest state at power off ***************
00:42:28.009529 PDMR3PowerOff: 355 327 330 ns run time
00:42:28.010076 Changing the VM state from 'POWERING_OFF' to 'OFF'
00:42:28.040000 Changing the VM state from 'OFF' to 'DESTROYING'
00:42:28.040081 ************************* Statistics *************************
00:42:28.040575 /CPUM/MSR-Totals/Reads                 14 times
00:42:28.040593 /CPUM/MSR-Totals/ReadsRaisingGP         0 times
00:42:28.040637 /CPUM/MSR-Totals/ReadsUnknown           0 times
00:42:28.040643 /CPUM/MSR-Totals/Writes                 0 times
00:42:28.040648 /CPUM/MSR-Totals/WritesRaisingGP        0 times
00:42:28.040653 /CPUM/MSR-Totals/WritesToIgnoredBits        0 times
00:42:28.040658 /CPUM/MSR-Totals/WritesUnknown          0 times
00:42:28.040663 /Devices/IDE0/ATA0/Unit0/AtapiDMA        0 times
00:42:28.040668 /Devices/IDE0/ATA0/Unit0/AtapiPIO        0 times
00:42:28.040672 /Devices/IDE0/ATA0/Unit0/DMA            0 times
00:42:28.040677 /Devices/IDE0/ATA0/Unit0/PIO            3 times
00:42:28.040682 /Devices/IDE0/ATA0/Unit0/ReadBytes        0 bytes
00:42:28.040687 /Devices/IDE0/ATA0/Unit0/WrittenBytes        0 bytes
00:42:28.040691 /Devices/IDE0/ATA0/Unit1/AtapiDMA     8658 times
00:42:28.040696 /Devices/IDE0/ATA0/Unit1/AtapiPIO        0 times
00:42:28.040700 /Devices/IDE0/ATA0/Unit1/DMA            0 times
00:42:28.040705 /Devices/IDE0/ATA0/Unit1/PIO            0 times
00:42:28.040710 /Devices/IDE0/ATA0/Unit1/ReadBytes 450121728 bytes
00:42:28.040715 /Devices/IDE0/ATA0/Unit1/WrittenBytes        0 bytes
00:42:28.040745 /Devices/IDE0/ATA1/Unit0/AtapiDMA        0 times
00:42:28.040751 /Devices/IDE0/ATA1/Unit0/AtapiPIO        0 times
00:42:28.040755 /Devices/IDE0/ATA1/Unit0/DMA            0 times
00:42:28.040760 /Devices/IDE0/ATA1/Unit0/PIO            0 times
00:42:28.040765 /Devices/IDE0/ATA1/Unit0/ReadBytes        0 bytes
00:42:28.040769 /Devices/IDE0/ATA1/Unit0/WrittenBytes        0 bytes
00:42:28.040774 /Devices/IDE0/ATA1/Unit1/AtapiDMA        0 times
00:42:28.040778 /Devices/IDE0/ATA1/Unit1/AtapiPIO        0 times
00:42:28.040783 /Devices/IDE0/ATA1/Unit1/DMA            0 times
00:42:28.040787 /Devices/IDE0/ATA1/Unit1/PIO            0 times
00:42:28.040792 /Devices/IDE0/ATA1/Unit1/ReadBytes        0 bytes
00:42:28.040797 /Devices/IDE0/ATA1/Unit1/WrittenBytes        0 bytes
00:42:28.040802 /Devices/PCNet0/ReceiveBytes     284378731 bytes
00:42:28.040807 /Devices/PCNet0/TransmitBytes     5181159 bytes
00:42:28.040812 /Devices/VMMDev/BalloonChunks           0 count
00:42:28.040817 /FT/Checkpoint/Network                  0 times
00:42:28.040823 /FT/Checkpoint/Storage                  0 times
00:42:28.040828 /FT/Received/Mem                        0 bytes
00:42:28.040833 /FT/Received/State                      0 bytes
00:42:28.040838 /FT/Sent/Mem                            0 bytes
00:42:28.040843 /FT/Sent/State                          0 bytes
00:42:28.040848 /FT/Sync/DeltaMem                       0 times
00:42:28.040853 /FT/Sync/DeltaVM                        0 times
00:42:28.040858 /FT/Sync/Full                           0 times
00:42:28.040885 /GMM/VM/Allocated/cBasePages       523328 pages
00:42:28.040891 /GMM/VM/Allocated/cFixedPages           0 pages
00:42:28.040895 /GMM/VM/Allocated/cShadowPages          0 pages
00:42:28.040900 /GMM/VM/Reserved/cBasePages        524446 pages
00:42:28.040905 /GMM/VM/Reserved/cFixedPages         2564 pages
00:42:28.040910 /GMM/VM/Reserved/cShadowPages           1 pages
00:42:28.040915 /GMM/VM/cBalloonedPages                 0 pages
00:42:28.040920 /GMM/VM/cMaxBalloonedPages              0 pages
00:42:28.040925 /GMM/VM/cPrivatePages              523328 pages
00:42:28.040930 /GMM/VM/cReqActuallyBalloonedPages        0 pages
00:42:28.040934 /GMM/VM/cReqBalloonedPages              0 pages
00:42:28.040939 /GMM/VM/cReqDeflatePages                0 pages
00:42:28.040944 /GMM/VM/cShareableModules               0 count
00:42:28.040948 /GMM/VM/cSharedPages                    0 pages
00:42:28.040953 /GMM/VM/enmPolicy                       1 
00:42:28.040958 /GMM/VM/enmPriority                     2 
00:42:28.040964 /GMM/VM/fBallooningEnabled       false    
00:42:28.040968 /GMM/VM/fMayAllocate             true     
00:42:28.040973 /GMM/VM/fSharedPagingEnabled     false    
00:42:28.040978 /GMM/cAllocatedPages               523328 pages
00:42:28.041003 /GMM/cBalloonedPages                    0 pages
00:42:28.041008 /GMM/cChunks                         1023 count
00:42:28.041026 /GMM/cDuplicatePages                    0 pages
00:42:28.041031 /GMM/cFreedChunks                       0 count
00:42:28.041036 /GMM/cLeftBehindSharedPages             0 pages
00:42:28.041041 /GMM/cMaxPages                   4294967295 pages
00:42:28.041047 /GMM/cOverCommittedPages                0 pages
00:42:28.041052 /GMM/cReservedPages                527011 pages
00:42:28.041057 /GMM/cShareableModules                  0 count
00:42:28.041062 /GMM/cSharedPages                       0 pages
00:42:28.041067 /GVMM/EMTs                              1 calls
00:42:28.041072 /GVMM/HostCPUs                          4 calls
00:42:28.041077 /GVMM/HostCpus/0                        0 
00:42:28.041083 /GVMM/HostCpus/0/CurTimerHz             0 Hz
00:42:28.041087 /GVMM/HostCpus/0/DesiredHz              0 Hz
00:42:28.041092 /GVMM/HostCpus/0/PPTChanges             0 times
00:42:28.041097 /GVMM/HostCpus/0/PPTStarts              0 times
00:42:28.041102 /GVMM/HostCpus/0/idxCpuSet              0 
00:42:28.041106 /GVMM/HostCpus/1                        1 
00:42:28.041111 /GVMM/HostCpus/1/CurTimerHz             0 Hz
00:42:28.041116 /GVMM/HostCpus/1/DesiredHz              0 Hz
00:42:28.041120 /GVMM/HostCpus/1/PPTChanges             0 times
00:42:28.041125 /GVMM/HostCpus/1/PPTStarts              0 times
00:42:28.041130 /GVMM/HostCpus/1/idxCpuSet              1 
00:42:28.041134 /GVMM/HostCpus/2                        2 
00:42:28.041139 /GVMM/HostCpus/2/CurTimerHz             0 Hz
00:42:28.041144 /GVMM/HostCpus/2/DesiredHz              0 Hz
00:42:28.041149 /GVMM/HostCpus/2/PPTChanges             0 times
00:42:28.041153 /GVMM/HostCpus/2/PPTStarts              0 times
00:42:28.041158 /GVMM/HostCpus/2/idxCpuSet              2 
00:42:28.041163 /GVMM/HostCpus/3                        3 
00:42:28.041168 /GVMM/HostCpus/3/CurTimerHz             0 Hz
00:42:28.041172 /GVMM/HostCpus/3/DesiredHz              0 Hz
00:42:28.041177 /GVMM/HostCpus/3/PPTChanges             0 times
00:42:28.041182 /GVMM/HostCpus/3/PPTStarts              0 times
00:42:28.041186 /GVMM/HostCpus/3/idxCpuSet              3 
00:42:28.041191 /GVMM/Sum/HaltBlocking            1110529 calls
00:42:28.041196 /GVMM/Sum/HaltCalls               1118470 calls
00:42:28.041202 /GVMM/Sum/HaltNotBlocking            7941 calls
00:42:28.041207 /GVMM/Sum/HaltTimeouts            1010045 calls
00:42:28.041212 /GVMM/Sum/HaltWakeUps                   0 calls
00:42:28.041217 /GVMM/Sum/PokeCalls                 38552 calls
00:42:28.041223 /GVMM/Sum/PokeNotBusy                3392 calls
00:42:28.041228 /GVMM/Sum/PollCalls                     0 calls
00:42:28.041233 /GVMM/Sum/PollHalts                     0 calls
00:42:28.041238 /GVMM/Sum/PollWakeUps                   0 calls
00:42:28.041243 /GVMM/Sum/WakeUpCalls              103730 calls
00:42:28.041248 /GVMM/Sum/WakeUpNotHalted           71198 calls
00:42:28.041253 /GVMM/Sum/WakeUpWakeUps                 0 calls
00:42:28.041258 /GVMM/VM/HaltBlocking             1110529 calls
00:42:28.041263 /GVMM/VM/HaltCalls                1118470 calls
00:42:28.041268 /GVMM/VM/HaltNotBlocking             7941 calls
00:42:28.041273 /GVMM/VM/HaltTimeouts             1010045 calls
00:42:28.041279 /GVMM/VM/HaltWakeUps                    0 calls
00:42:28.041284 /GVMM/VM/PokeCalls                  38552 calls
00:42:28.041289 /GVMM/VM/PokeNotBusy                 3392 calls
00:42:28.041294 /GVMM/VM/PollCalls                      0 calls
00:42:28.041299 /GVMM/VM/PollHalts                      0 calls
00:42:28.041304 /GVMM/VM/PollWakeUps                    0 calls
00:42:28.041308 /GVMM/VM/WakeUpCalls               103730 calls
00:42:28.041314 /GVMM/VM/WakeUpNotHalted            71198 calls
00:42:28.041319 /GVMM/VM/WakeUpWakeUps                  0 calls
00:42:28.041324 /GVMM/VMs                               1 calls
00:42:28.041329 /HM/CPU0/Exit/HostNmiInGC               0 times
00:42:28.041334 /HM/CPU0/Switch/Preempting              0 times
00:42:28.041339 /IEM/CPU0/CodeTlb-Misses                0 count
00:42:28.041344 /IEM/CPU0/CodeTlb-PhysRev        ffffffffffff9c00 
00:42:28.041359 /IEM/CPU0/CodeTlb-Revision       fffff38000000000 
00:42:28.041365 /IEM/CPU0/CodeTlb-SlowReads             0 
00:42:28.041370 /IEM/CPU0/DataTlb-Misses                0 count
00:42:28.041375 /IEM/CPU0/DataTlb-PhysRev        ffffffffffff9c00 
00:42:28.041380 /IEM/CPU0/DataTlb-Revision       fffff38000000000 
00:42:28.041386 /IEM/CPU0/cInstructions           1685958 count
00:42:28.041391 /IEM/CPU0/cLongJumps                    0 bytes
00:42:28.041396 /IEM/CPU0/cPendingCommit                0 bytes
00:42:28.041401 /IEM/CPU0/cPotentialExits         1685923 count
00:42:28.041406 /IEM/CPU0/cRetAspectNotImplemented        0 count
00:42:28.041411 /IEM/CPU0/cRetErrStatuses               0 count
00:42:28.041415 /IEM/CPU0/cRetInfStatuses               0 count
00:42:28.041420 /IEM/CPU0/cRetInstrNotImplemented        0 count
00:42:28.041425 /IEM/CPU0/cbWritten               6450472 bytes
00:42:28.041430 /MM/HyperHeap/cbFree               798768 bytes
00:42:28.041436 /MM/HyperHeap/cbHeap              1048256 bytes
00:42:28.041441 /PDM/BlkCache/cbCached                  0 bytes
00:42:28.041446 /PDM/BlkCache/cbCachedFru               0 bytes
00:42:28.041451 /PDM/BlkCache/cbCachedMruIn             0 bytes
00:42:28.041456 /PDM/BlkCache/cbCachedMruOut            0 bytes
00:42:28.041461 /PDM/BlkCache/cbMax               5242880 bytes
00:42:28.041466 /PDM/CritSects/8237A#0Auto/ContentionR3        0 times
00:42:28.041471 /PDM/CritSects/8237A#0Auto/ContentionRZLock        0 times
00:42:28.041476 /PDM/CritSects/8237A#0Auto/ContentionRZUnlock        0 times
00:42:28.041481 /PDM/CritSects/ATA#0-Ctl/ContentionR3        0 times
00:42:28.041485 /PDM/CritSects/ATA#0-Ctl/ContentionRZLock       45 times
00:42:28.041490 /PDM/CritSects/ATA#0-Ctl/ContentionRZUnlock        0 times
00:42:28.041495 /PDM/CritSects/ATA#0-Req/ContentionR3        0 times
00:42:28.041499 /PDM/CritSects/ATA#0-Req/ContentionRZLock        0 times
00:42:28.041504 /PDM/CritSects/ATA#0-Req/ContentionRZUnlock        0 times
00:42:28.041508 /PDM/CritSects/ATA#1-Ctl/ContentionR3        0 times
00:42:28.041513 /PDM/CritSects/ATA#1-Ctl/ContentionRZLock        0 times
00:42:28.041518 /PDM/CritSects/ATA#1-Ctl/ContentionRZUnlock        0 times
00:42:28.041522 /PDM/CritSects/ATA#1-Req/ContentionR3        0 times
00:42:28.041527 /PDM/CritSects/ATA#1-Req/ContentionRZLock        0 times
00:42:28.041532 /PDM/CritSects/ATA#1-Req/ContentionRZUnlock        0 times
00:42:28.041536 /PDM/CritSects/FTM/ContentionR3         0 times
00:42:28.041541 /PDM/CritSects/FTM/ContentionRZLock        0 times
00:42:28.041546 /PDM/CritSects/FTM/ContentionRZUnlock        0 times
00:42:28.041550 /PDM/CritSects/MM-HYPER/ContentionR3        0 times
00:42:28.041555 /PDM/CritSects/MM-HYPER/ContentionRZLock        0 times
00:42:28.041560 /PDM/CritSects/MM-HYPER/ContentionRZUnlock        0 times
00:42:28.041564 /PDM/CritSects/NOP/ContentionR3         0 times
00:42:28.041569 /PDM/CritSects/NOP/ContentionRZLock        0 times
00:42:28.041573 /PDM/CritSects/NOP/ContentionRZUnlock        0 times
00:42:28.041578 /PDM/CritSects/OHCI#0Irq/ContentionR3        0 times
00:42:28.041583 /PDM/CritSects/OHCI#0Irq/ContentionRZLock        0 times
00:42:28.041587 /PDM/CritSects/OHCI#0Irq/ContentionRZUnlock        0 times
00:42:28.041592 /PDM/CritSects/PCNet#0/ContentionR3        0 times
00:42:28.041597 /PDM/CritSects/PCNet#0/ContentionRZLock    26831 times
00:42:28.041602 /PDM/CritSects/PCNet#0/ContentionRZUnlock        0 times
00:42:28.041606 /PDM/CritSects/PDM/ContentionR3         0 times
00:42:28.041611 /PDM/CritSects/PDM/ContentionRZLock        3 times
00:42:28.041616 /PDM/CritSects/PDM/ContentionRZUnlock        0 times
00:42:28.041620 /PDM/CritSects/PGM/ContentionR3         0 times
00:42:28.041625 /PDM/CritSects/PGM/ContentionRZLock     1742 times
00:42:28.041651 /PDM/CritSects/PGM/ContentionRZUnlock        0 times
00:42:28.041657 /PDM/CritSects/TM Timer Lock/ContentionR3       36 times
00:42:28.041662 /PDM/CritSects/TM Timer Lock/ContentionRZLock        0 times
00:42:28.041666 /PDM/CritSects/TM Timer Lock/ContentionRZUnlock        0 times
00:42:28.041681 /PDM/CritSects/TM VirtualSync Lock/ContentionR3        0 times
00:42:28.041686 /PDM/CritSects/TM VirtualSync Lock/ContentionRZLock        0 times
00:42:28.041691 /PDM/CritSects/TM VirtualSync Lock/ContentionRZUnlock        0 times
00:42:28.041695 /PDM/CritSects/VGA#0/ContentionR3        0 times
00:42:28.041700 /PDM/CritSects/VGA#0/ContentionRZLock        0 times
00:42:28.041705 /PDM/CritSects/VGA#0/ContentionRZUnlock        0 times
00:42:28.041710 /PDM/CritSects/VGA#0_IRQ/ContentionR3        0 times
00:42:28.041714 /PDM/CritSects/VGA#0_IRQ/ContentionRZLock        0 times
00:42:28.041719 /PDM/CritSects/VGA#0_IRQ/ContentionRZUnlock        0 times
00:42:28.041724 /PDM/CritSects/VMMDev#0/ContentionR3        0 times
00:42:28.041729 /PDM/CritSects/VMMDev#0/ContentionRZLock        0 times
00:42:28.041733 /PDM/CritSects/VMMDev#0/ContentionRZUnlock        0 times
00:42:28.041738 /PDM/CritSects/acpi#0/ContentionR3        0 times
00:42:28.041742 /PDM/CritSects/acpi#0/ContentionRZLock        0 times
00:42:28.041747 /PDM/CritSects/acpi#0/ContentionRZUnlock        0 times
00:42:28.041752 /PDM/CritSects/ichac97#0Auto/ContentionR3        0 times
00:42:28.041757 /PDM/CritSects/ichac97#0Auto/ContentionRZLock        0 times
00:42:28.041761 /PDM/CritSects/ichac97#0Auto/ContentionRZUnlock        0 times
00:42:28.041766 /PDM/CritSects/mc146818#0Auto/ContentionR3        0 times
00:42:28.041771 /PDM/CritSects/mc146818#0Auto/ContentionRZLock        0 times
00:42:28.041775 /PDM/CritSects/mc146818#0Auto/ContentionRZUnlock        0 times
00:42:28.041780 /PDM/CritSects/pcarch#0Auto/ContentionR3        0 times
00:42:28.041785 /PDM/CritSects/pcarch#0Auto/ContentionRZLock        0 times
00:42:28.041789 /PDM/CritSects/pcarch#0Auto/ContentionRZUnlock        0 times
00:42:28.041794 /PDM/CritSects/pcbios#0Auto/ContentionR3        0 times
00:42:28.041799 /PDM/CritSects/pcbios#0Auto/ContentionRZLock        0 times
00:42:28.041803 /PDM/CritSects/pcbios#0Auto/ContentionRZUnlock        0 times
00:42:28.041808 /PDM/CritSects/pckbd#0Auto/ContentionR3        0 times
00:42:28.041812 /PDM/CritSects/pckbd#0Auto/ContentionRZLock        0 times
00:42:28.041817 /PDM/CritSects/pckbd#0Auto/ContentionRZUnlock        0 times
00:42:28.041822 /PDM/CritSects/pit#0/ContentionR3        0 times
00:42:28.041826 /PDM/CritSects/pit#0/ContentionRZLock        0 times
00:42:28.041831 /PDM/CritSects/pit#0/ContentionRZUnlock        0 times
00:42:28.041836 /PDM/CritSects/usb-ohci#0Auto/ContentionR3        0 times
00:42:28.041840 /PDM/CritSects/usb-ohci#0Auto/ContentionRZLock        0 times
00:42:28.041845 /PDM/CritSects/usb-ohci#0Auto/ContentionRZUnlock        0 times
00:42:28.041850 /PDM/CritSectsRw/IOM Lock/ContentionR3EnterExcl        0 times
00:42:28.041854 /PDM/CritSectsRw/IOM Lock/ContentionR3EnterShared        0 times
00:42:28.041859 /PDM/CritSectsRw/IOM Lock/ContentionRZEnterExcl        0 times
00:42:28.041864 /PDM/CritSectsRw/IOM Lock/ContentionRZEnterShared        0 times
00:42:28.041868 /PDM/CritSectsRw/IOM Lock/ContentionRZLeaveExcl        0 times
00:42:28.041873 /PDM/CritSectsRw/IOM Lock/ContentionRZLeaveShared        0 times
00:42:28.041878 /PDM/CritSectsRw/IOM Lock/R3EnterExcl      268 times
00:42:28.041883 /PDM/CritSectsRw/IOM Lock/R3EnterShared   131895 times
00:42:28.041887 /PDM/CritSectsRw/IOM Lock/RZEnterExcl        0 times
00:42:28.041892 /PDM/CritSectsRw/IOM Lock/RZEnterShared 12205482 times
00:42:28.041897 /PDM/Queue/DevHlp/AllocFailures         0 times
00:42:28.041902 /PDM/Queue/DevHlp/Flush                 0 calls
00:42:28.041907 /PDM/Queue/DevHlp/FlushLeftovers        0 times
00:42:28.041911 /PDM/Queue/DevHlp/Insert                0 calls
00:42:28.041916 /PDM/Queue/DevHlp/cItems                8 count
00:42:28.041921 /PDM/Queue/DevHlp/cbItem               64 bytes
00:42:28.041938 /PDM/Queue/Keyboard/AllocFailures        0 times
00:42:28.041943 /PDM/Queue/Keyboard/Flush               0 calls
00:42:28.041948 /PDM/Queue/Keyboard/FlushLeftovers        0 times
00:42:28.041953 /PDM/Queue/Keyboard/Insert            526 calls
00:42:28.041958 /PDM/Queue/Keyboard/cItems             64 count
00:42:28.041972 /PDM/Queue/Keyboard/cbItem             32 bytes
00:42:28.041987 /PDM/Queue/Mouse/AllocFailures          0 times
00:42:28.041992 /PDM/Queue/Mouse/Flush                  0 calls
00:42:28.041997 /PDM/Queue/Mouse/FlushLeftovers         0 times
00:42:28.042002 /PDM/Queue/Mouse/Insert             13229 calls
00:42:28.042007 /PDM/Queue/Mouse/cItems               128 count
00:42:28.042012 /PDM/Queue/Mouse/cbItem                48 bytes
00:42:28.042017 /PDM/Queue/PCNet-Rcv/AllocFailures        0 times
00:42:28.042022 /PDM/Queue/PCNet-Rcv/Flush              0 calls
00:42:28.042027 /PDM/Queue/PCNet-Rcv/FlushLeftovers        0 times
00:42:28.042031 /PDM/Queue/PCNet-Rcv/Insert           756 calls
00:42:28.042036 /PDM/Queue/PCNet-Rcv/cItems             1 count
00:42:28.042041 /PDM/Queue/PCNet-Rcv/cbItem            24 bytes
00:42:28.042046 /PDM/Queue/PCNet-Xmit/AllocFailures    30251 times
00:42:28.042051 /PDM/Queue/PCNet-Xmit/Flush             0 calls
00:42:28.042055 /PDM/Queue/PCNet-Xmit/FlushLeftovers        0 times
00:42:28.042060 /PDM/Queue/PCNet-Xmit/Insert        69817 calls
00:42:28.042065 /PDM/Queue/PCNet-Xmit/cItems            1 count
00:42:28.042069 /PDM/Queue/PCNet-Xmit/cbItem           24 bytes
00:42:28.042074 /PGM/CPU0/cA20Changes                   0 times
00:42:28.042079 /PGM/CPU0/cGuestModeChanges             3 times
00:42:28.042084 /PGM/ChunkR3Map/Mapped               1023 count
00:42:28.042089 /PGM/ChunkR3Map/Unmapped                0 count
00:42:28.042094 /PGM/ChunkR3Map/c                    1023 count
00:42:28.042100 /PGM/ChunkR3Map/cMax             4294967295 count
00:42:28.042106 /PGM/LargePage/Recheck                  0 times
00:42:28.042110 /PGM/LargePage/Refused                  0 times
00:42:28.042115 /PGM/LargePage/Reused                   0 times
00:42:28.042122 /PGM/Page/cAllPages                526886 count
00:42:28.042128 /PGM/Page/cBalloonedPages               0 count
00:42:28.042132 /PGM/Page/cHandyPages                  66 count
00:42:28.042137 /PGM/Page/cLargePages                   0 count
00:42:28.042143 /PGM/Page/cLargePagesDisabled           0 count
00:42:28.042148 /PGM/Page/cMonitoredPages               0 count
00:42:28.042152 /PGM/Page/cPrivatePages            525826 count
00:42:28.042158 /PGM/Page/cPureMmioPages                4 count
00:42:28.042162 /PGM/Page/cReadLockedPages              0 count
00:42:28.042167 /PGM/Page/cReusedSharedPages            0 count
00:42:28.042172 /PGM/Page/cSharedPages                  0 count
00:42:28.042177 /PGM/Page/cWriteLockedPages             0 count
00:42:28.042182 /PGM/Page/cWrittenToPages               0 count
00:42:28.042186 /PGM/Page/cZeroPages                 1056 count
00:42:28.042192 /PGM/ShMod/Check                        0 ticks/call (           0 ticks,       0 times, max         0, min      -1)
00:42:28.042199 /PGM/cRelocations                       0 times
00:42:28.042205 /PROF/CPU0/EM/Capped                    0 ticks/call (           0 ticks,       0 times, max         0, min      -1)
00:42:28.042212 /PROF/CPU0/EM/ForcedActions       1008175 times
00:42:28.042217 /PROF/CPU0/EM/Halted                69897 times
00:42:28.042222 /PROF/CPU0/EM/RAWTotal                  0 times
00:42:28.042227 /PROF/CPU0/EM/REMTotal                  0 times
00:42:28.042232 /PROF/CPU0/EM/Total              2328099633704 ticks/call (4656199267408 ticks,       2 times, max 4105185070877, min 551014196531)
00:42:28.042250 /PROF/CPU0/VM/Halt/Block          1459839 ns/call (1632714931243 ticks, 1118421 times, max  25537271, min       1)
00:42:28.042259 /PROF/CPU0/VM/Halt/BlockInsomnia        0 ns/call (           0 ticks,       0 times, max         0, min      -1)
00:42:28.042265 /PROF/CPU0/VM/Halt/BlockOnTime          0 ns/call (           0 ticks,       0 times, max         0, min      -1)
00:42:28.042271 /PROF/CPU0/VM/Halt/BlockOverslept        0 ns/call (           0 ticks,       0 times, max         0, min      -1)
00:42:28.042276 /PROF/CPU0/VM/Halt/Timers           16475 ns/call ( 19635917630 ticks, 1191836 times, max  15104654, min       2)
00:42:28.042293 /PROF/CPU0/VM/Halt/Yield            10363 ns/call (      818716 ticks,      79 times, max     26821, min       1)
00:42:28.042301 /Public/Net/PCNet0/BytesReceived 284378731 bytes
00:42:28.042306 /Public/Net/PCNet0/BytesTransmitted  5181159 bytes
00:42:28.042311 /SELM/LoadHidSel/GstReadErrors          0 times
00:42:28.042316 /SELM/LoadHidSel/NoGoodGuest            0 times
00:42:28.042321 /TM/CPU/00/cNsExecuting          578937370319 ns
00:42:28.042327 /TM/CPU/00/cNsHalted             1654400974131 ns
00:42:28.042333 /TM/CPU/00/cNsOther              217293812863 ns
00:42:28.042338 /TM/CPU/00/cNsTotal              2450632157313 ns
00:42:28.042344 /TM/CPU/00/cPeriodsExecuting     18841510 count
00:42:28.042349 /TM/CPU/00/cPeriodsHalted           69800 count
00:42:28.042354 /TM/CPU/00/pctExecuting                 0 %
00:42:28.042359 /TM/CPU/00/pctHalted                   99 %
00:42:28.042364 /TM/CPU/00/pctOther                     0 %
00:42:28.042369 /TM/CPU/pctExecuting                    0 %
00:42:28.042374 /TM/CPU/pctHalted                      99 %
00:42:28.042379 /TM/CPU/pctOther                        0 %
00:42:28.042384 /TM/MaxHzHint                           0 Hz
00:42:28.042389 /TM/R0/1nsSteps                    201542 times
00:42:28.042395 /TM/R3/1nsSteps                    187232 times
00:42:28.042401 /TM/TSC/offCPU0                  18446744073709237098 ticks
00:42:28.042407 /TM/VirtualSync/CurrentOffset      698018 ns
00:42:28.042413 /VUSB/0/cUrbsInPool                     0 count
00:42:28.042419 ********************* End of statistics **********************
00:42:28.064715 NAT: Zone(nm:mbuf_cluster, used:0)
00:42:28.065621 NAT: Zone(nm:mbuf_packet, used:0)
00:42:28.065656 NAT: Zone(nm:mbuf, used:1)
00:42:28.067287 NAT: Zone(nm:mbuf_jumbo_pagesize, used:0)
00:42:28.068051 NAT: Zone(nm:mbuf_jumbo_9k, used:0)
00:42:28.068493 NAT: Zone(nm:mbuf_jumbo_16k, used:0)
00:42:28.068740 NAT: Zone(nm:mbuf_ext_refcnt, used:0)
00:42:28.087294 Changing the VM state from 'DESTROYING' to 'TERMINATED'
00:42:28.097116 Console: Machine state changed to 'Saved'
00:42:28.258167 GUI: UIMediumEnumerator: Medium-enumeration finished!
00:42:28.761875 GUI: Passing request to close Runtime UI from machine-logic to UI session.
