VirtualBox VM 5.1.22 r115126 darwin.amd64 (Apr 28 2017 17:26:14) release log
00:00:01.660131 Log opened 2017-11-05T17:43:52.330196000Z
00:00:01.660132 Build Type: release
00:00:01.660155 OS Product: Darwin
00:00:01.660162 OS Release: 16.0.0
00:00:01.660168 OS Version: Darwin Kernel Version 16.0.0: Mon Aug 29 17:56:20 PDT 2016; root:xnu-3789.1.32~3/RELEASE_X86_64
00:00:01.660267 DMI Product Name: MacBookAir6,2
00:00:01.660315 DMI Product Version: 1.0
00:00:01.660323 Host RAM: 4096MB (4.0GB) total, 868MB available
00:00:01.660325 Executable: /Applications/VirtualBox.app/Contents/MacOS/VirtualBoxVM
00:00:01.660326 Process ID: 85809
00:00:01.660327 Package type: DARWIN_64BITS_GENERIC
00:00:01.663936 Installed Extension Packs:
00:00:01.663950   None installed!
00:00:01.665618 Console: Machine state changed to 'Starting'
00:00:01.665964 Qt version: 5.6.2
00:00:01.686495 SUP: Loaded VMMR0.r0 (/Applications/VirtualBox.app/Contents/MacOS/VMMR0.r0) at 0xXXXXXXXXXXXXXXXX - ModuleInit at XXXXXXXXXXXXXXXX and ModuleTerm at XXXXXXXXXXXXXXXX
00:00:01.686535 SUP: VMMR0EntryEx located at XXXXXXXXXXXXXXXX and VMMR0EntryFast at XXXXXXXXXXXXXXXX
00:00:01.702785 Guest OS type: 'Other_64'
00:00:01.715569 fHMForced=true - No raw-mode support in this build!
00:00:01.718487 GUI: UIMediumEnumerator: Medium-enumeration finished!
00:00:01.747561 File system of '/Users/amin/VirtualBox VMs/osand/Snapshots' (snapshots) is unknown
00:00:01.747578 File system of '/Users/amin/VirtualBox VMs/osand/osand.vdi' is hfs
00:00:01.754281 File system of '/Users/amin/Downloads/android-x86_64-7.1-rc2.iso' (DVD) is hfs
00:00:01.790407 Shared clipboard service loaded
00:00:01.790441 Shared clipboard mode: Off
00:00:01.794038 Drag and drop service loaded
00:00:01.794060 Drag and drop mode: Off
00:00:01.801595 Guest Control service loaded
00:00:01.807669 ************************* CFGM dump *************************
00:00:01.807680 [/] (level 0)
00:00:01.807688   CpuExecutionCap   <integer> = 0x0000000000000064 (100)
00:00:01.807695   EnablePAE         <integer> = 0x0000000000000001 (1)
00:00:01.807698   HMEnabled         <integer> = 0x0000000000000001 (1)
00:00:01.807700   MemBalloonSize    <integer> = 0x0000000000000000 (0)
00:00:01.807701   Name              <string>  = "osand" (cb=6)
00:00:01.807704   NumCPUs           <integer> = 0x0000000000000001 (1)
00:00:01.807706   PageFusionAllowed <integer> = 0x0000000000000000 (0)
00:00:01.807707   RamHoleSize       <integer> = 0x0000000020000000 (536 870 912, 512 MB)
00:00:01.807710   RamSize           <integer> = 0x0000000080000000 (2 147 483 648, 2 048 MB)
00:00:01.807713   TimerMillies      <integer> = 0x000000000000000a (10)
00:00:01.807715   UUID              <bytes>   = "c7 f3 63 80 b3 e6 42 41 90 b5 09 82 13 f4 5c fe" (cb=16)
00:00:01.807723 
00:00:01.807723 [/CPUM/] (level 1)
00:00:01.807726   GuestCpuName       <string>  = "host" (cb=5)
00:00:01.807728   PortableCpuIdLevel <integer> = 0x0000000000000000 (0)
00:00:01.807730 
00:00:01.807731 [/DBGC/] (level 1)
00:00:01.807733   GlobalInitScript <string>  = "/Users/amin/Library/VirtualBox/dbgc-init" (cb=41)
00:00:01.807734   HistoryFile      <string>  = "/Users/amin/Library/VirtualBox/dbgc-history" (cb=44)
00:00:01.807736   LocalInitScript  <string>  = "/Users/amin/VirtualBox VMs/osand/dbgc-init" (cb=43)
00:00:01.807738 
00:00:01.807738 [/DBGF/] (level 1)
00:00:01.807740   Path <string>  = "/Users/amin/VirtualBox VMs/osand/debug/;/Users/amin/VirtualBox VMs/osand/;/Users/amin/" (cb=87)
00:00:01.807742 
00:00:01.807742 [/Devices/] (level 1)
00:00:01.807744 
00:00:01.807745 [/Devices/8237A/] (level 2)
00:00:01.807747 
00:00:01.807748 [/Devices/8237A/0/] (level 3)
00:00:01.807750   Trusted <integer> = 0x0000000000000001 (1)
00:00:01.807752 
00:00:01.807752 [/Devices/VMMDev/] (level 2)
00:00:01.807754 
00:00:01.807755 [/Devices/VMMDev/0/] (level 3)
00:00:01.807758   PCIBusNo      <integer> = 0x0000000000000000 (0)
00:00:01.807759   PCIDeviceNo   <integer> = 0x0000000000000004 (4)
00:00:01.807761   PCIFunctionNo <integer> = 0x0000000000000000 (0)
00:00:01.807762   Trusted       <integer> = 0x0000000000000001 (1)
00:00:01.807764 
00:00:01.807765 [/Devices/VMMDev/0/Config/] (level 4)
00:00:01.807767   GuestCoreDumpDir <string>  = "/Users/amin/VirtualBox VMs/osand/Snapshots" (cb=43)
00:00:01.807769 
00:00:01.807770 [/Devices/VMMDev/0/LUN#0/] (level 4)
00:00:01.807772   Driver <string>  = "HGCM" (cb=5)
00:00:01.807773 
00:00:01.807774 [/Devices/VMMDev/0/LUN#0/Config/] (level 5)
00:00:01.807776   Object <integer> = 0x00007fe87e657fb0 (140 636 529 721 264)
00:00:01.807778 
00:00:01.807779 [/Devices/VMMDev/0/LUN#999/] (level 4)
00:00:01.807780   Driver <string>  = "MainStatus" (cb=11)
00:00:01.807781 
00:00:01.807782 [/Devices/VMMDev/0/LUN#999/Config/] (level 5)
00:00:01.807784   First   <integer> = 0x0000000000000000 (0)
00:00:01.807785   Last    <integer> = 0x0000000000000000 (0)
00:00:01.807786   papLeds <integer> = 0x00007fe87f0f8ba0 (140 636 540 865 440)
00:00:01.807788 
00:00:01.807788 [/Devices/acpi/] (level 2)
00:00:01.807790 
00:00:01.807790 [/Devices/acpi/0/] (level 3)
00:00:01.807793   PCIBusNo      <integer> = 0x0000000000000000 (0)
00:00:01.807794   PCIDeviceNo   <integer> = 0x0000000000000007 (7)
00:00:01.807796   PCIFunctionNo <integer> = 0x0000000000000000 (0)
00:00:01.807797   Trusted       <integer> = 0x0000000000000001 (1)
00:00:01.807799 
00:00:01.807799 [/Devices/acpi/0/Config/] (level 4)
00:00:01.807803   CpuHotPlug          <integer> = 0x0000000000000000 (0)
00:00:01.807805   FdcEnabled          <integer> = 0x0000000000000000 (0)
00:00:01.807807   HostBusPciAddress   <integer> = 0x0000000000000000 (0)
00:00:01.807808   HpetEnabled         <integer> = 0x0000000000000000 (0)
00:00:01.807826   IOAPIC              <integer> = 0x0000000000000001 (1)
00:00:01.807829   IocPciAddress       <integer> = 0x0000000000010000 (65 536)
00:00:01.807850   NumCPUs             <integer> = 0x0000000000000001 (1)
00:00:01.807854   Parallel0IoPortBase <integer> = 0x0000000000000000 (0)
00:00:01.807856   Parallel0Irq        <integer> = 0x0000000000000000 (0)
00:00:01.807857   Parallel1IoPortBase <integer> = 0x0000000000000000 (0)
00:00:01.807859   Parallel1Irq        <integer> = 0x0000000000000000 (0)
00:00:01.807861   Serial0IoPortBase   <integer> = 0x0000000000000000 (0)
00:00:01.807862   Serial0Irq          <integer> = 0x0000000000000000 (0)
00:00:01.807864   Serial1IoPortBase   <integer> = 0x0000000000000000 (0)
00:00:01.807865   Serial1Irq          <integer> = 0x0000000000000000 (0)
00:00:01.807867   ShowCpu             <integer> = 0x0000000000000001 (1)
00:00:01.807869   ShowRtc             <integer> = 0x0000000000000000 (0)
00:00:01.807871   SmcEnabled          <integer> = 0x0000000000000000 (0)
00:00:01.807872 
00:00:01.807873 [/Devices/acpi/0/LUN#0/] (level 4)
00:00:01.807876   Driver <string>  = "ACPIHost" (cb=9)
00:00:01.807877 
00:00:01.807878 [/Devices/acpi/0/LUN#0/Config/] (level 5)
00:00:01.807881 
00:00:01.807882 [/Devices/apic/] (level 2)
00:00:01.807884 
00:00:01.807884 [/Devices/apic/0/] (level 3)
00:00:01.807886   Trusted <integer> = 0x0000000000000001 (1)
00:00:01.807888 
00:00:01.807889 [/Devices/apic/0/Config/] (level 4)
00:00:01.807891   IOAPIC  <integer> = 0x0000000000000001 (1)
00:00:01.807892   Mode    <integer> = 0x0000000000000002 (2)
00:00:01.807894   NumCPUs <integer> = 0x0000000000000001 (1)
00:00:01.807895 
00:00:01.807896 [/Devices/e1000/] (level 2)
00:00:01.807898 
00:00:01.807899 [/Devices/i8254/] (level 2)
00:00:01.807901 
00:00:01.807902 [/Devices/i8254/0/] (level 3)
00:00:01.807904 
00:00:01.807905 [/Devices/i8254/0/Config/] (level 4)
00:00:01.807907 
00:00:01.807907 [/Devices/i8259/] (level 2)
00:00:01.807908 
00:00:01.807909 [/Devices/i8259/0/] (level 3)
00:00:01.807910   Trusted <integer> = 0x0000000000000001 (1)
00:00:01.807911 
00:00:01.807912 [/Devices/i8259/0/Config/] (level 4)
00:00:01.807914 
00:00:01.807915 [/Devices/ichac97/] (level 2)
00:00:01.807917 
00:00:01.807918 [/Devices/ichac97/0/] (level 3)
00:00:01.807920   PCIBusNo      <integer> = 0x0000000000000000 (0)
00:00:01.807922   PCIDeviceNo   <integer> = 0x0000000000000005 (5)
00:00:01.807923   PCIFunctionNo <integer> = 0x0000000000000000 (0)
00:00:01.807925   Trusted       <integer> = 0x0000000000000001 (1)
00:00:01.807926 
00:00:01.807927 [/Devices/ichac97/0/AudioConfig/] (level 4)
00:00:01.807930 
00:00:01.807932 [/Devices/ichac97/0/Config/] (level 4)
00:00:01.807934   Codec <string>  = "STAC9700" (cb=9)
00:00:01.807936 
00:00:01.807936 [/Devices/ichac97/0/LUN#0/] (level 4)
00:00:01.807939   Driver <string>  = "AUDIO" (cb=6)
00:00:01.807940 
00:00:01.807941 [/Devices/ichac97/0/LUN#0/AttachedDriver/] (level 5)
00:00:01.807944   Driver <string>  = "CoreAudio" (cb=10)
00:00:01.807945 
00:00:01.807946 [/Devices/ichac97/0/LUN#0/AttachedDriver/Config/] (level 6)
00:00:01.807949   StreamName <string>  = "osand" (cb=6)
00:00:01.807950 
00:00:01.807951 [/Devices/ichac97/0/LUN#0/Config/] (level 5)
00:00:01.807953 
00:00:01.807954 [/Devices/ichac97/0/LUN#1/] (level 4)
00:00:01.807957   Driver <string>  = "AUDIO" (cb=6)
00:00:01.807958 
00:00:01.807959 [/Devices/ichac97/0/LUN#1/AttachedDriver/] (level 5)
00:00:01.807961   Driver <string>  = "AudioVRDE" (cb=10)
00:00:01.807962 
00:00:01.807963 [/Devices/ichac97/0/LUN#1/AttachedDriver/Config/] (level 6)
00:00:01.807966   AudioDriver      <string>  = "AudioVRDE" (cb=10)
00:00:01.807967   Object           <integer> = 0x00007fe880c202d0 (140 636 569 338 576)
00:00:01.807969   ObjectVRDPServer <integer> = 0x00007fe87f120a00 (140 636 541 028 864)
00:00:01.807971   StreamName       <string>  = "osand" (cb=6)
00:00:01.807972 
00:00:01.807972 [/Devices/ioapic/] (level 2)
00:00:01.807973 
00:00:01.807974 [/Devices/ioapic/0/] (level 3)
00:00:01.807975   Trusted <integer> = 0x0000000000000001 (1)
00:00:01.807976 
00:00:01.807977 [/Devices/ioapic/0/Config/] (level 4)
00:00:01.807978   NumCPUs <integer> = 0x0000000000000001 (1)
00:00:01.807979 
00:00:01.807980 [/Devices/mc146818/] (level 2)
00:00:01.807981 
00:00:01.807981 [/Devices/mc146818/0/] (level 3)
00:00:01.807982 
00:00:01.807983 [/Devices/mc146818/0/Config/] (level 4)
00:00:01.807984   UseUTC <integer> = 0x0000000000000000 (0)
00:00:01.807985 
00:00:01.807986 [/Devices/parallel/] (level 2)
00:00:01.807987 
00:00:01.807987 [/Devices/pcarch/] (level 2)
00:00:01.807989 
00:00:01.807989 [/Devices/pcarch/0/] (level 3)
00:00:01.807990   Trusted <integer> = 0x0000000000000001 (1)
00:00:01.807991 
00:00:01.807992 [/Devices/pcarch/0/Config/] (level 4)
00:00:01.807993 
00:00:01.807994 [/Devices/pcbios/] (level 2)
00:00:01.807995 
00:00:01.807995 [/Devices/pcbios/0/] (level 3)
00:00:01.807997   Trusted <integer> = 0x0000000000000001 (1)
00:00:01.807998 
00:00:01.807998 [/Devices/pcbios/0/Config/] (level 4)
00:00:01.808001   APIC           <integer> = 0x0000000000000001 (1)
00:00:01.808002   BootDevice0    <string>  = "FLOPPY" (cb=7)
00:00:01.808013   BootDevice1    <string>  = "DVD" (cb=4)
00:00:01.808015   BootDevice2    <string>  = "IDE" (cb=4)
00:00:01.808017   BootDevice3    <string>  = "NONE" (cb=5)
00:00:01.808019   FloppyDevice   <string>  = "i82078" (cb=7)
00:00:01.808020   HardDiskDevice <string>  = "piix3ide" (cb=9)
00:00:01.808022   IOAPIC         <integer> = 0x0000000000000001 (1)
00:00:01.808024   McfgBase       <integer> = 0x0000000000000000 (0)
00:00:01.808025   McfgLength     <integer> = 0x0000000000000000 (0)
00:00:01.808027   NumCPUs        <integer> = 0x0000000000000001 (1)
00:00:01.808029   PXEDebug       <integer> = 0x0000000000000000 (0)
00:00:01.808030   UUID           <bytes>   = "c7 f3 63 80 b3 e6 42 41 90 b5 09 82 13 f4 5c fe" (cb=16)
00:00:01.808036 
00:00:01.808037 [/Devices/pcbios/0/Config/NetBoot/] (level 5)
00:00:01.808040 
00:00:01.808041 [/Devices/pcbios/0/Config/NetBoot/0/] (level 6)
00:00:01.808044   NIC           <integer> = 0x0000000000000000 (0)
00:00:01.808046   PCIBusNo      <integer> = 0x0000000000000000 (0)
00:00:01.808048   PCIDeviceNo   <integer> = 0x0000000000000003 (3)
00:00:01.808049   PCIFunctionNo <integer> = 0x0000000000000000 (0)
00:00:01.808051 
00:00:01.808051 [/Devices/pci/] (level 2)
00:00:01.808054 
00:00:01.808054 [/Devices/pci/0/] (level 3)
00:00:01.808056   Trusted <integer> = 0x0000000000000001 (1)
00:00:01.808058 
00:00:01.808059 [/Devices/pci/0/Config/] (level 4)
00:00:01.808061   IOAPIC <integer> = 0x0000000000000001 (1)
00:00:01.808062 
00:00:01.808063 [/Devices/pckbd/] (level 2)
00:00:01.808065 
00:00:01.808066 [/Devices/pckbd/0/] (level 3)
00:00:01.808068   Trusted <integer> = 0x0000000000000001 (1)
00:00:01.808069 
00:00:01.808070 [/Devices/pckbd/0/Config/] (level 4)
00:00:01.808071 
00:00:01.808072 [/Devices/pckbd/0/LUN#0/] (level 4)
00:00:01.808074   Driver <string>  = "KeyboardQueue" (cb=14)
00:00:01.808076 
00:00:01.808076 [/Devices/pckbd/0/LUN#0/AttachedDriver/] (level 5)
00:00:01.808079   Driver <string>  = "MainKeyboard" (cb=13)
00:00:01.808080 
00:00:01.808081 [/Devices/pckbd/0/LUN#0/AttachedDriver/Config/] (level 6)
00:00:01.808084   Object <integer> = 0x00007fe87e75d6f0 (140 636 530 792 176)
00:00:01.808086 
00:00:01.808087 [/Devices/pckbd/0/LUN#0/Config/] (level 5)
00:00:01.808090   QueueSize <integer> = 0x0000000000000040 (64)
00:00:01.808092 
00:00:01.808092 [/Devices/pckbd/0/LUN#1/] (level 4)
00:00:01.808095   Driver <string>  = "MouseQueue" (cb=11)
00:00:01.808096 
00:00:01.808097 [/Devices/pckbd/0/LUN#1/AttachedDriver/] (level 5)
00:00:01.808099   Driver <string>  = "MainMouse" (cb=10)
00:00:01.808101 
00:00:01.808101 [/Devices/pckbd/0/LUN#1/AttachedDriver/Config/] (level 6)
00:00:01.808103   Object <integer> = 0x00007fe87e78de40 (140 636 530 990 656)
00:00:01.808105 
00:00:01.808106 [/Devices/pckbd/0/LUN#1/Config/] (level 5)
00:00:01.808107   QueueSize <integer> = 0x0000000000000080 (128)
00:00:01.808108 
00:00:01.808109 [/Devices/pcnet/] (level 2)
00:00:01.808110 
00:00:01.808110 [/Devices/pcnet/0/] (level 3)
00:00:01.808112   PCIBusNo      <integer> = 0x0000000000000000 (0)
00:00:01.808113   PCIDeviceNo   <integer> = 0x0000000000000003 (3)
00:00:01.808114   PCIFunctionNo <integer> = 0x0000000000000000 (0)
00:00:01.808115   Trusted       <integer> = 0x0000000000000001 (1)
00:00:01.808116 
00:00:01.808116 [/Devices/pcnet/0/Config/] (level 4)
00:00:01.808118   Am79C973       <integer> = 0x0000000000000001 (1)
00:00:01.808119   CableConnected <integer> = 0x0000000000000001 (1)
00:00:01.808120   LineSpeed      <integer> = 0x0000000000000000 (0)
00:00:01.808121   MAC            <bytes>   = "08 00 27 d7 f9 99" (cb=6)
00:00:01.808123 
00:00:01.808124 [/Devices/pcnet/0/LUN#0/] (level 4)
00:00:01.808125   Driver <string>  = "NAT" (cb=4)
00:00:01.808126 
00:00:01.808126 [/Devices/pcnet/0/LUN#0/Config/] (level 5)
00:00:01.808128   AliasMode       <integer> = 0x0000000000000000 (0)
00:00:01.808129   BootFile        <string>  = "osand.pxe" (cb=10)
00:00:01.808131   DNSProxy        <integer> = 0x0000000000000000 (0)
00:00:01.808132   Network         <string>  = "10.0.2.0/24" (cb=12)
00:00:01.808133   PassDomain      <integer> = 0x0000000000000001 (1)
00:00:01.808134   TFTPPrefix      <string>  = "/Users/amin/Library/VirtualBox/TFTP" (cb=36)
00:00:01.808135   UseHostResolver <integer> = 0x0000000000000000 (0)
00:00:01.808137 
00:00:01.808138 [/Devices/pcnet/0/LUN#999/] (level 4)
00:00:01.808140   Driver <string>  = "MainStatus" (cb=11)
00:00:01.808141 
00:00:01.808142 [/Devices/pcnet/0/LUN#999/Config/] (level 5)
00:00:01.808145   First   <integer> = 0x0000000000000000 (0)
00:00:01.808146   Last    <integer> = 0x0000000000000000 (0)
00:00:01.808148   papLeds <integer> = 0x00007fe87f0f8a80 (140 636 540 865 152)
00:00:01.808150 
00:00:01.808151 [/Devices/piix3ide/] (level 2)
00:00:01.808153 
00:00:01.808154 [/Devices/piix3ide/0/] (level 3)
00:00:01.808156   PCIBusNo      <integer> = 0x0000000000000000 (0)
00:00:01.808157   PCIDeviceNo   <integer> = 0x0000000000000001 (1)
00:00:01.808159   PCIFunctionNo <integer> = 0x0000000000000001 (1)
00:00:01.808161   Trusted       <integer> = 0x0000000000000001 (1)
00:00:01.808162 
00:00:01.808163 [/Devices/piix3ide/0/Config/] (level 4)
00:00:01.808165   Type <string>  = "PIIX4" (cb=6)
00:00:01.808167 
00:00:01.808167 [/Devices/piix3ide/0/Config/PrimaryMaster/] (level 5)
00:00:01.808170   NonRotationalMedium <integer> = 0x0000000000000000 (0)
00:00:01.808171 
00:00:01.808172 [/Devices/piix3ide/0/Config/PrimarySlave/] (level 5)
00:00:01.808175   NonRotationalMedium <integer> = 0x0000000000000000 (0)
00:00:01.808177 
00:00:01.808177 [/Devices/piix3ide/0/LUN#0/] (level 4)
00:00:01.808180   Driver <string>  = "VD" (cb=3)
00:00:01.808181 
00:00:01.808182 [/Devices/piix3ide/0/LUN#0/Config/] (level 5)
00:00:01.808185   Format    <string>  = "VDI" (cb=4)
00:00:01.808186   Mountable <integer> = 0x0000000000000000 (0)
00:00:01.808273   Path      <string>  = "/Users/amin/VirtualBox VMs/osand/osand.vdi" (cb=43)
00:00:01.808275   Type      <string>  = "HardDisk" (cb=9)
00:00:01.808277 
00:00:01.808278 [/Devices/piix3ide/0/LUN#1/] (level 4)
00:00:01.808281   Driver <string>  = "VD" (cb=3)
00:00:01.808282 
00:00:01.808282 [/Devices/piix3ide/0/LUN#1/Config/] (level 5)
00:00:01.808285   Format    <string>  = "RAW" (cb=4)
00:00:01.808287   Mountable <integer> = 0x0000000000000001 (1)
00:00:01.808288   Path      <string>  = "/Users/amin/Downloads/android-x86_64-7.1-rc2.iso" (cb=49)
00:00:01.808290   ReadOnly  <integer> = 0x0000000000000001 (1)
00:00:01.808291   Type      <string>  = "DVD" (cb=4)
00:00:01.808293 
00:00:01.808294 [/Devices/piix3ide/0/LUN#999/] (level 4)
00:00:01.808296   Driver <string>  = "MainStatus" (cb=11)
00:00:01.808297 
00:00:01.808298 [/Devices/piix3ide/0/LUN#999/Config/] (level 5)
00:00:01.808300   DeviceInstance        <string>  = "piix3ide/0" (cb=11)
00:00:01.808301   First                 <integer> = 0x0000000000000000 (0)
00:00:01.808302   Last                  <integer> = 0x0000000000000003 (3)
00:00:01.808303   pConsole              <integer> = 0x00007fe87f0f8400 (140 636 540 863 488)
00:00:01.808305   papLeds               <integer> = 0x00007fe87f0f8780 (140 636 540 864 384)
00:00:01.808307   pmapMediumAttachments <integer> = 0x00007fe87f0f8bc0 (140 636 540 865 472)
00:00:01.808309 
00:00:01.808309 [/Devices/serial/] (level 2)
00:00:01.808311 
00:00:01.808311 [/Devices/usb-ohci/] (level 2)
00:00:01.808312 
00:00:01.808313 [/Devices/usb-ohci/0/] (level 3)
00:00:01.808314   PCIBusNo      <integer> = 0x0000000000000000 (0)
00:00:01.808315   PCIDeviceNo   <integer> = 0x0000000000000006 (6)
00:00:01.808316   PCIFunctionNo <integer> = 0x0000000000000000 (0)
00:00:01.808317   Trusted       <integer> = 0x0000000000000001 (1)
00:00:01.808318 
00:00:01.808318 [/Devices/usb-ohci/0/Config/] (level 4)
00:00:01.808320 
00:00:01.808320 [/Devices/usb-ohci/0/LUN#0/] (level 4)
00:00:01.808322   Driver <string>  = "VUSBRootHub" (cb=12)
00:00:01.808324 
00:00:01.808324 [/Devices/usb-ohci/0/LUN#0/Config/] (level 5)
00:00:01.808327 
00:00:01.808327 [/Devices/usb-ohci/0/LUN#999/] (level 4)
00:00:01.808329   Driver <string>  = "MainStatus" (cb=11)
00:00:01.808331 
00:00:01.808331 [/Devices/usb-ohci/0/LUN#999/Config/] (level 5)
00:00:01.808334   First   <integer> = 0x0000000000000000 (0)
00:00:01.808336   Last    <integer> = 0x0000000000000000 (0)
00:00:01.808337   papLeds <integer> = 0x00007fe87f0f8ba8 (140 636 540 865 448)
00:00:01.808340 
00:00:01.808340 [/Devices/vga/] (level 2)
00:00:01.808342 
00:00:01.808343 [/Devices/vga/0/] (level 3)
00:00:01.808345   PCIBusNo      <integer> = 0x0000000000000000 (0)
00:00:01.808347   PCIDeviceNo   <integer> = 0x0000000000000002 (2)
00:00:01.808349   PCIFunctionNo <integer> = 0x0000000000000000 (0)
00:00:01.808350   Trusted       <integer> = 0x0000000000000001 (1)
00:00:01.808351 
00:00:01.808352 [/Devices/vga/0/Config/] (level 4)
00:00:01.808355   CustomVideoModes <integer> = 0x0000000000000000 (0)
00:00:01.808355   FadeIn           <integer> = 0x0000000000000001 (1)
00:00:01.808357   FadeOut          <integer> = 0x0000000000000001 (1)
00:00:01.808358   HeightReduction  <integer> = 0x0000000000000000 (0)
00:00:01.808359   LogoFile         <string>  = "" (cb=1)
00:00:01.808360   LogoTime         <integer> = 0x0000000000000000 (0)
00:00:01.808361   MonitorCount     <integer> = 0x0000000000000001 (1)
00:00:01.808362   ShowBootMenu     <integer> = 0x0000000000000002 (2)
00:00:01.808363   VRamSize         <integer> = 0x0000000000600000 (6 291 456, 6 MB)
00:00:01.808364 
00:00:01.808365 [/Devices/vga/0/LUN#0/] (level 4)
00:00:01.808366   Driver <string>  = "MainDisplay" (cb=12)
00:00:01.808367 
00:00:01.808368 [/Devices/vga/0/LUN#0/Config/] (level 5)
00:00:01.808377   Object <integer> = 0x00007fe87f15c000 (140 636 541 272 064)
00:00:01.808381 
00:00:01.808382 [/Devices/vga/0/LUN#999/] (level 4)
00:00:01.808385   Driver <string>  = "MainStatus" (cb=11)
00:00:01.808386 
00:00:01.808387 [/Devices/vga/0/LUN#999/Config/] (level 5)
00:00:01.808390   First   <integer> = 0x0000000000000000 (0)
00:00:01.808391   Last    <integer> = 0x0000000000000000 (0)
00:00:01.808393   papLeds <integer> = 0x00007fe87f0f8bb8 (140 636 540 865 464)
00:00:01.808395 
00:00:01.808396 [/Devices/virtio-net/] (level 2)
00:00:01.808398 
00:00:01.808398 [/EM/] (level 1)
00:00:01.808400   TripleFaultReset <integer> = 0x0000000000000000 (0)
00:00:01.808401 
00:00:01.808402 [/GIM/] (level 1)
00:00:01.808404   Provider <string>  = "None" (cb=5)
00:00:01.808405 
00:00:01.808406 [/HM/] (level 1)
00:00:01.808408   64bitEnabled       <integer> = 0x0000000000000001 (1)
00:00:01.808410   EnableLargePages   <integer> = 0x0000000000000001 (1)
00:00:01.808411   EnableNestedPaging <integer> = 0x0000000000000001 (1)
00:00:01.808413   EnableUX           <integer> = 0x0000000000000001 (1)
00:00:01.808415   EnableVPID         <integer> = 0x0000000000000001 (1)
00:00:01.808416   Exclusive          <integer> = 0x0000000000000000 (0)
00:00:01.808418   HMForced           <integer> = 0x0000000000000001 (1)
00:00:01.808420 
00:00:01.808421 [/MM/] (level 1)
00:00:01.808422   CanUseLargerHeap <integer> = 0x0000000000000000 (0)
00:00:01.808424 
00:00:01.808425 [/PDM/] (level 1)
00:00:01.808426 
00:00:01.808427 [/PDM/AsyncCompletion/] (level 2)
00:00:01.808429 
00:00:01.808430 [/PDM/AsyncCompletion/File/] (level 3)
00:00:01.808432 
00:00:01.808433 [/PDM/AsyncCompletion/File/BwGroups/] (level 4)
00:00:01.808435 
00:00:01.808436 [/PDM/BlkCache/] (level 2)
00:00:01.808438   CacheSize <integer> = 0x0000000000500000 (5 242 880, 5 MB)
00:00:01.808440 
00:00:01.808441 [/PDM/Devices/] (level 2)
00:00:01.808443 
00:00:01.808443 [/PDM/Drivers/] (level 2)
00:00:01.808445 
00:00:01.808446 [/PDM/Drivers/VBoxC/] (level 3)
00:00:01.808448   Path <string>  = "/Applications/VirtualBox.app/Contents/MacOS/components/VBoxC" (cb=61)
00:00:01.808450 
00:00:01.808450 [/PDM/NetworkShaper/] (level 2)
00:00:01.808452 
00:00:01.808453 [/PDM/NetworkShaper/BwGroups/] (level 3)
00:00:01.808455 
00:00:01.808456 [/TM/] (level 1)
00:00:01.808457   UTCOffset <integer> = 0x0000000000000000 (0)
00:00:01.808459 
00:00:01.808460 [/USB/] (level 1)
00:00:01.808461 
00:00:01.808462 [/USB/USBProxy/] (level 2)
00:00:01.808464 
00:00:01.808465 [/USB/USBProxy/GlobalConfig/] (level 3)
00:00:01.808467 
00:00:01.808468 ********************* End of CFGM dump **********************
00:00:01.808472 VM: fHMEnabled=true  (configured) fRecompileUser=false fRecompileSupervisor=false
00:00:01.808475 VM: fRawRing1Enabled=false CSAM=false PATM=false
00:00:01.808605 HM: HMR3Init: VT-x w/ nested paging and unrestricted guest execution hw support
00:00:01.808682 MM: cbHyperHeap=0x100000 (1048576)
00:00:01.813801 CPUM: fXStateHostMask=0x7; initial: 0x7; host XCR0=0x7
00:00:01.815094 CPUM: Matched host CPU INTEL 0x6/0x45/0x1 Intel_Core7_Haswell with CPU DB entry 'Intel Core i7-5600U' (INTEL 0x6/0x3d/0x4 Intel_Core7_Broadwell)
00:00:01.815163 CPUM: MXCSR_MASK=0xffff (host: 0xffff)
00:00:01.815202 CPUM: SetGuestCpuIdFeature: Enabled PAE
00:00:01.815208 CPUM: VCPU  0: Cached APIC base MSR = 0x0
00:00:01.816086 PGM: HCPhysInterPD=000000000fe0e000 HCPhysInterPaePDPT=000000000fe11000 HCPhysInterPaePML4=000000000fe13000
00:00:01.816097 PGM: apInterPTs={000000000fe0f000,000000000fe10000} apInterPaePTs={00000001603da000,000000015179b000} apInterPaePDs={000000001c75c000,000000005df5d000,000000012511e000,000000001d65f000} pInterPaePDPT64=000000000fe12000
00:00:01.816103 PGM: Host paging mode: AMD64+PGE+NX
00:00:01.816112 PGM: PGMPool: cMaxPages=1072 (u64MaxPages=1058)
00:00:01.816116 PGM: pgmR3PoolInit: cMaxPages=0x430 cMaxUsers=0x860 cMaxPhysExts=0x860 fCacheEnable=true 
00:00:01.834840 TM: GIP - u32Mode=3 (Invariant) u32UpdateHz=100 u32UpdateIntervalNS=10000000 enmUseTscDelta=2 (Pratically Zero) fGetGipCpu=0x5 cCpus=4
00:00:01.834886 TM: GIP - u64CpuHz=1 899 999 998 (0x713fb2fe)  SUPGetCpuHzFromGip => 1 899 999 998
00:00:01.834897 TM: GIP - CPU: iCpuSet=0x0 idCpu=0x0 idApic=0x0 iGipCpu=0x0 i64TSCDelta=0 enmState=3 u64CpuHz=1899999998(*) cErrors=0
00:00:01.834904 TM: GIP - CPU: iCpuSet=0x1 idCpu=0x1 idApic=0x1 iGipCpu=0x1 i64TSCDelta=0 enmState=3 u64CpuHz=1899996647(*) cErrors=0
00:00:01.835536 TM: GIP - CPU: iCpuSet=0x2 idCpu=0x2 idApic=0x2 iGipCpu=0x3 i64TSCDelta=0 enmState=3 u64CpuHz=1899999996(*) cErrors=0
00:00:01.835560 TM: GIP - CPU: iCpuSet=0x3 idCpu=0x3 idApic=0x3 iGipCpu=0x2 i64TSCDelta=0 enmState=3 u64CpuHz=1899999870(*) cErrors=0
00:00:01.835679 TM: cTSCTicksPerSecond=1 899 999 998 (0x713fb2fe) enmTSCMode=3 (Dynamic)
00:00:01.835682 TM: TSCTiedToExecution=false TSCNotTiedToHalt=false
00:00:01.836536 IEM: TargetCpu=CURRENT, Microarch=Intel_Core7_Haswell
00:00:01.836616 GIM: Using provider 'None' (Implementation version: 0)
00:00:01.836616 AIOMgr: Default manager type is 'Async'
00:00:01.836776 AIOMgr: Default file backend is 'NonBuffered'
00:00:01.836919 BlkCache: Cache successfully initialized. Cache size is 5242880 bytes
00:00:01.836933 BlkCache: Cache commit interval is 10000 ms
00:00:01.836939 BlkCache: Cache commit threshold is 2621440 bytes
00:00:01.845092 PcBios: [SMP] BIOS with 1 CPUs
00:00:01.845132 PcBios: Using the 386+ BIOS image.
00:00:01.845347 PcBios: MPS table at 000e1300
00:00:01.848194 PcBios: fCheckShutdownStatusForSoftReset=true   fClearShutdownStatusOnHardReset=true 
00:00:01.849688 SUP: Loaded VBoxDDR0.r0 (/Applications/VirtualBox.app/Contents/MacOS/VBoxDDR0.r0) at 0xXXXXXXXXXXXXXXXX - ModuleInit at XXXXXXXXXXXXXXXX and ModuleTerm at XXXXXXXXXXXXXXXX
00:00:01.850058 CPUM: SetGuestCpuIdFeature: Enabled xAPIC
00:00:01.850762 IOAPIC: Using implementation 2.0!
00:00:01.850844 PIT: mode=3 count=0x10000 (65536) - 18.20 Hz (ch=0)
00:00:01.857883 Shared Folders service loaded
00:00:01.864517 VGA: Using the 386+ BIOS image.
00:00:01.867263 DrvVD: Flushes will be ignored
00:00:01.867279 DrvVD: Async flushes will be passed to the disk
00:00:01.867530 VD: VDInit finished
00:00:01.867633 VD: Opening the disk took 335158 ns
00:00:01.867912 PIIX3 ATA: LUN#0: disk, PCHS=4161/16/63, total number of sectors 4194304
00:00:01.867949 DrvVD: Flushes will be ignored
00:00:01.867954 DrvVD: Async flushes will be passed to the disk
00:00:01.868054 VD: Opening the disk took 92675 ns
00:00:01.868254 PIIX3 ATA: LUN#1: CD/DVD, total number of sectors 412160, passthrough disabled
00:00:01.868318 PIIX3 ATA: LUN#2: no unit
00:00:01.868328 PIIX3 ATA: LUN#3: no unit
00:00:01.868380 PIIX3 ATA: Ctl#0: finished processing RESET
00:00:01.868415 PIIX3 ATA: Ctl#1: finished processing RESET
00:00:01.889482 NAT: Guest address guess set to 10.0.2.15 by initialization
00:00:01.892941 NAT: resolv.conf: nameserver 85.15.1.14
00:00:01.892968 NAT: resolv.conf: nameserver 85.15.1.15
00:00:01.892975 NAT: resolv.conf: nameserver 85.15.1.14
00:00:01.893003 NAT: DNS#0: 85.15.1.14
00:00:01.893009 NAT: DNS#1: 85.15.1.15
00:00:01.893013 NAT: DNS#2: 85.15.1.14
00:00:01.894669 Audio: Initializing Core Audio driver
00:00:01.894685 Audio: Using VBox 5.0.x audio code!
00:00:01.927381 Audio: Host audio backend supports 2 output streams and 2 input streams at once
00:00:01.927436 Audio: Initializing VRDE driver
00:00:01.927447 Audio: Using VBox 5.0.x audio code!
00:00:01.927461 Audio: Host audio backend supports 1 output streams and 2 input streams at once
00:00:01.927478 AC97: Reset
00:00:01.933518 PGM: The CPU physical address width is 39 bits
00:00:01.933539 PGM: PGMR3InitFinalize: 4 MB PSE mask 0000007fffffffff
00:00:01.933606 TM: TMR3InitFinalize: fTSCModeSwitchAllowed=false
00:00:01.941350 VMM: Thread-context hooks unavailable
00:00:01.941427 HM: Using VT-x implementation 2.0
00:00:01.941429 HM: Host CR4                        = 0x1627e0
00:00:01.941432 HM: Host EFER                       = 0xd01
00:00:01.941433 HM: MSR_IA32_SMM_MONITOR_CTL        = 0x0
00:00:01.941434 HM: MSR_IA32_FEATURE_CONTROL        = 0x5
00:00:01.941434 HM: MSR_IA32_VMX_BASIC_INFO         = 0xda040000000012
00:00:01.941436 HM:   VMCS id                         = 0x12
00:00:01.941437 HM:   VMCS size                       = 1024 bytes
00:00:01.941438 HM:   VMCS physical address limit     = None
00:00:01.941439 HM:   VMCS memory type                = 0x6
00:00:01.941440 HM:   Dual-monitor treatment support  = true 
00:00:01.941441 HM:   OUTS & INS instruction-info     = true 
00:00:01.941442 HM: Max resume loops                = 8192
00:00:01.941443 HM: MSR_IA32_VMX_PINBASED_CTLS      = 0x7f00000016
00:00:01.941444 HM:   EXT_INT_EXIT
00:00:01.941444 HM:   NMI_EXIT
00:00:01.941445 HM:   VIRTUAL_NMI
00:00:01.941445 HM:   PREEMPT_TIMER
00:00:01.941446 HM:   POSTED_INTR (must be cleared)
00:00:01.941447 HM: MSR_IA32_VMX_PROCBASED_CTLS     = 0xfff9fffe0401e172
00:00:01.941448 HM:   INT_WINDOW_EXIT
00:00:01.941449 HM:   USE_TSC_OFFSETTING
00:00:01.941449 HM:   HLT_EXIT
00:00:01.941450 HM:   INVLPG_EXIT
00:00:01.941450 HM:   MWAIT_EXIT
00:00:01.941453 HM:   RDPMC_EXIT
00:00:01.941453 HM:   RDTSC_EXIT
00:00:01.941454 HM:   CR3_LOAD_EXIT (must be set)
00:00:01.941454 HM:   CR3_STORE_EXIT (must be set)
00:00:01.941455 HM:   CR8_LOAD_EXIT
00:00:01.941456 HM:   CR8_STORE_EXIT
00:00:01.941456 HM:   USE_TPR_SHADOW
00:00:01.941457 HM:   NMI_WINDOW_EXIT
00:00:01.941457 HM:   MOV_DR_EXIT
00:00:01.941458 HM:   UNCOND_IO_EXIT
00:00:01.941458 HM:   USE_IO_BITMAPS
00:00:01.941459 HM:   MONITOR_TRAP_FLAG
00:00:01.941461 HM:   USE_MSR_BITMAPS
00:00:01.941462 HM:   MONITOR_EXIT
00:00:01.941462 HM:   PAUSE_EXIT
00:00:01.941463 HM:   USE_SECONDARY_EXEC_CTRL
00:00:01.941463 HM: MSR_IA32_VMX_PROCBASED_CTLS2    = 0x3cff00000000
00:00:01.941464 HM:   VIRT_APIC
00:00:01.941465 HM:   EPT
00:00:01.941466 HM:   DESCRIPTOR_TABLE_EXIT
00:00:01.941466 HM:   RDTSCP
00:00:01.941467 HM:   VIRT_X2APIC
00:00:01.941467 HM:   VPID
00:00:01.941468 HM:   WBINVD_EXIT
00:00:01.941468 HM:   UNRESTRICTED_GUEST
00:00:01.941469 HM:   APIC_REG_VIRT (must be cleared)
00:00:01.941469 HM:   VIRT_INTR_DELIVERY (must be cleared)
00:00:01.941470 HM:   PAUSE_LOOP_EXIT
00:00:01.941470 HM:   RDRAND_EXIT
00:00:01.941471 HM:   INVPCID
00:00:01.941471 HM:   VMFUNC
00:00:01.941472 HM:   VMCS_SHADOWING (must be cleared)
00:00:01.941472 HM:   ENCLS_EXIT (must be cleared)
00:00:01.941473 HM:   RDSEED_EXIT (must be cleared)
00:00:01.941473 HM:   PML (must be cleared)
00:00:01.941474 HM:   EPT_VE (must be cleared)
00:00:01.941474 HM:   CONCEAL_FROM_PT (must be cleared)
00:00:01.941475 HM:   XSAVES_XRSTORS (must be cleared)
00:00:01.941475 HM:   TSC_SCALING (must be cleared)
00:00:01.941476 HM: MSR_IA32_VMX_ENTRY_CTLS         = 0xffff000011ff
00:00:01.941477 HM:   LOAD_DEBUG (must be set)
00:00:01.941477 HM:   IA32E_MODE_GUEST
00:00:01.941478 HM:   ENTRY_SMM
00:00:01.941479 HM:   DEACTIVATE_DUALMON
00:00:01.941479 HM:   LOAD_GUEST_PERF_MSR
00:00:01.941481 HM:   LOAD_GUEST_PAT_MSR
00:00:01.941482 HM:   LOAD_GUEST_EFER_MSR
00:00:01.941483 HM: MSR_IA32_VMX_EXIT_CTLS          = 0x7fffff00036dff
00:00:01.941484 HM:   SAVE_DEBUG (must be set)
00:00:01.941484 HM:   HOST_ADDR_SPACE_SIZE
00:00:01.941485 HM:   LOAD_PERF_MSR
00:00:01.941486 HM:   ACK_EXT_INT
00:00:01.941486 HM:   SAVE_GUEST_PAT_MSR
00:00:01.941487 HM:   LOAD_HOST_PAT_MSR
00:00:01.941487 HM:   SAVE_GUEST_EFER_MSR
00:00:01.941488 HM:   LOAD_HOST_EFER_MSR
00:00:01.941488 HM:   SAVE_VMX_PREEMPT_TIMER
00:00:01.941489 HM: MSR_IA32_VMX_EPT_VPID_CAP       = 0xf0106334141
00:00:01.941492 HM:   RWX_X_ONLY
00:00:01.941492 HM:   PAGE_WALK_LENGTH_4
00:00:01.941493 HM:   EMT_UC
00:00:01.941493 HM:   EMT_WB
00:00:01.941494 HM:   PDE_2M
00:00:01.941494 HM:   PDPTE_1G
00:00:01.941495 HM:   INVEPT
00:00:01.941495 HM:   EPT_ACCESS_DIRTY
00:00:01.941496 HM:   INVEPT_SINGLE_CONTEXT
00:00:01.941496 HM:   INVEPT_ALL_CONTEXTS
00:00:01.941497 HM:   INVVPID
00:00:01.941497 HM:   INVVPID_INDIV_ADDR
00:00:01.941498 HM:   INVVPID_SINGLE_CONTEXT
00:00:01.941498 HM:   INVVPID_ALL_CONTEXTS
00:00:01.941499 HM:   INVVPID_SINGLE_CONTEXT_RETAIN_GLOBALS
00:00:01.941499 HM: MSR_IA32_VMX_MISC               = 0x300481e5
00:00:01.941501 HM:   PREEMPT_TSC_BIT                 = 0x5
00:00:01.941501 HM:   STORE_EFERLMA_VMEXIT            = true 
00:00:01.941502 HM:   ACTIVITY_STATES                 = 0x7
00:00:01.941503 HM:   CR3_TARGET                      = 0x4
00:00:01.941504 HM:   MAX_MSR                         = 512
00:00:01.941505 HM:   RDMSR_SMBASE_MSR_SMM            = true 
00:00:01.941505 HM:   SMM_MONITOR_CTL_B2              = true 
00:00:01.941506 HM:   VMWRITE_VMEXIT_INFO             = true 
00:00:01.941507 HM:   MSEG_ID                         = 0x0
00:00:01.941508 HM: MSR_IA32_VMX_CR0_FIXED0         = 0x80000021
00:00:01.941508 HM: MSR_IA32_VMX_CR0_FIXED1         = 0xffffffff
00:00:01.941509 HM: MSR_IA32_VMX_CR4_FIXED0         = 0x2000
00:00:01.941510 HM: MSR_IA32_VMX_CR4_FIXED1         = 0x1727ff
00:00:01.941511 HM: MSR_IA32_VMX_VMCS_ENUM          = 0x2a
00:00:01.941512 HM:   HIGHEST_INDEX                   = 0x15
00:00:01.941513 HM: MSR_IA32_VMX_VMFUNC             = 0x1
00:00:01.941514 HM:   EPTP_SWITCHING
00:00:01.941514 HM: APIC-access page physaddr       = 0x00000000109f6000
00:00:01.941515 HM: VCPU  0: MSR bitmap physaddr    = 0x00000000109fd000
00:00:01.941517 HM: VCPU  0: VMCS physaddr          = 0x00000000109f8000
00:00:01.941518 HM: Guest support: 32-bit and 64-bit
00:00:01.941525 HM: Supports VMCS EFER fields       = true 
00:00:01.941526 HM: Enabled VMX
00:00:01.941529 CPUM: SetGuestCpuIdFeature: Enabled SYSENTER/EXIT
00:00:01.941529 CPUM: SetGuestCpuIdFeature: Enabled PAE
00:00:01.941530 CPUM: SetGuestCpuIdFeature: Enabled LONG MODE
00:00:01.941530 CPUM: SetGuestCpuIdFeature: Enabled SYSCALL/RET
00:00:01.941531 CPUM: SetGuestCpuIdFeature: Enabled LAHF/SAHF
00:00:01.941532 CPUM: SetGuestCpuIdFeature: Enabled NX
00:00:01.941532 HM: Enabled nested paging
00:00:01.941533 HM:   EPT flush type                = VMXFLUSHEPT_SINGLE_CONTEXT
00:00:01.941533 HM: Enabled unrestricted guest execution
00:00:01.941534 HM: Enabled large page support
00:00:01.941534 HM: Enabled VPID
00:00:01.941535 HM:   VPID flush type               = VMXFLUSHVPID_SINGLE_CONTEXT
00:00:01.941536 HM: Enabled VMX-preemption timer (cPreemptTimerShift=5)
00:00:01.941537 HM: VT-x/AMD-V init method: GLOBAL
00:00:01.941540 CPUM: VCPU  0: Cached APIC base MSR = 0xfee00900
00:00:01.941764 PcBios: ATA LUN#0 LCHS=520/128/63
00:00:01.941776 APIC: fPostedIntrsEnabled=false fVirtApicRegsEnabled=false fSupportsTscDeadline=false
00:00:01.941787 VMM: fUsePeriodicPreemptionTimers=false
00:00:01.941938 CPUM: Logical host processors: 4 present, 4 max, 4 online, online mask: 000000000000000f
00:00:01.941942 CPUM: Physical host cores: 2
00:00:01.941943 ************************* CPUID dump ************************
00:00:01.941950          Raw Standard CPUID Leaves
00:00:01.941951      Leaf/sub-leaf  eax      ebx      ecx      edx
00:00:01.941951 Gst: 00000000/0000  0000000d 756e6547 6c65746e 49656e69
00:00:01.941953 Hst:                0000000d 756e6547 6c65746e 49656e69
00:00:01.941957 Gst: 00000001/0000  00040651 00000800 56d8220b 078bfbff
00:00:01.941958 Hst:                00040651 02100800 7ffafbbf bfebfbff
00:00:01.941960 Gst: 00000002/0000  76036301 00f0b5ff 00000000 00c10000
00:00:01.941962 Hst:                76036301 00f0b5ff 00000000 00c10000
00:00:01.941963 Gst: 00000003/0000  00000000 00000000 00000000 00000000
00:00:01.941964 Hst:                00000000 00000000 00000000 00000000
00:00:01.941965 Gst: 00000004/0000  00000121 01c0003f 0000003f 00000000
00:00:01.941966 Hst:                1c004121 01c0003f 0000003f 00000000
00:00:01.941968 Gst: 00000004/0001  00000122 01c0003f 0000003f 00000000
00:00:01.941969 Hst:                1c004122 01c0003f 0000003f 00000000
00:00:01.941970 Gst: 00000004/0002  00000143 01c0003f 000001ff 00000000
00:00:01.941971 Hst:                1c004143 01c0003f 000001ff 00000000
00:00:01.941972 Gst: 00000004/0003  00000163 02c0003f 00000fff 00000006
00:00:01.941974 Hst:                1c03c163 02c0003f 00000fff 00000006
00:00:01.941975 Gst: 00000004/0004  00000000 00000000 00000000 00000000
00:00:01.941976 Hst:                00000000 00000000 00000000 00000000
00:00:01.941977 Gst: 00000005/0000  00000040 00000040 00000000 00000000
00:00:01.941978 Hst:                00000040 00000040 00000003 11142120
00:00:01.941979 Gst: 00000006/0000  00000000 00000000 00000000 00000000
00:00:01.941980 Hst:                00000077 00000002 00000009 00000000
00:00:01.941981 Gst: 00000007/0000  00000000 00002000 00000000 00000000
00:00:01.941982 Hst:                00000000 000027ab 00000000 00000000
00:00:01.941983 Gst: 00000007/0001  00000000 00000000 00000000 00000000
00:00:01.941984 Hst:                00000000 00000000 00000000 00000000
00:00:01.941985 Gst: 00000008/0000  00000000 00000000 00000000 00000000
00:00:01.941986 Hst:                00000000 00000000 00000000 00000000
00:00:01.941987 Gst: 00000009/0000  00000000 00000000 00000000 00000000
00:00:01.941988 Hst:                00000000 00000000 00000000 00000000
00:00:01.941989 Gst: 0000000a/0000  00000000 00000000 00000000 00000000
00:00:01.941990 Hst:                07300403 00000000 00000000 00000603
00:00:01.941991 Gst: 0000000b/0000  00000000 00000001 00000100 00000000
00:00:01.941992 Hst:                00000001 00000002 00000100 00000002
00:00:01.941993 Gst: 0000000b/0001  00000001 00000001 00000201 00000000
00:00:01.941994 Hst:                00000004 00000004 00000201 00000002
00:00:01.941995 Gst: 0000000b/0002  00000000 00000000 00000002 00000000
00:00:01.941996 Hst:                00000000 00000000 00000002 00000002
00:00:01.941997 Gst: 0000000c/0000  00000000 00000000 00000000 00000000
00:00:01.941998 Hst:                00000000 00000000 00000000 00000000
00:00:01.941998 Gst: 0000000d/0000  00000007 00000340 00000340 00000000
00:00:01.941999 Hst:                00000007 00000340 00000340 00000000
00:00:01.942001 Gst: 0000000d/0001  00000000 00000000 00000000 00000000
00:00:01.942001 Hst:                00000001 00000000 00000000 00000000
00:00:01.942002 Gst: 0000000d/0002  00000100 00000240 00000000 00000000
00:00:01.942003 Hst:                00000100 00000240 00000000 00000000
00:00:01.942004 Gst: 0000000d/0003  00000000 00000000 00000000 00000000
00:00:01.942005 Hst:                00000000 00000000 00000000 00000000
00:00:01.942022                                Name: GenuineIntel
00:00:01.942024                            Supports: 0x00000000-0x0000000d
00:00:01.942025                              Family:  6 	Extended: 0 	Effective: 6
00:00:01.942027                               Model:  5 	Extended: 4 	Effective: 69
00:00:01.942028                            Stepping: 1
00:00:01.942029                                Type: 0 (primary)
00:00:01.942031                             APIC ID: 0x00
00:00:01.942032                        Logical CPUs: 0
00:00:01.942033                        CLFLUSH Size: 8
00:00:01.942033                            Brand ID: 0x00
00:00:01.942035 Features
00:00:01.942035   Mnemonic - Description                                  = guest (host)
00:00:01.942036   FPU - x87 FPU on Chip                                   = 1 (1)
00:00:01.942038   VME - Virtual 8086 Mode Enhancements                    = 1 (1)
00:00:01.942039   DE - Debugging extensions                               = 1 (1)
00:00:01.942041   PSE - Page Size Extension                               = 1 (1)
00:00:01.942042   TSC - Time Stamp Counter                                = 1 (1)
00:00:01.942044   MSR - Model Specific Registers                          = 1 (1)
00:00:01.942045   PAE - Physical Address Extension                        = 1 (1)
00:00:01.942046   MCE - Machine Check Exception                           = 1 (1)
00:00:01.942047   CX8 - CMPXCHG8B instruction                             = 1 (1)
00:00:01.942049   APIC - APIC On-Chip                                     = 1 (1)
00:00:01.942050   SEP - SYSENTER and SYSEXIT Present                      = 1 (1)
00:00:01.942051   MTRR - Memory Type Range Registers                      = 1 (1)
00:00:01.942053   PGE - PTE Global Bit                                    = 1 (1)
00:00:01.942054   MCA - Machine Check Architecture                        = 1 (1)
00:00:01.942055   CMOV - Conditional Move instructions                    = 1 (1)
00:00:01.942057   PAT - Page Attribute Table                              = 1 (1)
00:00:01.942058   PSE-36 - 36-bit Page Size Extension                     = 1 (1)
00:00:01.942059   PSN - Processor Serial Number                           = 0 (0)
00:00:01.942061   CLFSH - CLFLUSH instruction                             = 1 (1)
00:00:01.942062   DS - Debug Store                                        = 0 (1)
00:00:01.942063   ACPI - Thermal Mon. & Soft. Clock Ctrl.                 = 0 (1)
00:00:01.942065   MMX - Intel MMX Technology                              = 1 (1)
00:00:01.942066   FXSR - FXSAVE and FXRSTOR instructions                  = 1 (1)
00:00:01.942067   SSE - SSE support                                       = 1 (1)
00:00:01.942068   SSE2 - SSE2 support                                     = 1 (1)
00:00:01.942070   SS - Self Snoop                                         = 0 (1)
00:00:01.942071   HTT - Hyper-Threading Technology                        = 0 (1)
00:00:01.942073   TM - Therm. Monitor                                     = 0 (1)
00:00:01.942074   PBE - Pending Break Enabled                             = 0 (1)
00:00:01.942075   SSE3 - SSE3 support                                     = 1 (1)
00:00:01.942077   PCLMUL - PCLMULQDQ support (for AES-GCM)                = 1 (1)
00:00:01.942078   DTES64 - DS Area 64-bit Layout                          = 0 (1)
00:00:01.942079   MONITOR - MONITOR/MWAIT instructions                    = 1 (1)
00:00:01.942080   CPL-DS - CPL Qualified Debug Store                      = 0 (1)
00:00:01.942082   VMX - Virtual Machine Extensions                        = 0 (1)
00:00:01.942083   SMX - Safer Mode Extensions                             = 0 (0)
00:00:01.942084   EST - Enhanced SpeedStep Technology                     = 0 (1)
00:00:01.942085   TM2 - Terminal Monitor 2                                = 0 (1)
00:00:01.942087   SSSE3 - Supplemental Streaming SIMD Extensions 3        = 1 (1)
00:00:01.942088   CNTX-ID - L1 Context ID                                 = 0 (0)
00:00:01.942089   SDBG - Silicon Debug interface                          = 0 (1)
00:00:01.942090   FMA - Fused Multiply Add extensions                     = 0 (1)
00:00:01.942091   CX16 - CMPXCHG16B instruction                           = 1 (1)
00:00:01.942093   TPRUPDATE - xTPR Update Control                         = 0 (1)
00:00:01.942094   PDCM - Perf/Debug Capability MSR                        = 0 (1)
00:00:01.942095   PCID - Process Context Identifiers                      = 0 (1)
00:00:01.942096   DCA - Direct Cache Access                               = 0 (0)
00:00:01.942098   SSE4_1 - SSE4_1 support                                 = 1 (1)
00:00:01.942099   SSE4_2 - SSE4_2 support                                 = 1 (1)
00:00:01.942100   X2APIC - x2APIC support                                 = 0 (1)
00:00:01.942101   MOVBE - MOVBE instruction                               = 1 (1)
00:00:01.942103   POPCNT - POPCNT instruction                             = 1 (1)
00:00:01.942104   TSCDEADL - Time Stamp Counter Deadline                  = 0 (1)
00:00:01.942105   AES - AES instructions                                  = 1 (1)
00:00:01.942107   XSAVE - XSAVE instruction                               = 1 (1)
00:00:01.942108   OSXSAVE - OSXSAVE instruction                           = 0 (1)
00:00:01.942109   AVX - AVX support                                       = 1 (1)
00:00:01.942111   F16C - 16-bit floating point conversion instructions    = 0 (1)
00:00:01.942112   RDRAND - RDRAND instruction                             = 1 (1)
00:00:01.942113   HVP - Hypervisor Present (we're a guest)                = 0 (0)
00:00:01.942114 Structured Extended Feature Flags Enumeration (leaf 7):
00:00:01.942115   Mnemonic - Description                                  = guest (host)
00:00:01.942116   FSGSBASE - RDFSBASE/RDGSBASE/WRFSBASE/WRGSBASE instr.   = 0 (1)
00:00:01.942117   TSCADJUST - Supports MSR_IA32_TSC_ADJUST                = 0 (1)
00:00:01.942118   SGX - Supports Software Guard Extensions                = 0 (0)
00:00:01.942119   BMI1 - Advanced Bit Manipulation extension 1            = 0 (1)
00:00:01.942120   HLE - Hardware Lock Elision                             = 0 (0)
00:00:01.942121   AVX2 - Advanced Vector Extensions 2                     = 0 (1)
00:00:01.942123   FDP_EXCPTN_ONLY - FPU DP only updated on exceptions     = 0 (0)
00:00:01.942124   SMEP - Supervisor Mode Execution Prevention             = 0 (1)
00:00:01.942125   BMI2 - Advanced Bit Manipulation extension 2            = 0 (1)
00:00:01.942126   ERMS - Enhanced REP MOVSB/STOSB instructions            = 0 (1)
00:00:01.942127   INVPCID - INVPCID instruction                           = 0 (1)
00:00:01.942128   RTM - Restricted Transactional Memory                   = 0 (0)
00:00:01.942129   PQM - Platform Quality of Service Monitoring            = 0 (0)
00:00:01.942130   DEPFPU_CS_DS - Deprecates FPU CS, FPU DS values if set  = 1 (1)
00:00:01.942131   MPE - Intel Memory Protection Extensions                = 0 (0)
00:00:01.942132   PQE - Platform Quality of Service Enforcement           = 0 (0)
00:00:01.942133   AVX512F - AVX512 Foundation instructions                = 0 (0)
00:00:01.942134   RDSEED - RDSEED instruction                             = 0 (0)
00:00:01.942136   ADX - ADCX/ADOX instructions                            = 0 (0)
00:00:01.942137   SMAP - Supervisor Mode Access Prevention                = 0 (0)
00:00:01.942138   CLFLUSHOPT - CLFLUSHOPT (Cache Line Flush) instruction  = 0 (0)
00:00:01.942139   INTEL_PT - Intel Processor Trace                        = 0 (0)
00:00:01.942140   AVX512PF - AVX512 Prefetch instructions                 = 0 (0)
00:00:01.942141   AVX512ER - AVX512 Exponential & Reciprocal instructions = 0 (0)
00:00:01.942142   AVX512CD - AVX512 Conflict Detection instructions       = 0 (0)
00:00:01.942143   SHA - Secure Hash Algorithm extensions                  = 0 (0)
00:00:01.942144   PREFETCHWT1 - PREFETCHWT1 instruction                   = 0 (0)
00:00:01.942146   PKU - Protection Key for Usermode pages                 = 0 (0)
00:00:01.942147   OSPKU - CR4.PKU mirror                                  = 0 (0)
00:00:01.942149 Processor Extended State Enumeration (leaf 0xd):
00:00:01.942149    XSAVE area cur/max size by XCR0, guest: 0x340/0x340
00:00:01.942151     XSAVE area cur/max size by XCR0, host: 0x340/0x340
00:00:01.942152                    Valid XCR0 bits, guest: 0x00000000`00000007 ( x87 SSE YMM_Hi128 )
00:00:01.942154                     Valid XCR0 bits, host: 0x00000000`00000007 ( x87 SSE YMM_Hi128 )
00:00:01.942156                     XSAVE features, guest:
00:00:01.942157                      XSAVE features, host: XSAVEOPT
00:00:01.942159       XSAVE area cur size XCR0|XSS, guest: 0x0
00:00:01.942159        XSAVE area cur size XCR0|XSS, host: 0x0
00:00:01.942160                Valid IA32_XSS bits, guest: 0x00000000`00000000
00:00:01.942161                 Valid IA32_XSS bits, host: 0x00000000`00000000
00:00:01.942162   State #2, guest: off=0x0240, cb=0x0100 IA32_XSS-bit -- YMM_Hi128
00:00:01.942164   State #2, host:  off=0x0240, cb=0x0100 IA32_XSS-bit -- YMM_Hi128
00:00:01.942174          Raw Extended CPUID Leaves
00:00:01.942174      Leaf/sub-leaf  eax      ebx      ecx      edx
00:00:01.942175 Gst: 80000000/0000  80000008 00000000 00000000 00000000
00:00:01.942177 Hst:                80000008 00000000 00000000 00000000
00:00:01.942178 Gst: 80000001/0000  00000000 00000000 00000021 28100800
00:00:01.942179 Hst:                00000000 00000000 00000021 2c100800
00:00:01.942181 Gst: 80000002/0000  65746e49 2952286c 726f4320 4d542865
00:00:01.942182 Hst:                65746e49 2952286c 726f4320 4d542865
00:00:01.942184 Gst: 80000003/0000  35692029 3532342d 43205530 40205550
00:00:01.942186 Hst:                35692029 3532342d 43205530 40205550
00:00:01.942188 Gst: 80000004/0000  332e3120 7a484730 00000000 00000000
00:00:01.942189 Hst:                332e3120 7a484730 00000000 00000000
00:00:01.942191 Gst: 80000005/0000  00000000 00000000 00000000 00000000
00:00:01.942192 Hst:                00000000 00000000 00000000 00000000
00:00:01.942193 Gst: 80000006/0000  00000000 00000000 01006040 00000000
00:00:01.942194 Hst:                00000000 00000000 01006040 00000000
00:00:01.942195 Gst: 80000007/0000  00000000 00000000 00000000 00000100
00:00:01.942196 Hst:                00000000 00000000 00000000 00000100
00:00:01.942197 Gst: 80000008/0000  00003027 00000000 00000000 00000000
00:00:01.942198 Hst:                00003027 00000000 00000000 00000000
00:00:01.942199 Ext Name:                        
00:00:01.942200 Ext Supports:                    0x80000000-0x80000008
00:00:01.942203 Family:                          0  	Extended: 0 	Effective: 0
00:00:01.942204 Model:                           0  	Extended: 0 	Effective: 0
00:00:01.942204 Stepping:                        0
00:00:01.942205 Brand ID:                        0x000
00:00:01.942206 Ext Features
00:00:01.942206   Mnemonic - Description                                  = guest (host)
00:00:01.942207   FPU - x87 FPU on Chip                                   = 0 (0)
00:00:01.942208   VME - Virtual 8086 Mode Enhancements                    = 0 (0)
00:00:01.942209   DE - Debugging extensions                               = 0 (0)
00:00:01.942211   PSE - Page Size Extension                               = 0 (0)
00:00:01.942212   TSC - Time Stamp Counter                                = 0 (0)
00:00:01.942214   MSR - K86 Model Specific Registers                      = 0 (0)
00:00:01.942215   PAE - Physical Address Extension                        = 0 (0)
00:00:01.942216   MCE - Machine Check Exception                           = 0 (0)
00:00:01.942217   CX8 - CMPXCHG8B instruction                             = 0 (0)
00:00:01.942218   APIC - APIC On-Chip                                     = 0 (0)
00:00:01.942220   SEP - SYSCALL/SYSRET                                    = 1 (1)
00:00:01.942221   MTRR - Memory Type Range Registers                      = 0 (0)
00:00:01.942222   PGE - PTE Global Bit                                    = 0 (0)
00:00:01.942224   MCA - Machine Check Architecture                        = 0 (0)
00:00:01.942225   CMOV - Conditional Move instructions                    = 0 (0)
00:00:01.942226   PAT - Page Attribute Table                              = 0 (0)
00:00:01.942227   PSE-36 - 36-bit Page Size Extension                     = 0 (0)
00:00:01.942229   NX - No-Execute/Execute-Disable                         = 1 (1)
00:00:01.942230   AXMMX - AMD Extensions to MMX instructions              = 0 (0)
00:00:01.942231   MMX - Intel MMX Technology                              = 0 (0)
00:00:01.942232   FXSR - FXSAVE and FXRSTOR Instructions                  = 0 (0)
00:00:01.942233   FFXSR - AMD fast FXSAVE and FXRSTOR instructions        = 0 (0)
00:00:01.942234   Page1GB - 1 GB large page                               = 0 (1)
00:00:01.942236   RDTSCP - RDTSCP instruction                             = 1 (1)
00:00:01.942237   LM - AMD64 Long Mode                                    = 1 (1)
00:00:01.942238   3DNOWEXT - AMD Extensions to 3DNow                      = 0 (0)
00:00:01.942240   3DNOW - AMD 3DNow                                       = 0 (0)
00:00:01.942241   LahfSahf - LAHF/SAHF support in 64-bit mode             = 1 (1)
00:00:01.942242   CmpLegacy - Core multi-processing legacy mode           = 0 (0)
00:00:01.942243   SVM - AMD Secure Virtual Machine extensions             = 0 (0)
00:00:01.942245   EXTAPIC - AMD Extended APIC registers                   = 0 (0)
00:00:01.942246   CR8L - AMD LOCK MOV CR0 means MOV CR8                   = 0 (0)
00:00:01.942247   ABM - AMD Advanced Bit Manipulation                     = 1 (1)
00:00:01.942248   SSE4A - SSE4A instructions                              = 0 (0)
00:00:01.942249   MISALIGNSSE - AMD Misaligned SSE mode                   = 0 (0)
00:00:01.942250   3DNOWPRF - AMD PREFETCH and PREFETCHW instructions      = 0 (0)
00:00:01.942251   OSVW - AMD OS Visible Workaround                        = 0 (0)
00:00:01.942252   IBS - Instruct Based Sampling                           = 0 (0)
00:00:01.942254   XOP - Extended Operation support                        = 0 (0)
00:00:01.942255   SKINIT - SKINIT, STGI, and DEV support                  = 0 (0)
00:00:01.942256   WDT - AMD Watchdog Timer support                        = 0 (0)
00:00:01.942257   LWP - Lightweight Profiling support                     = 0 (0)
00:00:01.942258   FMA4 - Four operand FMA instruction support             = 0 (0)
00:00:01.942259   NodeId - NodeId in MSR C001_100C                        = 0 (0)
00:00:01.942261   TBM - Trailing Bit Manipulation instructions            = 0 (0)
00:00:01.942262   TOPOEXT - Topology Extensions                           = 0 (0)
00:00:01.942263 Full Name:                       "Intel(R) Core(TM) i5-4250U CPU @ 1.30GHz"
00:00:01.942264 TLB 2/4M Instr/Uni:              res0     0 entries
00:00:01.942265 TLB 2/4M Data:                   res0     0 entries
00:00:01.942266 TLB 4K Instr/Uni:                res0     0 entries
00:00:01.942266 TLB 4K Data:                     res0     0 entries
00:00:01.942267 L1 Instr Cache Line Size:        0 bytes
00:00:01.942268 L1 Instr Cache Lines Per Tag:    0
00:00:01.942268 L1 Instr Cache Associativity:    res0  
00:00:01.942269 L1 Instr Cache Size:             0 KB
00:00:01.942269 L1 Data Cache Line Size:         0 bytes
00:00:01.942270 L1 Data Cache Lines Per Tag:     0
00:00:01.942271 L1 Data Cache Associativity:     res0  
00:00:01.942271 L1 Data Cache Size:              0 KB
00:00:01.942272 L2 TLB 2/4M Instr/Uni:           off       0 entries
00:00:01.942273 L2 TLB 2/4M Data:                off       0 entries
00:00:01.942273 L2 TLB 4K Instr/Uni:             off       0 entries
00:00:01.942274 L2 TLB 4K Data:                  off       0 entries
00:00:01.942275 L2 Cache Line Size:              0 bytes
00:00:01.942275 L2 Cache Lines Per Tag:          0
00:00:01.942276 L2 Cache Associativity:          off   
00:00:01.942276 L2 Cache Size:                   0 KB
00:00:01.942277 APM Features:                    TscInvariant
00:00:01.942278 Host Invariant-TSC support:      true 
00:00:01.942279 Physical Address Width:          39 bits
00:00:01.942279 Virtual Address Width:           48 bits
00:00:01.942280 Guest Physical Address Width:    0 bits
00:00:01.942281 Physical Core Count:             1
00:00:01.942282 
00:00:01.942282 ******************** End of CPUID dump **********************
00:00:01.947697 VMEmt: Halt method global1 (5)
00:00:01.947716 VMEmt: HaltedGlobal1 config: cNsSpinBlockThresholdCfg=2000
00:00:01.947720 Changing the VM state from 'CREATING' to 'CREATED'
00:00:01.953874 Changing the VM state from 'CREATED' to 'POWERING_ON'
00:00:01.954014 Changing the VM state from 'POWERING_ON' to 'RUNNING'
00:00:01.954032 Console: Machine state changed to 'Running'
00:00:01.958345 VMMDev: Guest Log: BIOS: VirtualBox 5.1.22
00:00:01.963044 PIT: mode=2 count=0x10000 (65536) - 18.20 Hz (ch=0)
00:00:01.975608 Display::handleDisplayResize: uScreenId=0 pvVRAM=0000000000000000 w=720 h=400 bpp=0 cbLine=0x0 flags=0x0
00:00:01.975726 GUI: UIFrameBufferPrivate::NotifyChange: Screen=0, Origin=0x0, Size=720x400, Sending to async-handler
00:00:01.988769 PIIX3 ATA: Ctl#0: RESET, DevSel=0 AIOIf=0 CmdIf0=0x00 (-1 usec ago) CmdIf1=0x00 (-1 usec ago)
00:00:01.989301 PIIX3 ATA: Ctl#0: finished processing RESET
00:00:01.990641 VMMDev: Guest Log: BIOS: ata0-0: PCHS=4161/16/63 LCHS=520/128/63
00:00:01.991758 PIIX3 ATA: Ctl#0: RESET, DevSel=1 AIOIf=0 CmdIf0=0xec (-1 usec ago) CmdIf1=0x00 (-1 usec ago)
00:00:01.991855 PIIX3 ATA: Ctl#0: finished processing RESET
00:00:01.995025 GUI: UIMachineView::sltHandleNotifyChange: Screen=0, Size=720x400
00:00:01.995056 GUI: UIFrameBufferPrivate::handleNotifyChange: Size=720x400
00:00:01.995068 GUI: UIFrameBufferPrivate::performResize: Size=720x400, Directly using source bitmap content
00:00:02.012362 PIT: mode=2 count=0x48d3 (18643) - 64.00 Hz (ch=0)
00:00:02.018539 Display::handleDisplayResize: uScreenId=0 pvVRAM=000000011700d000 w=640 h=480 bpp=32 cbLine=0xA00 flags=0x0
00:00:02.018607 GUI: UIFrameBufferPrivate::NotifyChange: Screen=0, Origin=0x0, Size=640x480, Sending to async-handler
00:00:02.030443 GUI: UIMachineView::sltHandleNotifyChange: Screen=0, Size=640x480
00:00:02.030463 GUI: UIFrameBufferPrivate::handleNotifyChange: Size=640x480
00:00:02.030483 GUI: UIFrameBufferPrivate::performResize: Size=640x480, Directly using source bitmap content
00:00:02.072046 GUI: UIMachineViewNormal::resendSizeHint: Restoring guest size-hint for screen 0 to 800x600
00:00:02.072122 VMMDev: SetVideoModeHint: Got a video mode hint (800x600x32)@(0x0),(1;0) at 0
00:00:02.078273 GUI: 2D video acceleration is disabled
00:00:02.078297 GUI: HID LEDs sync is enabled
00:00:02.087174 GUI: UIMachineLogicNormal::sltCheckForRequestedVisualStateType: Requested-state=0, Machine-state=5
00:00:04.493466 Display::handleDisplayResize: uScreenId=0 pvVRAM=0000000000000000 w=720 h=400 bpp=0 cbLine=0x0 flags=0x0
00:00:04.493518 GUI: UIFrameBufferPrivate::NotifyChange: Screen=0, Origin=0x0, Size=720x400, Sending to async-handler
00:00:04.493594 GUI: UIMachineView::sltHandleNotifyChange: Screen=0, Size=720x400
00:00:04.493602 GUI: UIFrameBufferPrivate::handleNotifyChange: Size=720x400
00:00:04.493613 GUI: UIFrameBufferPrivate::performResize: Size=720x400, Directly using source bitmap content
00:00:04.498103 PIT: mode=2 count=0x10000 (65536) - 18.20 Hz (ch=0)
00:00:04.498871 VMMDev: Guest Log: BIOS: Boot : bseqnr=1, bootseq=0231
00:00:04.499369 VMMDev: Guest Log: BIOS: Boot from Floppy 0 failed
00:00:04.499789 VMMDev: Guest Log: BIOS: Boot : bseqnr=2, bootseq=0023
00:00:04.505161 VMMDev: Guest Log: BIOS: Booting from CD-ROM...
00:00:04.596383 Display::handleDisplayResize: uScreenId=0 pvVRAM=000000011700d000 w=640 h=480 bpp=24 cbLine=0x780 flags=0x0
00:00:04.596454 GUI: UIFrameBufferPrivate::NotifyChange: Screen=0, Origin=0x0, Size=640x480, Sending to async-handler
00:00:04.596559 GUI: UIMachineView::sltHandleNotifyChange: Screen=0, Size=640x480
00:00:04.596575 GUI: UIFrameBufferPrivate::handleNotifyChange: Size=640x480
00:00:04.596600 GUI: UIFrameBufferPrivate::performResize: Size=640x480, Directly using source bitmap content
00:00:09.326033 VMMDev: Guest Log: BIOS: KBD: unsupported int 16h function 03
00:00:09.326341 VMMDev: Guest Log: BIOS: AX=0305 BX=0000 CX=0000 DX=0000 
00:00:09.393450 Display::handleDisplayResize: uScreenId=0 pvVRAM=0000000000000000 w=720 h=400 bpp=0 cbLine=0x0 flags=0x0
00:00:09.393506 GUI: UIFrameBufferPrivate::NotifyChange: Screen=0, Origin=0x0, Size=720x400, Sending to async-handler
00:00:09.393586 GUI: UIMachineView::sltHandleNotifyChange: Screen=0, Size=720x400
00:00:09.393595 GUI: UIFrameBufferPrivate::handleNotifyChange: Size=720x400
00:00:09.393611 GUI: UIFrameBufferPrivate::performResize: Size=720x400, Directly using source bitmap content
00:00:09.641876 PIT: mode=2 count=0x4a9 (1193) - 1000.15 Hz (ch=0)
00:00:09.891418 PIT: mode=0 count=0x10000 (65536) - 18.20 Hz (ch=0)
00:00:10.011058 OHCI: Software reset
00:00:10.406369 OHCI: USB Reset
00:00:10.407053 PIIX3 ATA: Ctl#0: RESET, DevSel=0 AIOIf=1 CmdIf0=0xec (-1 usec ago) CmdIf1=0xa0 (-1 usec ago)
00:00:10.407150 PIIX3 ATA: Ctl#0: finished processing RESET
00:00:10.407454 PIIX3 ATA: Ctl#1: RESET, DevSel=0 AIOIf=0 CmdIf0=0x00 (-1 usec ago) CmdIf1=0x00 (-1 usec ago)
00:00:10.407530 PIIX3 ATA: Ctl#1: finished processing RESET
00:00:10.457314 OHCI: Software reset
00:00:10.457419 OHCI: USB Operational
00:00:10.570032 OHCI: USB Suspended
00:00:11.257366 AC97: Reset
00:00:11.258086 AC97: Reset
00:00:13.258793 Display::handleDisplayResize: uScreenId=0 pvVRAM=000000011700d000 w=1024 h=768 bpp=32 cbLine=0x1000 flags=0x0
00:00:13.258888 GUI: UIFrameBufferPrivate::NotifyChange: Screen=0, Origin=0x0, Size=1024x768, Sending to async-handler
00:00:13.258997 GUI: UIMachineView::sltHandleNotifyChange: Screen=0, Size=1024x768
00:00:13.259009 GUI: UIFrameBufferPrivate::handleNotifyChange: Size=1024x768
00:00:13.259114 GUI: UIFrameBufferPrivate::performResize: Size=1024x768, Directly using source bitmap content
00:01:07.821739 PCNet#0: Init: ss32=1 GCRDRA=0x7f5cc000[32] GCTDRA=0x7cf50000[16]
00:01:07.829296 NAT: IPv6 not supported
00:01:08.050142 NAT: DHCP offered IP address 10.0.2.15
00:01:08.052986 NAT: DHCP offered IP address 10.0.2.15
00:01:08.341732 OHCI: USB Resume
00:01:08.387538 OHCI: USB Operational
00:01:08.442813 OHCI: USB Suspended
00:07:34.509139 DarwinDisableGlobalHotKeys: Unexpected enmMode=6
00:07:34.515176 DarwinDisableGlobalHotKeys: Unexpected enmMode=6
00:07:35.100196 OHCI: USB Resume
00:07:35.138324 OHCI: USB Operational
00:07:35.155036 OHCI: USB Suspended
00:07:38.318371 PCNet#0: Init: ss32=1 GCRDRA=0x7f5cc000[32] GCTDRA=0x7cf50000[16]
00:07:38.324729 PIIX3 ATA: Ctl#0: RESET, DevSel=0 AIOIf=0 CmdIf0=0xe0 (-1 usec ago) CmdIf1=0xa0 (-1 usec ago)
00:07:38.325790 PIIX3 ATA: Ctl#0: finished processing RESET
00:07:38.326135 PIIX3 ATA: Ctl#1: RESET, DevSel=0 AIOIf=0 CmdIf0=0x00 (-1 usec ago) CmdIf1=0x00 (-1 usec ago)
00:07:38.327857 PIIX3 ATA: Ctl#1: finished processing RESET
00:07:38.341979 AC97: Reset
00:07:38.345953 OHCI: USB Resume
00:07:38.380574 OHCI: USB Operational
00:07:38.498474 OHCI: USB Suspended
00:08:00.331840 Pausing VM execution, reason 'host suspend'
00:08:00.355261 Changing the VM state from 'RUNNING' to 'SUSPENDING'
00:08:00.470083 PDMR3Suspend: 109 593 905 ns run time
00:08:00.470103 Changing the VM state from 'SUSPENDING' to 'SUSPENDED'
00:08:00.471085 Console: Machine state changed to 'Paused'
00:08:35.817029 NAT: DNS servers changed, triggering reconnect
00:08:39.635646 NAT: DNS servers changed, triggering reconnect
00:08:49.183854 Resuming VM execution, reason 'host resume'
00:08:49.277151 Changing the VM state from 'SUSPENDED' to 'RESUMING'
00:08:49.351584 Changing the VM state from 'RESUMING' to 'RUNNING'
00:08:49.351919 Console: Machine state changed to 'Running'
00:08:50.628902 NAT: DNS servers changed, triggering reconnect
00:08:52.620234 NAT: DNS servers changed, triggering reconnect
00:08:57.635062 PCNet#0: The link is back up again after the restore.
00:09:05.111365 NAT: DHCP offered IP address 10.0.2.15
00:09:05.117297 NAT: DHCP offered IP address 10.0.2.15
00:15:10.939090 Pausing VM execution, reason 'host suspend'
00:15:10.970721 Changing the VM state from 'RUNNING' to 'SUSPENDING'
00:15:11.214717 PDMR3Suspend: 223 979 156 ns run time
00:15:11.214755 Changing the VM state from 'SUSPENDING' to 'SUSPENDED'
00:15:11.218775 Console: Machine state changed to 'Paused'
00:15:46.916352 NAT: DNS servers changed, triggering reconnect
00:15:48.335390 Resuming VM execution, reason 'host resume'
00:15:48.415422 Changing the VM state from 'SUSPENDED' to 'RESUMING'
00:15:48.680123 Changing the VM state from 'RESUMING' to 'RUNNING'
00:15:48.690078 Console: Machine state changed to 'Running'
00:15:50.308940 NAT: DNS servers changed, triggering reconnect
00:15:55.312121 PCNet#0: The link is back up again after the restore.
00:15:56.014431 NAT: DHCP offered IP address 10.0.2.15
00:15:56.022465 NAT: DHCP offered IP address 10.0.2.15
00:20:06.554694 GUI: Request to close active machine-window.
00:20:18.716592 Changing the VM state from 'RUNNING' to 'SUSPENDING'
00:20:19.100744 PDMR3Suspend: 330 122 144 ns run time
00:20:19.100800 Changing the VM state from 'SUSPENDING' to 'SUSPENDED'
00:20:19.132330 Console: Machine state changed to 'Paused'
00:21:41.262971 Changing the VM state from 'SUSPENDED' to 'RESUMING'
00:21:41.305793 Changing the VM state from 'RESUMING' to 'RUNNING'
00:21:41.308940 Console: Machine state changed to 'Running'
00:21:42.063836 GUI: Request to close active machine-window.
00:21:43.375747 GUI: UIMediumEnumerator: Medium-enumeration finished!
00:21:57.533878 GUI: Request for close-action to save VM state.
00:21:57.540376 Changing the VM state from 'RUNNING' to 'SUSPENDING'
00:21:57.627793 PDMR3Suspend: 85 512 713 ns run time
00:21:57.627827 Changing the VM state from 'SUSPENDING' to 'SUSPENDED'
00:21:57.629060 Console: Machine state changed to 'Paused'
00:21:57.638193 GUI: Passing request to save VM state from machine-logic to UI session.
00:21:57.659346 Console: Machine state changed to 'Saving'
00:21:57.662234 Changing the VM state from 'SUSPENDED' to 'SAVING'
00:22:34.738763 SSM: Footer at 0x44011f3b (1140924219), 32 directory entries.
00:22:34.810079 SSM: Successfully saved the VM state to '/Users/amin/VirtualBox VMs/osand/Snapshots/2017-11-05T18-08-17-151642000Z.sav'
00:22:34.821537 Changing the VM state from 'SAVING' to 'SUSPENDED'
00:22:34.847230 Console::powerDown(): A request to power off the VM has been issued (mMachineState=Saving, InUninit=0)
00:22:34.867777 Display::handleDisplayResize: uScreenId=0 pvVRAM=000000011700d000 w=1024 h=768 bpp=32 cbLine=0x1000 flags=0x0
00:22:35.049292 GUI: UIFrameBufferPrivate::NotifyChange: Screen=0, Origin=0x0, Size=1024x768, Sending to async-handler
00:22:35.226032 Changing the VM state from 'SUSPENDED' to 'POWERING_OFF'
00:22:35.226085 ****************** Guest state at power off for VCpu 0 ******************
00:22:35.261271 Guest CPUM (VCPU 0) state: 
00:22:35.275713 rax=0000000000000000 rbx=ffffffffa060e500 rcx=0000000000000000 rdx=0000000000000000
00:22:35.275741 rsi=0000000000000000 rdi=0000000000000000 r8 =0000000000000000 r9 =0000000000000002
00:22:35.275744 r10=0000000000000000 r11=7fffffffffffffff r12=0000000000000000 r13=0000000000000000
00:22:35.275747 r14=ffffffffa060e500 r15=ffffffffa060e500
00:22:35.275751 rip=ffffffffa0021041 rsp=ffffffffa0603f18 rbp=0000000000000000 iopl=0         nv up ei pl nz na po nc
00:22:35.312283 cs={0010 base=0000000000000000 limit=ffffffff flags=0000a09b}
00:22:35.312291 ds={0000 base=0000000000000000 limit=ffffffff flags=0001c000}
00:22:35.312294 es={0000 base=0000000000000000 limit=ffffffff flags=0001c000}
00:22:35.312298 fs={0000 base=0000000000000000 limit=ffffffff flags=0001c000}
00:22:35.312300 gs={0000 base=ffff9cc8bfc00000 limit=ffffffff flags=0001c000}
00:22:35.312304 ss={0018 base=0000000000000000 limit=ffffffff flags=0000c093}
00:22:35.312331 cr0=0000000080050033 cr2=00000000131cc001 cr3=000000003f032000 cr4=00000000000406f0
00:22:35.312335 dr0=0000000000000000 dr1=0000000000000000 dr2=0000000000000000 dr3=0000000000000000
00:22:35.312338 dr4=0000000000000000 dr5=0000000000000000 dr6=00000000ffff0ff0 dr7=0000000000000400
00:22:35.312341 gdtr=ffff9cc8bfc04000:007f  idtr=ffffffffff57c000:0fff  eflags=00000246
00:22:35.312346 ldtr={0000 base=00000000 limit=ffffffff flags=0001c000}
00:22:35.312349 tr  ={0040 base=ffff9cc8bfc15180 limit=00002087 flags=0000008b}
00:22:35.312353 SysEnter={cs=0010 eip=ffffffffa0022ff0 esp=0000000000000000}
00:22:35.312385 xcr=0000000000000007 xcr1=0000000000000000 xss=0000000000000000 (fXStateMask=0000000000000007)
00:22:35.312388 FCW=037f FSW=0000 FTW=0000 FOP=0000 MXCSR=00001fa1 MXCSR_MASK=0000ffff
00:22:35.312392 FPUIP=00000000 CS=0000 Rsrvd1=0000  FPUDP=00000000 DS=0000 Rsvrd2=0000
00:22:35.312396 ST(0)=FPR0={0000'00000000'00000000} t0 +0.0000000000000000000000 * 2 ^ -16383 (*)
00:22:35.312402 ST(1)=FPR1={0000'00000000'00000000} t0 +0.0000000000000000000000 * 2 ^ -16383 (*)
00:22:35.312406 ST(2)=FPR2={0000'00000000'00000000} t0 +0.0000000000000000000000 * 2 ^ -16383 (*)
00:22:35.312409 ST(3)=FPR3={0000'00000000'00000000} t0 +0.0000000000000000000000 * 2 ^ -16383 (*)
00:22:35.312413 ST(4)=FPR4={0000'00000000'00000000} t0 +0.0000000000000000000000 * 2 ^ -16383 (*)
00:22:35.312416 ST(5)=FPR5={0000'00000000'00000000} t0 +0.0000000000000000000000 * 2 ^ -16383 (*)
00:22:35.312419 ST(6)=FPR6={0000'00000000'00000000} t0 +0.0000000000000000000000 * 2 ^ -16383 (*)
00:22:35.312423 ST(7)=FPR7={0000'00000000'00000000} t0 +0.0000000000000000000000 * 2 ^ -16383 (*)
00:22:35.338873 YMM0 =00000000'00000000'00000000'00000000'00000000'00000000'00000000'00000000
00:22:35.338888 YMM1 =00000000'00000000'00000000'00000000'00000000'00000008'00000000'00000018
00:22:35.338894 YMM2 =00000000'00000000'00000000'00000000'00000000'000020e0'00000000'0004f283
00:22:35.338901 YMM3 =00000000'00000000'00000000'00000000'00000000'00000000'00000000'00000000
00:22:35.338906 YMM4 =00000000'00000000'00000000'00000000'00000000'00000000'756f6363'412f7374
00:22:35.338913 YMM5 =00000000'00000000'00000000'00000000'00000000'00000000'0066003a'00370064
00:22:35.338919 YMM6 =00000000'00000000'00000000'00000000'00000000'00000000'00650020'00340036
00:22:35.338926 YMM7 =00000000'00000000'00000000'00000000'00000000'00000000'00200038'00320031
00:22:35.338932 YMM8 =00000000'00000000'00000000'00000000'00000000'00000000'00000000'ebad8078
00:22:35.338939 YMM9 =00000000'00000000'00000000'00000000'00000000'00000000'00000000'ebad8079
00:22:35.338946 YMM10=00000000'00000000'00000000'00000000'00000000'00000000'00000000'ebad807a
00:22:35.338953 YMM11=00000000'00000000'00000000'00000000'00000000'00000000'00000000'ebad807b
00:22:35.338959 YMM12=00000000'00000000'00000000'00000000'00000000'00000000'00000000'00000000
00:22:35.338965 YMM13=00000000'00000000'00000000'00000000'00000000'00000000'00000000'00000000
00:22:35.338972 YMM14=00000000'00000000'00000000'00000000'00000000'00000000'00000000'00000000
00:22:35.338977 YMM15=00000000'00000000'00000000'00000000'00000000'00000000'00000000'00000000
00:22:35.338984 EFER         =0000000000000d01
00:22:35.338987 PAT          =0007040600070406
00:22:35.338990 STAR         =0023001000000000
00:22:35.338992 CSTAR        =ffffffffa0023050
00:22:35.338995 LSTAR        =ffffffffa0021b00
00:22:35.338997 SFMASK       =0000000000047700
00:22:35.339000 KERNELGSBASE =0000000000000000
00:22:35.339007 ***
00:22:35.452874 Guest paging mode (VCPU #0):  AMD64+NX (changed 50504 times), A20 enabled (changed 2 times)
00:22:35.470349 Shadow paging mode (VCPU #0): EPT
00:22:35.474867 Host paging mode:              AMD64+G+NX
00:22:35.474874 ***
00:22:35.479884 Active Timers (pVM=0000000114e67000)
00:22:35.479889 pTimerR3         offNext  offPrev  offSched Clock               Time             Expire HzHint State                     Description
00:22:35.482195 00000001158d02f0 000080e0 00000000 00000000 Real           165635412          165597476      0 2-ACTIVE                  VGA Refresh Timer
00:22:35.497137 00000001158d83d0 ffffff80 ffff7f20 00000000 Real           165635426          165597492      0 2-ACTIVE                  EMT Yielder
00:22:35.527512 00000001158d8350 00000000 00000080 00000000 Real           165635457          165598276      0 2-ACTIVE                  CPU Load Timer
00:22:35.528792 00000001158d63d0 ffffe050 00000000 00000000 Virt       1147356087637      1147258247228      0 2-ACTIVE                  USB Frame Timer
00:22:35.550310 00000001158d4420 00000620 00001fb0 00000000 Virt       1147356087637      1147259255605      0 2-ACTIVE                  PCNet Poll Timer
00:22:35.577316 00000001158d4a40 00000000 fffff9e0 00000000 Virt       1147356087637      1147259406063      0 2-ACTIVE                  DevIchAc97
00:22:35.581432 00000001158c0e50 000012a0 00000000 00000000 VrSy       1147257247228      1147327624135      7 2-ACTIVE                  APIC Timer 0
00:22:35.581446 00000001158c20f0 00016000 ffffed60 00000000 VrSy       1147257247228      1147990000000      0 2-ACTIVE                  MC146818 RTC/CMOS - Second
00:22:35.581525 00000001158d80f0 00000000 fffea000 00000000 VrSy       1147257247228      1199864031882      0 2-ACTIVE                  ACPI PM Timer
00:22:35.581799 ***
00:22:35.627545 ************** End of Guest state at power off ***************
00:22:36.746325 PDMR3PowerOff: 1 069 649 720 ns run time
00:22:36.749156 Changing the VM state from 'POWERING_OFF' to 'OFF'
00:22:37.382536 Changing the VM state from 'OFF' to 'DESTROYING'
00:22:37.390453 ************************* Statistics *************************
00:22:37.442904 /CPUM/MSR-Totals/Reads                 48 times
00:22:37.442942 /CPUM/MSR-Totals/ReadsRaisingGP         0 times
00:22:37.442953 /CPUM/MSR-Totals/ReadsUnknown           0 times
00:22:37.442961 /CPUM/MSR-Totals/Writes                 8 times
00:22:37.442969 /CPUM/MSR-Totals/WritesRaisingGP        0 times
00:22:37.442977 /CPUM/MSR-Totals/WritesToIgnoredBits        1 times
00:22:37.442984 /CPUM/MSR-Totals/WritesUnknown          0 times
00:22:37.443021 /Devices/IDE0/ATA0/Unit0/AtapiDMA        0 times
00:22:37.443068 /Devices/IDE0/ATA0/Unit0/AtapiPIO        0 times
00:22:37.443077 /Devices/IDE0/ATA0/Unit0/DMA            5 times
00:22:37.443085 /Devices/IDE0/ATA0/Unit0/PIO            6 times
00:22:37.443093 /Devices/IDE0/ATA0/Unit0/ReadBytes   249856 bytes
00:22:37.443101 /Devices/IDE0/ATA0/Unit0/WrittenBytes        0 bytes
00:22:37.443109 /Devices/IDE0/ATA0/Unit1/AtapiDMA    22486 times
00:22:37.443116 /Devices/IDE0/ATA0/Unit1/AtapiPIO      203 times
00:22:37.443124 /Devices/IDE0/ATA0/Unit1/DMA            0 times
00:22:37.443132 /Devices/IDE0/ATA0/Unit1/PIO            0 times
00:22:37.443140 /Devices/IDE0/ATA0/Unit1/ReadBytes 1319843840 bytes
00:22:37.443148 /Devices/IDE0/ATA0/Unit1/WrittenBytes        0 bytes
00:22:37.443180 /Devices/IDE0/ATA1/Unit0/AtapiDMA        0 times
00:22:37.443188 /Devices/IDE0/ATA1/Unit0/AtapiPIO        0 times
00:22:37.443196 /Devices/IDE0/ATA1/Unit0/DMA            0 times
00:22:37.443204 /Devices/IDE0/ATA1/Unit0/PIO            0 times
00:22:37.443211 /Devices/IDE0/ATA1/Unit0/ReadBytes        0 bytes
00:22:37.443219 /Devices/IDE0/ATA1/Unit0/WrittenBytes        0 bytes
00:22:37.443226 /Devices/IDE0/ATA1/Unit1/AtapiDMA        0 times
00:22:37.443234 /Devices/IDE0/ATA1/Unit1/AtapiPIO        0 times
00:22:37.443242 /Devices/IDE0/ATA1/Unit1/DMA            0 times
00:22:37.443250 /Devices/IDE0/ATA1/Unit1/PIO            0 times
00:22:37.443258 /Devices/IDE0/ATA1/Unit1/ReadBytes        0 bytes
00:22:37.443288 /Devices/IDE0/ATA1/Unit1/WrittenBytes        0 bytes
00:22:37.443297 /Devices/PCNet0/ReceiveBytes     35792732 bytes
00:22:37.443321 /Devices/PCNet0/TransmitBytes     1404480 bytes
00:22:37.443328 /Devices/VMMDev/BalloonChunks           0 count
00:22:37.443335 /FT/Checkpoint/Network                  0 times
00:22:37.443342 /FT/Checkpoint/Storage                  0 times
00:22:37.443348 /FT/Received/Mem                        0 bytes
00:22:37.443355 /FT/Received/State                      0 bytes
00:22:37.443362 /FT/Sent/Mem                            0 bytes
00:22:37.443369 /FT/Sent/State                          0 bytes
00:22:37.443375 /FT/Sync/DeltaMem                       0 times
00:22:37.443382 /FT/Sync/DeltaVM                        0 times
00:22:37.443388 /FT/Sync/Full                           0 times
00:22:37.443434 /GMM/VM/Allocated/cBasePages       523862 pages
00:22:37.443443 /GMM/VM/Allocated/cFixedPages           0 pages
00:22:37.443450 /GMM/VM/Allocated/cShadowPages          0 pages
00:22:37.443456 /GMM/VM/Reserved/cBasePages        524446 pages
00:22:37.443463 /GMM/VM/Reserved/cFixedPages         2564 pages
00:22:37.443469 /GMM/VM/Reserved/cShadowPages           1 pages
00:22:37.443475 /GMM/VM/cBalloonedPages                 0 pages
00:22:37.443481 /GMM/VM/cMaxBalloonedPages              0 pages
00:22:37.443488 /GMM/VM/cPrivatePages              523862 pages
00:22:37.443494 /GMM/VM/cReqActuallyBalloonedPages        0 pages
00:22:37.443500 /GMM/VM/cReqBalloonedPages              0 pages
00:22:37.443506 /GMM/VM/cReqDeflatePages                0 pages
00:22:37.443522 /GMM/VM/cShareableModules               0 count
00:22:37.443527 /GMM/VM/cSharedPages                    0 pages
00:22:37.443532 /GMM/VM/enmPolicy                       1 
00:22:37.443537 /GMM/VM/enmPriority                     2 
00:22:37.443542 /GMM/VM/fBallooningEnabled       false    
00:22:37.443547 /GMM/VM/fMayAllocate             true     
00:22:37.443552 /GMM/VM/fSharedPagingEnabled     false    
00:22:37.443557 /GMM/cAllocatedPages               523862 pages
00:22:37.443562 /GMM/cBalloonedPages                    0 pages
00:22:37.443567 /GMM/cChunks                         1024 count
00:22:37.443573 /GMM/cDuplicatePages                    0 pages
00:22:37.443578 /GMM/cFreedChunks                       0 count
00:22:37.443583 /GMM/cLeftBehindSharedPages             0 pages
00:22:37.443587 /GMM/cMaxPages                   4294967295 pages
00:22:37.443593 /GMM/cOverCommittedPages                0 pages
00:22:37.443598 /GMM/cReservedPages                527011 pages
00:22:37.443603 /GMM/cShareableModules                  0 count
00:22:37.443621 /GMM/cSharedPages                       0 pages
00:22:37.443626 /GVMM/EMTs                              1 calls
00:22:37.443632 /GVMM/HostCPUs                          4 calls
00:22:37.443637 /GVMM/HostCpus/0                        0 
00:22:37.443642 /GVMM/HostCpus/0/CurTimerHz             0 Hz
00:22:37.443647 /GVMM/HostCpus/0/DesiredHz              0 Hz
00:22:37.443652 /GVMM/HostCpus/0/PPTChanges             0 times
00:22:37.443656 /GVMM/HostCpus/0/PPTStarts              0 times
00:22:37.443661 /GVMM/HostCpus/0/idxCpuSet              0 
00:22:37.443666 /GVMM/HostCpus/1                        1 
00:22:37.443671 /GVMM/HostCpus/1/CurTimerHz             0 Hz
00:22:37.443675 /GVMM/HostCpus/1/DesiredHz              0 Hz
00:22:37.443680 /GVMM/HostCpus/1/PPTChanges             0 times
00:22:37.443685 /GVMM/HostCpus/1/PPTStarts              0 times
00:22:37.443690 /GVMM/HostCpus/1/idxCpuSet              1 
00:22:37.443694 /GVMM/HostCpus/2                        2 
00:22:37.443699 /GVMM/HostCpus/2/CurTimerHz             0 Hz
00:22:37.443704 /GVMM/HostCpus/2/DesiredHz              0 Hz
00:22:37.443709 /GVMM/HostCpus/2/PPTChanges             0 times
00:22:37.443714 /GVMM/HostCpus/2/PPTStarts              0 times
00:22:37.443718 /GVMM/HostCpus/2/idxCpuSet              2 
00:22:37.443723 /GVMM/HostCpus/3                        3 
00:22:37.443728 /GVMM/HostCpus/3/CurTimerHz             0 Hz
00:22:37.443733 /GVMM/HostCpus/3/DesiredHz              0 Hz
00:22:37.443737 /GVMM/HostCpus/3/PPTChanges             0 times
00:22:37.443742 /GVMM/HostCpus/3/PPTStarts              0 times
00:22:37.443747 /GVMM/HostCpus/3/idxCpuSet              3 
00:22:37.443752 /GVMM/Sum/HaltBlocking             253006 calls
00:22:37.443757 /GVMM/Sum/HaltCalls                254674 calls
00:22:37.443762 /GVMM/Sum/HaltNotBlocking            1668 calls
00:22:37.443767 /GVMM/Sum/HaltTimeouts             221288 calls
00:22:37.443772 /GVMM/Sum/HaltWakeUps                   0 calls
00:22:37.443777 /GVMM/Sum/PokeCalls                 32512 calls
00:22:37.443782 /GVMM/Sum/PokeNotBusy                2678 calls
00:22:37.443787 /GVMM/Sum/PollCalls                     0 calls
00:22:37.443792 /GVMM/Sum/PollHalts                     0 calls
00:22:37.443797 /GVMM/Sum/PollWakeUps                   0 calls
00:22:37.443802 /GVMM/Sum/WakeUpCalls               33315 calls
00:22:37.443807 /GVMM/Sum/WakeUpNotHalted           19973 calls
00:22:37.443812 /GVMM/Sum/WakeUpWakeUps                 0 calls
00:22:37.443817 /GVMM/VM/HaltBlocking              253006 calls
00:22:37.443951 /GVMM/VM/HaltCalls                 254674 calls
00:22:37.443969 /GVMM/VM/HaltNotBlocking             1668 calls
00:22:37.443976 /GVMM/VM/HaltTimeouts              221288 calls
00:22:37.443984 /GVMM/VM/HaltWakeUps                    0 calls
00:22:37.443991 /GVMM/VM/PokeCalls                  32512 calls
00:22:37.444002 /GVMM/VM/PokeNotBusy                 2678 calls
00:22:37.444009 /GVMM/VM/PollCalls                      0 calls
00:22:37.444016 /GVMM/VM/PollHalts                      0 calls
00:22:37.444026 /GVMM/VM/PollWakeUps                    0 calls
00:22:37.444033 /GVMM/VM/WakeUpCalls                33315 calls
00:22:37.444043 /GVMM/VM/WakeUpNotHalted            19973 calls
00:22:37.444050 /GVMM/VM/WakeUpWakeUps                  0 calls
00:22:37.444056 /GVMM/VMs                               1 calls
00:22:37.444064 /HM/CPU0/Exit/HostNmiInGC               0 times
00:22:37.444074 /HM/CPU0/Switch/Preempting              0 times
00:22:37.444137 /IEM/CPU0/CodeTlb-Misses                0 count
00:22:37.444143 /IEM/CPU0/CodeTlb-PhysRev        ffffffffffff9c00 
00:22:37.444148 /IEM/CPU0/CodeTlb-Revision       fffff38000000000 
00:22:37.444152 /IEM/CPU0/CodeTlb-SlowReads             0 
00:22:37.444156 /IEM/CPU0/DataTlb-Misses                0 count
00:22:37.444176 /IEM/CPU0/DataTlb-PhysRev        ffffffffffff9c00 
00:22:37.444181 /IEM/CPU0/DataTlb-Revision       fffff38000000000 
00:22:37.444186 /IEM/CPU0/cInstructions           1559168 count
00:22:37.444203 /IEM/CPU0/cLongJumps                    0 bytes
00:22:37.444207 /IEM/CPU0/cPendingCommit                0 bytes
00:22:37.444211 /IEM/CPU0/cPotentialExits         1621810 count
00:22:37.444215 /IEM/CPU0/cRetAspectNotImplemented        0 count
00:22:37.444219 /IEM/CPU0/cRetErrStatuses               0 count
00:22:37.444223 /IEM/CPU0/cRetInfStatuses               0 count
00:22:37.444244 /IEM/CPU0/cRetInstrNotImplemented        0 count
00:22:37.444262 /IEM/CPU0/cbWritten               6221433 bytes
00:22:37.444267 /MM/HyperHeap/cbFree               798768 bytes
00:22:37.444286 /MM/HyperHeap/cbHeap              1048256 bytes
00:22:37.444291 /PDM/BlkCache/cbCached                  0 bytes
00:22:37.444295 /PDM/BlkCache/cbCachedFru               0 bytes
00:22:37.444299 /PDM/BlkCache/cbCachedMruIn             0 bytes
00:22:37.444303 /PDM/BlkCache/cbCachedMruOut            0 bytes
00:22:37.444331 /PDM/BlkCache/cbMax               5242880 bytes
00:22:37.444336 /PDM/CritSects/8237A#0Auto/ContentionR3        0 times
00:22:37.444339 /PDM/CritSects/8237A#0Auto/ContentionRZLock        0 times
00:22:37.444342 /PDM/CritSects/8237A#0Auto/ContentionRZUnlock        0 times
00:22:37.444346 /PDM/CritSects/ATA#0-Ctl/ContentionR3        0 times
00:22:37.444349 /PDM/CritSects/ATA#0-Ctl/ContentionRZLock      143 times
00:22:37.444353 /PDM/CritSects/ATA#0-Ctl/ContentionRZUnlock        0 times
00:22:37.444356 /PDM/CritSects/ATA#0-Req/ContentionR3        0 times
00:22:37.444359 /PDM/CritSects/ATA#0-Req/ContentionRZLock        0 times
00:22:37.444363 /PDM/CritSects/ATA#0-Req/ContentionRZUnlock        0 times
00:22:37.444366 /PDM/CritSects/ATA#1-Ctl/ContentionR3        0 times
00:22:37.444369 /PDM/CritSects/ATA#1-Ctl/ContentionRZLock        0 times
00:22:37.444373 /PDM/CritSects/ATA#1-Ctl/ContentionRZUnlock        0 times
00:22:37.444376 /PDM/CritSects/ATA#1-Req/ContentionR3        0 times
00:22:37.444379 /PDM/CritSects/ATA#1-Req/ContentionRZLock        0 times
00:22:37.444383 /PDM/CritSects/ATA#1-Req/ContentionRZUnlock        0 times
00:22:37.444400 /PDM/CritSects/FTM/ContentionR3         0 times
00:22:37.444404 /PDM/CritSects/FTM/ContentionRZLock        0 times
00:22:37.444408 /PDM/CritSects/FTM/ContentionRZUnlock        0 times
00:22:37.444411 /PDM/CritSects/MM-HYPER/ContentionR3        0 times
00:22:37.444414 /PDM/CritSects/MM-HYPER/ContentionRZLock        0 times
00:22:37.444418 /PDM/CritSects/MM-HYPER/ContentionRZUnlock        0 times
00:22:37.444421 /PDM/CritSects/NOP/ContentionR3         0 times
00:22:37.444425 /PDM/CritSects/NOP/ContentionRZLock        0 times
00:22:37.444428 /PDM/CritSects/NOP/ContentionRZUnlock        0 times
00:22:37.444431 /PDM/CritSects/OHCI#0Irq/ContentionR3        0 times
00:22:37.444435 /PDM/CritSects/OHCI#0Irq/ContentionRZLock        0 times
00:22:37.444438 /PDM/CritSects/OHCI#0Irq/ContentionRZUnlock        0 times
00:22:37.444442 /PDM/CritSects/PCNet#0/ContentionR3        0 times
00:22:37.444445 /PDM/CritSects/PCNet#0/ContentionRZLock     2206 times
00:22:37.444449 /PDM/CritSects/PCNet#0/ContentionRZUnlock        0 times
00:22:37.444452 /PDM/CritSects/PDM/ContentionR3         0 times
00:22:37.444456 /PDM/CritSects/PDM/ContentionRZLock        7 times
00:22:37.444459 /PDM/CritSects/PDM/ContentionRZUnlock        0 times
00:22:37.444474 /PDM/CritSects/PGM/ContentionR3         0 times
00:22:37.444478 /PDM/CritSects/PGM/ContentionRZLock     1425 times
00:22:37.444481 /PDM/CritSects/PGM/ContentionRZUnlock        0 times
00:22:37.444485 /PDM/CritSects/TM Timer Lock/ContentionR3       14 times
00:22:37.444502 /PDM/CritSects/TM Timer Lock/ContentionRZLock        0 times
00:22:37.444506 /PDM/CritSects/TM Timer Lock/ContentionRZUnlock        0 times
00:22:37.444523 /PDM/CritSects/TM VirtualSync Lock/ContentionR3        0 times
00:22:37.444527 /PDM/CritSects/TM VirtualSync Lock/ContentionRZLock        0 times
00:22:37.444531 /PDM/CritSects/TM VirtualSync Lock/ContentionRZUnlock        0 times
00:22:37.444534 /PDM/CritSects/VGA#0/ContentionR3        0 times
00:22:37.444538 /PDM/CritSects/VGA#0/ContentionRZLock        0 times
00:22:37.444547 /PDM/CritSects/VGA#0/ContentionRZUnlock        0 times
00:22:37.444551 /PDM/CritSects/VGA#0_IRQ/ContentionR3        0 times
00:22:37.444555 /PDM/CritSects/VGA#0_IRQ/ContentionRZLock        0 times
00:22:37.444558 /PDM/CritSects/VGA#0_IRQ/ContentionRZUnlock        0 times
00:22:37.444562 /PDM/CritSects/VMMDev#0/ContentionR3        0 times
00:22:37.444565 /PDM/CritSects/VMMDev#0/ContentionRZLock        0 times
00:22:37.444568 /PDM/CritSects/VMMDev#0/ContentionRZUnlock        0 times
00:22:37.444572 /PDM/CritSects/acpi#0/ContentionR3        0 times
00:22:37.444575 /PDM/CritSects/acpi#0/ContentionRZLock        0 times
00:22:37.444578 /PDM/CritSects/acpi#0/ContentionRZUnlock        0 times
00:22:37.444582 /PDM/CritSects/ichac97#0Auto/ContentionR3        0 times
00:22:37.444585 /PDM/CritSects/ichac97#0Auto/ContentionRZLock        0 times
00:22:37.444589 /PDM/CritSects/ichac97#0Auto/ContentionRZUnlock        0 times
00:22:37.444592 /PDM/CritSects/mc146818#0Auto/ContentionR3        0 times
00:22:37.444595 /PDM/CritSects/mc146818#0Auto/ContentionRZLock        0 times
00:22:37.444599 /PDM/CritSects/mc146818#0Auto/ContentionRZUnlock        0 times
00:22:37.444602 /PDM/CritSects/pcarch#0Auto/ContentionR3        0 times
00:22:37.444619 /PDM/CritSects/pcarch#0Auto/ContentionRZLock        0 times
00:22:37.444622 /PDM/CritSects/pcarch#0Auto/ContentionRZUnlock        0 times
00:22:37.444626 /PDM/CritSects/pcbios#0Auto/ContentionR3        0 times
00:22:37.444630 /PDM/CritSects/pcbios#0Auto/ContentionRZLock        0 times
00:22:37.444633 /PDM/CritSects/pcbios#0Auto/ContentionRZUnlock        0 times
00:22:37.444636 /PDM/CritSects/pckbd#0Auto/ContentionR3        0 times
00:22:37.444640 /PDM/CritSects/pckbd#0Auto/ContentionRZLock        0 times
00:22:37.444643 /PDM/CritSects/pckbd#0Auto/ContentionRZUnlock        0 times
00:22:37.444647 /PDM/CritSects/pit#0/ContentionR3        0 times
00:22:37.444650 /PDM/CritSects/pit#0/ContentionRZLock        0 times
00:22:37.444653 /PDM/CritSects/pit#0/ContentionRZUnlock        0 times
00:22:37.444657 /PDM/CritSects/usb-ohci#0Auto/ContentionR3        0 times
00:22:37.444660 /PDM/CritSects/usb-ohci#0Auto/ContentionRZLock        0 times
00:22:37.444664 /PDM/CritSects/usb-ohci#0Auto/ContentionRZUnlock        0 times
00:22:37.444667 /PDM/CritSectsRw/IOM Lock/ContentionR3EnterExcl        0 times
00:22:37.444670 /PDM/CritSectsRw/IOM Lock/ContentionR3EnterShared        0 times
00:22:37.444674 /PDM/CritSectsRw/IOM Lock/ContentionRZEnterExcl        0 times
00:22:37.444677 /PDM/CritSectsRw/IOM Lock/ContentionRZEnterShared        0 times
00:22:37.444680 /PDM/CritSectsRw/IOM Lock/ContentionRZLeaveExcl        0 times
00:22:37.444684 /PDM/CritSectsRw/IOM Lock/ContentionRZLeaveShared        0 times
00:22:37.444687 /PDM/CritSectsRw/IOM Lock/R3EnterExcl      496 times
00:22:37.444690 /PDM/CritSectsRw/IOM Lock/R3EnterShared   154319 times
00:22:37.444694 /PDM/CritSectsRw/IOM Lock/RZEnterExcl        0 times
00:22:37.444697 /PDM/CritSectsRw/IOM Lock/RZEnterShared  5918987 times
00:22:37.444701 /PDM/Queue/DevHlp/AllocFailures         0 times
00:22:37.444704 /PDM/Queue/DevHlp/Flush                 0 calls
00:22:37.444708 /PDM/Queue/DevHlp/FlushLeftovers        0 times
00:22:37.444711 /PDM/Queue/DevHlp/Insert                0 calls
00:22:37.444715 /PDM/Queue/DevHlp/cItems                8 count
00:22:37.444719 /PDM/Queue/DevHlp/cbItem               64 bytes
00:22:37.444732 /PDM/Queue/Keyboard/AllocFailures        0 times
00:22:37.444736 /PDM/Queue/Keyboard/Flush               0 calls
00:22:37.444740 /PDM/Queue/Keyboard/FlushLeftovers        0 times
00:22:37.444743 /PDM/Queue/Keyboard/Insert            240 calls
00:22:37.444747 /PDM/Queue/Keyboard/cItems             64 count
00:22:37.444751 /PDM/Queue/Keyboard/cbItem             32 bytes
00:22:37.444774 /PDM/Queue/Mouse/AllocFailures          0 times
00:22:37.444778 /PDM/Queue/Mouse/Flush                  0 calls
00:22:37.444795 /PDM/Queue/Mouse/FlushLeftovers         0 times
00:22:37.444810 /PDM/Queue/Mouse/Insert              4804 calls
00:22:37.444814 /PDM/Queue/Mouse/cItems               128 count
00:22:37.444824 /PDM/Queue/Mouse/cbItem                48 bytes
00:22:37.444828 /PDM/Queue/PCNet-Rcv/AllocFailures        0 times
00:22:37.444831 /PDM/Queue/PCNet-Rcv/Flush              0 calls
00:22:37.444835 /PDM/Queue/PCNet-Rcv/FlushLeftovers        0 times
00:22:37.444838 /PDM/Queue/PCNet-Rcv/Insert           213 calls
00:22:37.444842 /PDM/Queue/PCNet-Rcv/cItems             1 count
00:22:37.444845 /PDM/Queue/PCNet-Rcv/cbItem            24 bytes
00:22:37.444849 /PDM/Queue/PCNet-Xmit/AllocFailures     5289 times
00:22:37.444852 /PDM/Queue/PCNet-Xmit/Flush             0 calls
00:22:37.444856 /PDM/Queue/PCNet-Xmit/FlushLeftovers        0 times
00:22:37.444859 /PDM/Queue/PCNet-Xmit/Insert        12817 calls
00:22:37.444862 /PDM/Queue/PCNet-Xmit/cItems            1 count
00:22:37.444866 /PDM/Queue/PCNet-Xmit/cbItem           24 bytes
00:22:37.444875 /PGM/CPU0/cA20Changes                   2 times
00:22:37.444879 /PGM/CPU0/cGuestModeChanges         50504 times
00:22:37.444883 /PGM/ChunkR3Map/Mapped               1024 count
00:22:37.444886 /PGM/ChunkR3Map/Unmapped                0 count
00:22:37.444890 /PGM/ChunkR3Map/c                    1024 count
00:22:37.444894 /PGM/ChunkR3Map/cMax             4294967295 count
00:22:37.444898 /PGM/LargePage/Recheck                  0 times
00:22:37.444903 /PGM/LargePage/Refused                  2 times
00:22:37.444907 /PGM/LargePage/Reused                   0 times
00:22:37.444912 /PGM/Page/cAllPages                526886 count
00:22:37.444931 /PGM/Page/cBalloonedPages               0 count
00:22:37.444948 /PGM/Page/cHandyPages                  88 count
00:22:37.444952 /PGM/Page/cLargePages                   0 count
00:22:37.444956 /PGM/Page/cLargePagesDisabled           0 count
00:22:37.444959 /PGM/Page/cMonitoredPages               0 count
00:22:37.444963 /PGM/Page/cPrivatePages            526338 count
00:22:37.444967 /PGM/Page/cPureMmioPages                4 count
00:22:37.444970 /PGM/Page/cReadLockedPages              0 count
00:22:37.444974 /PGM/Page/cReusedSharedPages            0 count
00:22:37.444977 /PGM/Page/cSharedPages                  0 count
00:22:37.444981 /PGM/Page/cWriteLockedPages             0 count
00:22:37.444984 /PGM/Page/cWrittenToPages               0 count
00:22:37.444988 /PGM/Page/cZeroPages                  544 count
00:22:37.444992 /PGM/ShMod/Check                        0 ticks/call (           0 ticks,       0 times, max         0, min      -1)
00:22:37.444997 /PGM/cRelocations                       0 times
00:22:37.445002 /PROF/CPU0/EM/Capped                    0 ticks/call (           0 ticks,       0 times, max         0, min      -1)
00:22:37.445007 /PROF/CPU0/EM/ForcedActions       1020996 times
00:22:37.445011 /PROF/CPU0/EM/Halted                26198 times
00:22:37.445015 /PROF/CPU0/EM/RAWTotal                  0 times
00:22:37.445018 /PROF/CPU0/EM/REMTotal                  0 times
00:22:37.445022 /PROF/CPU0/EM/Total              544987203011 ticks/call (2179948812047 ticks,       4 times, max 909201404229, min 30979095245)
00:22:37.445040 /PROF/CPU0/VM/Halt/Block          1405419 ns/call (357673731244 ticks,  254496 times, max  99836614, min       1)
00:22:37.445046 /PROF/CPU0/VM/Halt/BlockInsomnia        0 ns/call (           0 ticks,       0 times, max         0, min      -1)
00:22:37.445051 /PROF/CPU0/VM/Halt/BlockOnTime          0 ns/call (           0 ticks,       0 times, max         0, min      -1)
00:22:37.445055 /PROF/CPU0/VM/Halt/BlockOverslept        0 ns/call (           0 ticks,       0 times, max         0, min      -1)
00:22:37.445059 /PROF/CPU0/VM/Halt/Timers           23285 ns/call (  6597036167 ticks,  283315 times, max 211958821, min       2)
00:22:37.445079 /PROF/CPU0/VM/Halt/Yield            10210 ns/call (      255257 ticks,      25 times, max     33215, min    4653)
00:22:37.445085 /Public/Net/PCNet0/BytesReceived 35792732 bytes
00:22:37.445089 /Public/Net/PCNet0/BytesTransmitted  1404480 bytes
00:22:37.445093 /SELM/LoadHidSel/GstReadErrors          0 times
00:22:37.445096 /SELM/LoadHidSel/NoGoodGuest            0 times
00:22:37.445114 /TM/CPU/00/cNsExecuting          525691024835 ns
00:22:37.445119 /TM/CPU/00/cNsHalted             364933861595 ns
00:22:37.445139 /TM/CPU/00/cNsOther              256731368104 ns
00:22:37.445144 /TM/CPU/00/cNsTotal              1147356254534 ns
00:22:37.445148 /TM/CPU/00/cPeriodsExecuting     18978924 count
00:22:37.445166 /TM/CPU/00/cPeriodsHalted           26152 count
00:22:37.445170 /TM/CPU/00/pctExecuting                10 %
00:22:37.445174 /TM/CPU/00/pctHalted                   82 %
00:22:37.445196 /TM/CPU/00/pctOther                     7 %
00:22:37.445201 /TM/CPU/pctExecuting                   10 %
00:22:37.445205 /TM/CPU/pctHalted                      82 %
00:22:37.445208 /TM/CPU/pctOther                        7 %
00:22:37.445212 /TM/MaxHzHint                           0 Hz
00:22:37.445234 /TM/R0/1nsSteps                    242695 times
00:22:37.445241 /TM/R3/1nsSteps                    198079 times
00:22:37.445279 /TM/TSC/offCPU0                  18446744073709237098 ticks
00:22:37.445287 /TM/VirtualSync/CurrentOffset           0 ns
00:22:37.445293 /VUSB/0/cUrbsInPool                     0 count
00:22:37.445301 ********************* End of statistics **********************
00:22:38.523387 NAT: Zone(nm:mbuf_cluster, used:0)
00:22:38.524306 NAT: Zone(nm:mbuf_packet, used:0)
00:22:38.524352 NAT: Zone(nm:mbuf, used:1)
00:22:38.538020 NAT: Zone(nm:mbuf_jumbo_pagesize, used:0)
00:22:38.538549 NAT: Zone(nm:mbuf_jumbo_9k, used:0)
00:22:38.538838 NAT: Zone(nm:mbuf_jumbo_16k, used:0)
00:22:38.538998 NAT: Zone(nm:mbuf_ext_refcnt, used:0)
00:22:38.896610 Changing the VM state from 'DESTROYING' to 'TERMINATED'
00:22:39.158207 Console: Machine state changed to 'Saved'
00:22:39.877019 GUI: UIMachineView::sltHandleNotifyChange: Screen=0, Size=1024x768
00:22:40.372764 GUI: Passing request to close Runtime UI from machine-logic to UI session.
00:22:40.420511 GUI: UIMediumEnumerator: Medium-enumeration finished!
