VirtualBox VM 5.1.22 r115126 darwin.amd64 (Apr 28 2017 17:26:14) release log
00:00:01.634979 Log opened 2017-11-05T17:43:27.126720000Z
00:00:01.634980 Build Type: release
00:00:01.634999 OS Product: Darwin
00:00:01.635008 OS Release: 16.0.0
00:00:01.635017 OS Version: Darwin Kernel Version 16.0.0: Mon Aug 29 17:56:20 PDT 2016; root:xnu-3789.1.32~3/RELEASE_X86_64
00:00:01.635164 DMI Product Name: MacBookAir6,2
00:00:01.635256 DMI Product Version: 1.0
00:00:01.635270 Host RAM: 4096MB (4.0GB) total, 910MB available
00:00:01.635275 Executable: /Applications/VirtualBox.app/Contents/MacOS/VirtualBoxVM
00:00:01.635276 Process ID: 85800
00:00:01.635278 Package type: DARWIN_64BITS_GENERIC
00:00:01.640645 Installed Extension Packs:
00:00:01.640666   None installed!
00:00:01.642605 Console: Machine state changed to 'Starting'
00:00:01.643027 Qt version: 5.6.2
00:00:01.667839 SUP: Loaded VMMR0.r0 (/Applications/VirtualBox.app/Contents/MacOS/VMMR0.r0) at 0xXXXXXXXXXXXXXXXX - ModuleInit at XXXXXXXXXXXXXXXX and ModuleTerm at XXXXXXXXXXXXXXXX
00:00:01.667862 SUP: VMMR0EntryEx located at XXXXXXXXXXXXXXXX and VMMR0EntryFast at XXXXXXXXXXXXXXXX
00:00:01.673966 Guest OS type: 'Other_64'
00:00:01.690546 fHMForced=true - No raw-mode support in this build!
00:00:01.694858 GUI: UIMediumEnumerator: Medium-enumeration finished!
00:00:01.717278 File system of '/Users/amin/VirtualBox VMs/osand/Snapshots' (snapshots) is unknown
00:00:01.717292 File system of '/Users/amin/VirtualBox VMs/osand/osand.vdi' is hfs
00:00:01.723785 File system of '/Users/amin/Downloads/android-x86_64-7.1-rc2.iso' (DVD) is hfs
00:00:01.771425 Shared clipboard service loaded
00:00:01.771903 Shared clipboard mode: Off
00:00:01.789076 Drag and drop service loaded
00:00:01.789093 Drag and drop mode: Off
00:00:01.838315 Guest Control service loaded
00:00:01.844179 ************************* CFGM dump *************************
00:00:01.844232 [/] (level 0)
00:00:01.844257   CpuExecutionCap   <integer> = 0x0000000000000064 (100)
00:00:01.844265   EnablePAE         <integer> = 0x0000000000000001 (1)
00:00:01.844268   HMEnabled         <integer> = 0x0000000000000001 (1)
00:00:01.844269   MemBalloonSize    <integer> = 0x0000000000000000 (0)
00:00:01.844271   Name              <string>  = "osand" (cb=6)
00:00:01.844274   NumCPUs           <integer> = 0x0000000000000001 (1)
00:00:01.844275   PageFusionAllowed <integer> = 0x0000000000000000 (0)
00:00:01.844277   RamHoleSize       <integer> = 0x0000000020000000 (536 870 912, 512 MB)
00:00:01.844280   RamSize           <integer> = 0x0000000004000000 (67 108 864, 64 MB)
00:00:01.844283   TimerMillies      <integer> = 0x000000000000000a (10)
00:00:01.844285   UUID              <bytes>   = "c7 f3 63 80 b3 e6 42 41 90 b5 09 82 13 f4 5c fe" (cb=16)
00:00:01.844292 
00:00:01.844293 [/CPUM/] (level 1)
00:00:01.844296   GuestCpuName       <string>  = "host" (cb=5)
00:00:01.844298   PortableCpuIdLevel <integer> = 0x0000000000000000 (0)
00:00:01.844300 
00:00:01.844300 [/DBGC/] (level 1)
00:00:01.844303   GlobalInitScript <string>  = "/Users/amin/Library/VirtualBox/dbgc-init" (cb=41)
00:00:01.844305   HistoryFile      <string>  = "/Users/amin/Library/VirtualBox/dbgc-history" (cb=44)
00:00:01.844306   LocalInitScript  <string>  = "/Users/amin/VirtualBox VMs/osand/dbgc-init" (cb=43)
00:00:01.844308 
00:00:01.844309 [/DBGF/] (level 1)
00:00:01.844311   Path <string>  = "/Users/amin/VirtualBox VMs/osand/debug/;/Users/amin/VirtualBox VMs/osand/;/Users/amin/" (cb=87)
00:00:01.844312 
00:00:01.844313 [/Devices/] (level 1)
00:00:01.844315 
00:00:01.844316 [/Devices/8237A/] (level 2)
00:00:01.844318 
00:00:01.844319 [/Devices/8237A/0/] (level 3)
00:00:01.844321   Trusted <integer> = 0x0000000000000001 (1)
00:00:01.844323 
00:00:01.844324 [/Devices/VMMDev/] (level 2)
00:00:01.844327 
00:00:01.844327 [/Devices/VMMDev/0/] (level 3)
00:00:01.844330   PCIBusNo      <integer> = 0x0000000000000000 (0)
00:00:01.844332   PCIDeviceNo   <integer> = 0x0000000000000004 (4)
00:00:01.844334   PCIFunctionNo <integer> = 0x0000000000000000 (0)
00:00:01.844335   Trusted       <integer> = 0x0000000000000001 (1)
00:00:01.844337 
00:00:01.844338 [/Devices/VMMDev/0/Config/] (level 4)
00:00:01.844341   GuestCoreDumpDir <string>  = "/Users/amin/VirtualBox VMs/osand/Snapshots" (cb=43)
00:00:01.844342 
00:00:01.844343 [/Devices/VMMDev/0/LUN#0/] (level 4)
00:00:01.844346   Driver <string>  = "HGCM" (cb=5)
00:00:01.844347 
00:00:01.844348 [/Devices/VMMDev/0/LUN#0/Config/] (level 5)
00:00:01.844351   Object <integer> = 0x00007fd5f5c73570 (140 556 928 234 864)
00:00:01.844354 
00:00:01.844355 [/Devices/VMMDev/0/LUN#999/] (level 4)
00:00:01.844357   Driver <string>  = "MainStatus" (cb=11)
00:00:01.844359 
00:00:01.844360 [/Devices/VMMDev/0/LUN#999/Config/] (level 5)
00:00:01.844363   First   <integer> = 0x0000000000000000 (0)
00:00:01.844364   Last    <integer> = 0x0000000000000000 (0)
00:00:01.844366   papLeds <integer> = 0x00007fd5f7090da0 (140 556 949 327 264)
00:00:01.844368 
00:00:01.844369 [/Devices/acpi/] (level 2)
00:00:01.844371 
00:00:01.844371 [/Devices/acpi/0/] (level 3)
00:00:01.844373   PCIBusNo      <integer> = 0x0000000000000000 (0)
00:00:01.844375   PCIDeviceNo   <integer> = 0x0000000000000007 (7)
00:00:01.844376   PCIFunctionNo <integer> = 0x0000000000000000 (0)
00:00:01.844377   Trusted       <integer> = 0x0000000000000001 (1)
00:00:01.844379 
00:00:01.844380 [/Devices/acpi/0/Config/] (level 4)
00:00:01.844383   CpuHotPlug          <integer> = 0x0000000000000000 (0)
00:00:01.844385   FdcEnabled          <integer> = 0x0000000000000000 (0)
00:00:01.844386   HostBusPciAddress   <integer> = 0x0000000000000000 (0)
00:00:01.844387   HpetEnabled         <integer> = 0x0000000000000000 (0)
00:00:01.844389   IOAPIC              <integer> = 0x0000000000000001 (1)
00:00:01.844390   IocPciAddress       <integer> = 0x0000000000010000 (65 536)
00:00:01.844392   NumCPUs             <integer> = 0x0000000000000001 (1)
00:00:01.844394   Parallel0IoPortBase <integer> = 0x0000000000000000 (0)
00:00:01.844395   Parallel0Irq        <integer> = 0x0000000000000000 (0)
00:00:01.844396   Parallel1IoPortBase <integer> = 0x0000000000000000 (0)
00:00:01.844398   Parallel1Irq        <integer> = 0x0000000000000000 (0)
00:00:01.844399   Serial0IoPortBase   <integer> = 0x0000000000000000 (0)
00:00:01.844400   Serial0Irq          <integer> = 0x0000000000000000 (0)
00:00:01.844402   Serial1IoPortBase   <integer> = 0x0000000000000000 (0)
00:00:01.844403   Serial1Irq          <integer> = 0x0000000000000000 (0)
00:00:01.844405   ShowCpu             <integer> = 0x0000000000000001 (1)
00:00:01.844407   ShowRtc             <integer> = 0x0000000000000000 (0)
00:00:01.844408   SmcEnabled          <integer> = 0x0000000000000000 (0)
00:00:01.844410 
00:00:01.844410 [/Devices/acpi/0/LUN#0/] (level 4)
00:00:01.844413   Driver <string>  = "ACPIHost" (cb=9)
00:00:01.844414 
00:00:01.844415 [/Devices/acpi/0/LUN#0/Config/] (level 5)
00:00:01.844417 
00:00:01.844418 [/Devices/apic/] (level 2)
00:00:01.844420 
00:00:01.844421 [/Devices/apic/0/] (level 3)
00:00:01.844423   Trusted <integer> = 0x0000000000000001 (1)
00:00:01.844424 
00:00:01.844424 [/Devices/apic/0/Config/] (level 4)
00:00:01.844427   IOAPIC  <integer> = 0x0000000000000001 (1)
00:00:01.844428   Mode    <integer> = 0x0000000000000002 (2)
00:00:01.844429   NumCPUs <integer> = 0x0000000000000001 (1)
00:00:01.844431 
00:00:01.844431 [/Devices/e1000/] (level 2)
00:00:01.844433 
00:00:01.844434 [/Devices/i8254/] (level 2)
00:00:01.844435 
00:00:01.844436 [/Devices/i8254/0/] (level 3)
00:00:01.844438 
00:00:01.844439 [/Devices/i8254/0/Config/] (level 4)
00:00:01.844441 
00:00:01.844442 [/Devices/i8259/] (level 2)
00:00:01.844444 
00:00:01.844444 [/Devices/i8259/0/] (level 3)
00:00:01.844446   Trusted <integer> = 0x0000000000000001 (1)
00:00:01.844448 
00:00:01.844448 [/Devices/i8259/0/Config/] (level 4)
00:00:01.844450 
00:00:01.844451 [/Devices/ichac97/] (level 2)
00:00:01.844453 
00:00:01.844454 [/Devices/ichac97/0/] (level 3)
00:00:01.844456   PCIBusNo      <integer> = 0x0000000000000000 (0)
00:00:01.844458   PCIDeviceNo   <integer> = 0x0000000000000005 (5)
00:00:01.844459   PCIFunctionNo <integer> = 0x0000000000000000 (0)
00:00:01.844460   Trusted       <integer> = 0x0000000000000001 (1)
00:00:01.844462 
00:00:01.844462 [/Devices/ichac97/0/AudioConfig/] (level 4)
00:00:01.844465 
00:00:01.844466 [/Devices/ichac97/0/Config/] (level 4)
00:00:01.844468   Codec <string>  = "STAC9700" (cb=9)
00:00:01.844470 
00:00:01.844471 [/Devices/ichac97/0/LUN#0/] (level 4)
00:00:01.844473   Driver <string>  = "AUDIO" (cb=6)
00:00:01.844475 
00:00:01.844475 [/Devices/ichac97/0/LUN#0/AttachedDriver/] (level 5)
00:00:01.844478   Driver <string>  = "CoreAudio" (cb=10)
00:00:01.844479 
00:00:01.844480 [/Devices/ichac97/0/LUN#0/AttachedDriver/Config/] (level 6)
00:00:01.844483   StreamName <string>  = "osand" (cb=6)
00:00:01.844484 
00:00:01.844485 [/Devices/ichac97/0/LUN#0/Config/] (level 5)
00:00:01.844487 
00:00:01.844488 [/Devices/ichac97/0/LUN#1/] (level 4)
00:00:01.844490   Driver <string>  = "AUDIO" (cb=6)
00:00:01.844491 
00:00:01.844492 [/Devices/ichac97/0/LUN#1/AttachedDriver/] (level 5)
00:00:01.844494   Driver <string>  = "AudioVRDE" (cb=10)
00:00:01.844495 
00:00:01.844496 [/Devices/ichac97/0/LUN#1/AttachedDriver/Config/] (level 6)
00:00:01.844499   AudioDriver      <string>  = "AudioVRDE" (cb=10)
00:00:01.844501   Object           <integer> = 0x00007fd5f5e1da80 (140 556 929 981 056)
00:00:01.844503   ObjectVRDPServer <integer> = 0x00007fd5f79aca00 (140 556 958 878 208)
00:00:01.844505   StreamName       <string>  = "osand" (cb=6)
00:00:01.844507 
00:00:01.844508 [/Devices/ioapic/] (level 2)
00:00:01.844510 
00:00:01.844511 [/Devices/ioapic/0/] (level 3)
00:00:01.844513   Trusted <integer> = 0x0000000000000001 (1)
00:00:01.844514 
00:00:01.844515 [/Devices/ioapic/0/Config/] (level 4)
00:00:01.844517   NumCPUs <integer> = 0x0000000000000001 (1)
00:00:01.844519 
00:00:01.844519 [/Devices/mc146818/] (level 2)
00:00:01.844521 
00:00:01.844521 [/Devices/mc146818/0/] (level 3)
00:00:01.844523 
00:00:01.844524 [/Devices/mc146818/0/Config/] (level 4)
00:00:01.844526   UseUTC <integer> = 0x0000000000000000 (0)
00:00:01.844527 
00:00:01.844528 [/Devices/parallel/] (level 2)
00:00:01.844530 
00:00:01.844530 [/Devices/pcarch/] (level 2)
00:00:01.844532 
00:00:01.844532 [/Devices/pcarch/0/] (level 3)
00:00:01.844534   Trusted <integer> = 0x0000000000000001 (1)
00:00:01.844535 
00:00:01.844536 [/Devices/pcarch/0/Config/] (level 4)
00:00:01.844538 
00:00:01.844539 [/Devices/pcbios/] (level 2)
00:00:01.844541 
00:00:01.844541 [/Devices/pcbios/0/] (level 3)
00:00:01.844543   Trusted <integer> = 0x0000000000000001 (1)
00:00:01.844545 
00:00:01.844545 [/Devices/pcbios/0/Config/] (level 4)
00:00:01.844549   APIC           <integer> = 0x0000000000000001 (1)
00:00:01.844550   BootDevice0    <string>  = "FLOPPY" (cb=7)
00:00:01.844552   BootDevice1    <string>  = "DVD" (cb=4)
00:00:01.844553   BootDevice2    <string>  = "IDE" (cb=4)
00:00:01.844555   BootDevice3    <string>  = "NONE" (cb=5)
00:00:01.844556   FloppyDevice   <string>  = "i82078" (cb=7)
00:00:01.844558   HardDiskDevice <string>  = "piix3ide" (cb=9)
00:00:01.844559   IOAPIC         <integer> = 0x0000000000000001 (1)
00:00:01.844561   McfgBase       <integer> = 0x0000000000000000 (0)
00:00:01.844562   McfgLength     <integer> = 0x0000000000000000 (0)
00:00:01.844564   NumCPUs        <integer> = 0x0000000000000001 (1)
00:00:01.844566   PXEDebug       <integer> = 0x0000000000000000 (0)
00:00:01.844567   UUID           <bytes>   = "c7 f3 63 80 b3 e6 42 41 90 b5 09 82 13 f4 5c fe" (cb=16)
00:00:01.844574 
00:00:01.844574 [/Devices/pcbios/0/Config/NetBoot/] (level 5)
00:00:01.844577 
00:00:01.844578 [/Devices/pcbios/0/Config/NetBoot/0/] (level 6)
00:00:01.844581   NIC           <integer> = 0x0000000000000000 (0)
00:00:01.844582   PCIBusNo      <integer> = 0x0000000000000000 (0)
00:00:01.844584   PCIDeviceNo   <integer> = 0x0000000000000003 (3)
00:00:01.844586   PCIFunctionNo <integer> = 0x0000000000000000 (0)
00:00:01.844587 
00:00:01.844587 [/Devices/pci/] (level 2)
00:00:01.844589 
00:00:01.844590 [/Devices/pci/0/] (level 3)
00:00:01.844592   Trusted <integer> = 0x0000000000000001 (1)
00:00:01.844593 
00:00:01.844594 [/Devices/pci/0/Config/] (level 4)
00:00:01.844596   IOAPIC <integer> = 0x0000000000000001 (1)
00:00:01.844597 
00:00:01.844598 [/Devices/pckbd/] (level 2)
00:00:01.844600 
00:00:01.844600 [/Devices/pckbd/0/] (level 3)
00:00:01.844603   Trusted <integer> = 0x0000000000000001 (1)
00:00:01.844604 
00:00:01.844605 [/Devices/pckbd/0/Config/] (level 4)
00:00:01.844607 
00:00:01.844607 [/Devices/pckbd/0/LUN#0/] (level 4)
00:00:01.844610   Driver <string>  = "KeyboardQueue" (cb=14)
00:00:01.844611 
00:00:01.844612 [/Devices/pckbd/0/LUN#0/AttachedDriver/] (level 5)
00:00:01.844614   Driver <string>  = "MainKeyboard" (cb=13)
00:00:01.844615 
00:00:01.844616 [/Devices/pckbd/0/LUN#0/AttachedDriver/Config/] (level 6)
00:00:01.844619   Object <integer> = 0x00007fd5f5d762b0 (140 556 929 295 024)
00:00:01.844621 
00:00:01.844621 [/Devices/pckbd/0/LUN#0/Config/] (level 5)
00:00:01.844624   QueueSize <integer> = 0x0000000000000040 (64)
00:00:01.844625 
00:00:01.844626 [/Devices/pckbd/0/LUN#1/] (level 4)
00:00:01.844628   Driver <string>  = "MouseQueue" (cb=11)
00:00:01.844630 
00:00:01.844631 [/Devices/pckbd/0/LUN#1/AttachedDriver/] (level 5)
00:00:01.844634   Driver <string>  = "MainMouse" (cb=10)
00:00:01.844635 
00:00:01.844635 [/Devices/pckbd/0/LUN#1/AttachedDriver/Config/] (level 6)
00:00:01.844638   Object <integer> = 0x00007fd5f8425a50 (140 556 969 859 664)
00:00:01.844641 
00:00:01.844641 [/Devices/pckbd/0/LUN#1/Config/] (level 5)
00:00:01.844644   QueueSize <integer> = 0x0000000000000080 (128)
00:00:01.844645 
00:00:01.844646 [/Devices/pcnet/] (level 2)
00:00:01.844648 
00:00:01.844649 [/Devices/pcnet/0/] (level 3)
00:00:01.844651   PCIBusNo      <integer> = 0x0000000000000000 (0)
00:00:01.844653   PCIDeviceNo   <integer> = 0x0000000000000003 (3)
00:00:01.844654   PCIFunctionNo <integer> = 0x0000000000000000 (0)
00:00:01.844655   Trusted       <integer> = 0x0000000000000001 (1)
00:00:01.844657 
00:00:01.844657 [/Devices/pcnet/0/Config/] (level 4)
00:00:01.844660   Am79C973       <integer> = 0x0000000000000001 (1)
00:00:01.844661   CableConnected <integer> = 0x0000000000000001 (1)
00:00:01.844662   LineSpeed      <integer> = 0x0000000000000000 (0)
00:00:01.844664   MAC            <bytes>   = "08 00 27 d7 f9 99" (cb=6)
00:00:01.844667 
00:00:01.844668 [/Devices/pcnet/0/LUN#0/] (level 4)
00:00:01.844670   Driver <string>  = "NAT" (cb=4)
00:00:01.844672 
00:00:01.844672 [/Devices/pcnet/0/LUN#0/Config/] (level 5)
00:00:01.844676   AliasMode       <integer> = 0x0000000000000000 (0)
00:00:01.844677   BootFile        <string>  = "osand.pxe" (cb=10)
00:00:01.844679   DNSProxy        <integer> = 0x0000000000000000 (0)
00:00:01.844680   Network         <string>  = "10.0.2.0/24" (cb=12)
00:00:01.844682   PassDomain      <integer> = 0x0000000000000001 (1)
00:00:01.844684   TFTPPrefix      <string>  = "/Users/amin/Library/VirtualBox/TFTP" (cb=36)
00:00:01.844686   UseHostResolver <integer> = 0x0000000000000000 (0)
00:00:01.844688 
00:00:01.844688 [/Devices/pcnet/0/LUN#999/] (level 4)
00:00:01.844691   Driver <string>  = "MainStatus" (cb=11)
00:00:01.844692 
00:00:01.844693 [/Devices/pcnet/0/LUN#999/Config/] (level 5)
00:00:01.844696   First   <integer> = 0x0000000000000000 (0)
00:00:01.844697   Last    <integer> = 0x0000000000000000 (0)
00:00:01.844699   papLeds <integer> = 0x00007fd5f7090c80 (140 556 949 326 976)
00:00:01.844701 
00:00:01.844702 [/Devices/piix3ide/] (level 2)
00:00:01.844703 
00:00:01.844704 [/Devices/piix3ide/0/] (level 3)
00:00:01.844706   PCIBusNo      <integer> = 0x0000000000000000 (0)
00:00:01.844708   PCIDeviceNo   <integer> = 0x0000000000000001 (1)
00:00:01.844709   PCIFunctionNo <integer> = 0x0000000000000001 (1)
00:00:01.844710   Trusted       <integer> = 0x0000000000000001 (1)
00:00:01.844712 
00:00:01.844713 [/Devices/piix3ide/0/Config/] (level 4)
00:00:01.844715   Type <string>  = "PIIX4" (cb=6)
00:00:01.844716 
00:00:01.844717 [/Devices/piix3ide/0/Config/PrimaryMaster/] (level 5)
00:00:01.844720   NonRotationalMedium <integer> = 0x0000000000000000 (0)
00:00:01.844721 
00:00:01.844722 [/Devices/piix3ide/0/Config/PrimarySlave/] (level 5)
00:00:01.844725   NonRotationalMedium <integer> = 0x0000000000000000 (0)
00:00:01.844727 
00:00:01.844727 [/Devices/piix3ide/0/LUN#0/] (level 4)
00:00:01.844730   Driver <string>  = "VD" (cb=3)
00:00:01.844731 
00:00:01.844732 [/Devices/piix3ide/0/LUN#0/Config/] (level 5)
00:00:01.844735   Format    <string>  = "VDI" (cb=4)
00:00:01.844737   Mountable <integer> = 0x0000000000000000 (0)
00:00:01.844738   Path      <string>  = "/Users/amin/VirtualBox VMs/osand/osand.vdi" (cb=43)
00:00:01.844740   Type      <string>  = "HardDisk" (cb=9)
00:00:01.844741 
00:00:01.844742 [/Devices/piix3ide/0/LUN#1/] (level 4)
00:00:01.844745   Driver <string>  = "VD" (cb=3)
00:00:01.844746 
00:00:01.844747 [/Devices/piix3ide/0/LUN#1/Config/] (level 5)
00:00:01.844750   Format    <string>  = "RAW" (cb=4)
00:00:01.844752   Mountable <integer> = 0x0000000000000001 (1)
00:00:01.844753   Path      <string>  = "/Users/amin/Downloads/android-x86_64-7.1-rc2.iso" (cb=49)
00:00:01.844755   ReadOnly  <integer> = 0x0000000000000001 (1)
00:00:01.844756   Type      <string>  = "DVD" (cb=4)
00:00:01.844758 
00:00:01.844758 [/Devices/piix3ide/0/LUN#999/] (level 4)
00:00:01.844761   Driver <string>  = "MainStatus" (cb=11)
00:00:01.844762 
00:00:01.844763 [/Devices/piix3ide/0/LUN#999/Config/] (level 5)
00:00:01.844766   DeviceInstance        <string>  = "piix3ide/0" (cb=11)
00:00:01.844768   First                 <integer> = 0x0000000000000000 (0)
00:00:01.844770   Last                  <integer> = 0x0000000000000003 (3)
00:00:01.844772   pConsole              <integer> = 0x00007fd5f7090600 (140 556 949 325 312)
00:00:01.844775   papLeds               <integer> = 0x00007fd5f7090980 (140 556 949 326 208)
00:00:01.844777   pmapMediumAttachments <integer> = 0x00007fd5f7090dc0 (140 556 949 327 296)
00:00:01.844780 
00:00:01.844781 [/Devices/serial/] (level 2)
00:00:01.844783 
00:00:01.844783 [/Devices/usb-ohci/] (level 2)
00:00:01.844785 
00:00:01.844786 [/Devices/usb-ohci/0/] (level 3)
00:00:01.844788   PCIBusNo      <integer> = 0x0000000000000000 (0)
00:00:01.844790   PCIDeviceNo   <integer> = 0x0000000000000006 (6)
00:00:01.844791   PCIFunctionNo <integer> = 0x0000000000000000 (0)
00:00:01.844792   Trusted       <integer> = 0x0000000000000001 (1)
00:00:01.844794 
00:00:01.844795 [/Devices/usb-ohci/0/Config/] (level 4)
00:00:01.844797 
00:00:01.844798 [/Devices/usb-ohci/0/LUN#0/] (level 4)
00:00:01.844800   Driver <string>  = "VUSBRootHub" (cb=12)
00:00:01.844802 
00:00:01.844802 [/Devices/usb-ohci/0/LUN#0/Config/] (level 5)
00:00:01.844805 
00:00:01.844805 [/Devices/usb-ohci/0/LUN#999/] (level 4)
00:00:01.844808   Driver <string>  = "MainStatus" (cb=11)
00:00:01.844809 
00:00:01.844810 [/Devices/usb-ohci/0/LUN#999/Config/] (level 5)
00:00:01.844812   First   <integer> = 0x0000000000000000 (0)
00:00:01.844814   Last    <integer> = 0x0000000000000000 (0)
00:00:01.844815   papLeds <integer> = 0x00007fd5f7090da8 (140 556 949 327 272)
00:00:01.844817 
00:00:01.844818 [/Devices/vga/] (level 2)
00:00:01.844819 
00:00:01.844820 [/Devices/vga/0/] (level 3)
00:00:01.844822   PCIBusNo      <integer> = 0x0000000000000000 (0)
00:00:01.844824   PCIDeviceNo   <integer> = 0x0000000000000002 (2)
00:00:01.844825   PCIFunctionNo <integer> = 0x0000000000000000 (0)
00:00:01.844827   Trusted       <integer> = 0x0000000000000001 (1)
00:00:01.844828 
00:00:01.844829 [/Devices/vga/0/Config/] (level 4)
00:00:01.844832   CustomVideoModes <integer> = 0x0000000000000000 (0)
00:00:01.844833   FadeIn           <integer> = 0x0000000000000001 (1)
00:00:01.844835   FadeOut          <integer> = 0x0000000000000001 (1)
00:00:01.844836   HeightReduction  <integer> = 0x0000000000000000 (0)
00:00:01.844837   LogoFile         <string>  = "" (cb=1)
00:00:01.844839   LogoTime         <integer> = 0x0000000000000000 (0)
00:00:01.844841   MonitorCount     <integer> = 0x0000000000000001 (1)
00:00:01.844843   ShowBootMenu     <integer> = 0x0000000000000002 (2)
00:00:01.844844   VRamSize         <integer> = 0x0000000000600000 (6 291 456, 6 MB)
00:00:01.844847 
00:00:01.844848 [/Devices/vga/0/LUN#0/] (level 4)
00:00:01.844850   Driver <string>  = "MainDisplay" (cb=12)
00:00:01.844852 
00:00:01.844852 [/Devices/vga/0/LUN#0/Config/] (level 5)
00:00:01.844855   Object <integer> = 0x00007fd5f79a9800 (140 556 958 865 408)
00:00:01.844857 
00:00:01.844858 [/Devices/vga/0/LUN#999/] (level 4)
00:00:01.844860   Driver <string>  = "MainStatus" (cb=11)
00:00:01.844862 
00:00:01.844862 [/Devices/vga/0/LUN#999/Config/] (level 5)
00:00:01.844865   First   <integer> = 0x0000000000000000 (0)
00:00:01.844867   Last    <integer> = 0x0000000000000000 (0)
00:00:01.844868   papLeds <integer> = 0x00007fd5f7090db8 (140 556 949 327 288)
00:00:01.844870 
00:00:01.844871 [/Devices/virtio-net/] (level 2)
00:00:01.844873 
00:00:01.844874 [/EM/] (level 1)
00:00:01.844875   TripleFaultReset <integer> = 0x0000000000000000 (0)
00:00:01.844877 
00:00:01.844878 [/GIM/] (level 1)
00:00:01.844879   Provider <string>  = "None" (cb=5)
00:00:01.844880 
00:00:01.844881 [/HM/] (level 1)
00:00:01.844883   64bitEnabled       <integer> = 0x0000000000000001 (1)
00:00:01.844885   EnableLargePages   <integer> = 0x0000000000000001 (1)
00:00:01.844886   EnableNestedPaging <integer> = 0x0000000000000001 (1)
00:00:01.844888   EnableUX           <integer> = 0x0000000000000001 (1)
00:00:01.844890   EnableVPID         <integer> = 0x0000000000000001 (1)
00:00:01.844891   Exclusive          <integer> = 0x0000000000000000 (0)
00:00:01.844893   HMForced           <integer> = 0x0000000000000001 (1)
00:00:01.844895 
00:00:01.844895 [/MM/] (level 1)
00:00:01.844897   CanUseLargerHeap <integer> = 0x0000000000000000 (0)
00:00:01.844899 
00:00:01.844899 [/PDM/] (level 1)
00:00:01.844901 
00:00:01.844902 [/PDM/AsyncCompletion/] (level 2)
00:00:01.844904 
00:00:01.844905 [/PDM/AsyncCompletion/File/] (level 3)
00:00:01.844907 
00:00:01.844908 [/PDM/AsyncCompletion/File/BwGroups/] (level 4)
00:00:01.844910 
00:00:01.844911 [/PDM/BlkCache/] (level 2)
00:00:01.844913   CacheSize <integer> = 0x0000000000500000 (5 242 880, 5 MB)
00:00:01.844915 
00:00:01.844916 [/PDM/Devices/] (level 2)
00:00:01.844918 
00:00:01.844918 [/PDM/Drivers/] (level 2)
00:00:01.844940 
00:00:01.844941 [/PDM/Drivers/VBoxC/] (level 3)
00:00:01.844943   Path <string>  = "/Applications/VirtualBox.app/Contents/MacOS/components/VBoxC" (cb=61)
00:00:01.844944 
00:00:01.844945 [/PDM/NetworkShaper/] (level 2)
00:00:01.844947 
00:00:01.844948 [/PDM/NetworkShaper/BwGroups/] (level 3)
00:00:01.844949 
00:00:01.844950 [/TM/] (level 1)
00:00:01.844952   UTCOffset <integer> = 0x0000000000000000 (0)
00:00:01.844953 
00:00:01.844954 [/USB/] (level 1)
00:00:01.844955 
00:00:01.844956 [/USB/USBProxy/] (level 2)
00:00:01.844957 
00:00:01.844958 [/USB/USBProxy/GlobalConfig/] (level 3)
00:00:01.844960 
00:00:01.844961 ********************* End of CFGM dump **********************
00:00:01.844965 VM: fHMEnabled=true  (configured) fRecompileUser=false fRecompileSupervisor=false
00:00:01.844968 VM: fRawRing1Enabled=false CSAM=false PATM=false
00:00:01.846289 HM: HMR3Init: VT-x w/ nested paging and unrestricted guest execution hw support
00:00:01.846471 MM: cbHyperHeap=0x100000 (1048576)
00:00:01.850290 CPUM: fXStateHostMask=0x7; initial: 0x7; host XCR0=0x7
00:00:01.862842 CPUM: Matched host CPU INTEL 0x6/0x45/0x1 Intel_Core7_Haswell with CPU DB entry 'Intel Core i7-5600U' (INTEL 0x6/0x3d/0x4 Intel_Core7_Broadwell)
00:00:01.864417 CPUM: MXCSR_MASK=0xffff (host: 0xffff)
00:00:01.866110 CPUM: SetGuestCpuIdFeature: Enabled PAE
00:00:01.866148 CPUM: VCPU  0: Cached APIC base MSR = 0x0
00:00:01.871636 PGM: HCPhysInterPD=000000000fe2e000 HCPhysInterPaePDPT=000000000fe2b000 HCPhysInterPaePML4=000000000fe29000
00:00:01.871665 PGM: apInterPTs={000000000fe2d000,000000000fe2c000} apInterPaePTs={000000001ac94000,0000000110bcc000} apInterPaePDs={0000000017acd000,000000008928e000,00000001461cf000,0000000031310000} pInterPaePDPT64=000000000fe2a000
00:00:01.871676 PGM: Host paging mode: AMD64+PGE+NX
00:00:01.871722 PGM: PGMPool: cMaxPages=64 (u64MaxPages=64)
00:00:01.871729 PGM: pgmR3PoolInit: cMaxPages=0x40 cMaxUsers=0x80 cMaxPhysExts=0x80 fCacheEnable=true 
00:00:01.873686 TM: GIP - u32Mode=3 (Invariant) u32UpdateHz=100 u32UpdateIntervalNS=10000000 enmUseTscDelta=2 (Pratically Zero) fGetGipCpu=0x5 cCpus=4
00:00:01.873740 TM: GIP - u64CpuHz=1 899 999 998 (0x713fb2fe)  SUPGetCpuHzFromGip => 1 899 999 998
00:00:01.873750 TM: GIP - CPU: iCpuSet=0x0 idCpu=0x0 idApic=0x0 iGipCpu=0x0 i64TSCDelta=0 enmState=3 u64CpuHz=1899999998(*) cErrors=0
00:00:01.873758 TM: GIP - CPU: iCpuSet=0x1 idCpu=0x1 idApic=0x1 iGipCpu=0x1 i64TSCDelta=0 enmState=3 u64CpuHz=1899996647(*) cErrors=0
00:00:01.873764 TM: GIP - CPU: iCpuSet=0x2 idCpu=0x2 idApic=0x2 iGipCpu=0x3 i64TSCDelta=0 enmState=3 u64CpuHz=1899999996(*) cErrors=0
00:00:01.873769 TM: GIP - CPU: iCpuSet=0x3 idCpu=0x3 idApic=0x3 iGipCpu=0x2 i64TSCDelta=0 enmState=3 u64CpuHz=1899999870(*) cErrors=0
00:00:01.873889 TM: cTSCTicksPerSecond=1 899 999 998 (0x713fb2fe) enmTSCMode=3 (Dynamic)
00:00:01.873892 TM: TSCTiedToExecution=false TSCNotTiedToHalt=false
00:00:01.875782 IEM: TargetCpu=CURRENT, Microarch=Intel_Core7_Haswell
00:00:01.876594 GIM: Using provider 'None' (Implementation version: 0)
00:00:01.876791 AIOMgr: Default manager type is 'Async'
00:00:01.876823 AIOMgr: Default file backend is 'NonBuffered'
00:00:01.877832 BlkCache: Cache successfully initialized. Cache size is 5242880 bytes
00:00:01.877853 BlkCache: Cache commit interval is 10000 ms
00:00:01.877872 BlkCache: Cache commit threshold is 2621440 bytes
00:00:01.941002 PcBios: [SMP] BIOS with 1 CPUs
00:00:01.941709 PcBios: Using the 386+ BIOS image.
00:00:01.943752 PcBios: MPS table at 000e1300
00:00:01.948062 PcBios: fCheckShutdownStatusForSoftReset=true   fClearShutdownStatusOnHardReset=true 
00:00:01.953758 SUP: Loaded VBoxDDR0.r0 (/Applications/VirtualBox.app/Contents/MacOS/VBoxDDR0.r0) at 0xXXXXXXXXXXXXXXXX - ModuleInit at XXXXXXXXXXXXXXXX and ModuleTerm at XXXXXXXXXXXXXXXX
00:00:01.956804 CPUM: SetGuestCpuIdFeature: Enabled xAPIC
00:00:01.958501 IOAPIC: Using implementation 2.0!
00:00:01.959019 PIT: mode=3 count=0x10000 (65536) - 18.20 Hz (ch=0)
00:00:01.995458 Shared Folders service loaded
00:00:02.006136 VGA: Using the 386+ BIOS image.
00:00:02.027152 DrvVD: Flushes will be ignored
00:00:02.027168 DrvVD: Async flushes will be passed to the disk
00:00:02.027348 VD: VDInit finished
00:00:02.027413 VD: Opening the disk took 216073 ns
00:00:02.028347 PIIX3 ATA: LUN#0: disk, PCHS=4161/16/63, total number of sectors 4194304
00:00:02.028389 DrvVD: Flushes will be ignored
00:00:02.028396 DrvVD: Async flushes will be passed to the disk
00:00:02.028512 VD: Opening the disk took 108691 ns
00:00:02.028709 PIIX3 ATA: LUN#1: CD/DVD, total number of sectors 412160, passthrough disabled
00:00:02.028766 PIIX3 ATA: LUN#2: no unit
00:00:02.028776 PIIX3 ATA: LUN#3: no unit
00:00:02.028872 PIIX3 ATA: Ctl#0: finished processing RESET
00:00:02.028891 PIIX3 ATA: Ctl#1: finished processing RESET
00:00:02.056822 NAT: Guest address guess set to 10.0.2.15 by initialization
00:00:02.059208 NAT: resolv.conf: nameserver 85.15.1.14
00:00:02.059228 NAT: resolv.conf: nameserver 85.15.1.15
00:00:02.059233 NAT: resolv.conf: nameserver 85.15.1.14
00:00:02.059253 NAT: DNS#0: 85.15.1.14
00:00:02.059258 NAT: DNS#1: 85.15.1.15
00:00:02.059261 NAT: DNS#2: 85.15.1.14
00:00:02.063681 Audio: Initializing Core Audio driver
00:00:02.063707 Audio: Using VBox 5.0.x audio code!
00:00:02.112079 Audio: Host audio backend supports 2 output streams and 2 input streams at once
00:00:02.112148 Audio: Initializing VRDE driver
00:00:02.112168 Audio: Using VBox 5.0.x audio code!
00:00:02.112173 Audio: Host audio backend supports 1 output streams and 2 input streams at once
00:00:02.112218 AC97: Reset
00:00:02.137483 PGM: The CPU physical address width is 39 bits
00:00:02.137511 PGM: PGMR3InitFinalize: 4 MB PSE mask 0000007fffffffff
00:00:02.137644 TM: TMR3InitFinalize: fTSCModeSwitchAllowed=false
00:00:02.147546 VMM: Thread-context hooks unavailable
00:00:02.147695 HM: Using VT-x implementation 2.0
00:00:02.147697 HM: Host CR4                        = 0x1627e0
00:00:02.147705 HM: Host EFER                       = 0xd01
00:00:02.147706 HM: MSR_IA32_SMM_MONITOR_CTL        = 0x0
00:00:02.147708 HM: MSR_IA32_FEATURE_CONTROL        = 0x5
00:00:02.147709 HM: MSR_IA32_VMX_BASIC_INFO         = 0xda040000000012
00:00:02.147711 HM:   VMCS id                         = 0x12
00:00:02.147713 HM:   VMCS size                       = 1024 bytes
00:00:02.147714 HM:   VMCS physical address limit     = None
00:00:02.147716 HM:   VMCS memory type                = 0x6
00:00:02.147717 HM:   Dual-monitor treatment support  = true 
00:00:02.147719 HM:   OUTS & INS instruction-info     = true 
00:00:02.147720 HM: Max resume loops                = 8192
00:00:02.147721 HM: MSR_IA32_VMX_PINBASED_CTLS      = 0x7f00000016
00:00:02.147722 HM:   EXT_INT_EXIT
00:00:02.147723 HM:   NMI_EXIT
00:00:02.147724 HM:   VIRTUAL_NMI
00:00:02.147725 HM:   PREEMPT_TIMER
00:00:02.147726 HM:   POSTED_INTR (must be cleared)
00:00:02.147727 HM: MSR_IA32_VMX_PROCBASED_CTLS     = 0xfff9fffe0401e172
00:00:02.147729 HM:   INT_WINDOW_EXIT
00:00:02.147730 HM:   USE_TSC_OFFSETTING
00:00:02.147731 HM:   HLT_EXIT
00:00:02.147731 HM:   INVLPG_EXIT
00:00:02.147732 HM:   MWAIT_EXIT
00:00:02.147752 HM:   RDPMC_EXIT
00:00:02.147758 HM:   RDTSC_EXIT
00:00:02.147758 HM:   CR3_LOAD_EXIT (must be set)
00:00:02.147759 HM:   CR3_STORE_EXIT (must be set)
00:00:02.147760 HM:   CR8_LOAD_EXIT
00:00:02.147761 HM:   CR8_STORE_EXIT
00:00:02.147762 HM:   USE_TPR_SHADOW
00:00:02.147762 HM:   NMI_WINDOW_EXIT
00:00:02.147763 HM:   MOV_DR_EXIT
00:00:02.147764 HM:   UNCOND_IO_EXIT
00:00:02.147765 HM:   USE_IO_BITMAPS
00:00:02.147766 HM:   MONITOR_TRAP_FLAG
00:00:02.147788 HM:   USE_MSR_BITMAPS
00:00:02.147793 HM:   MONITOR_EXIT
00:00:02.147794 HM:   PAUSE_EXIT
00:00:02.147795 HM:   USE_SECONDARY_EXEC_CTRL
00:00:02.147796 HM: MSR_IA32_VMX_PROCBASED_CTLS2    = 0x3cff00000000
00:00:02.147797 HM:   VIRT_APIC
00:00:02.147798 HM:   EPT
00:00:02.147799 HM:   DESCRIPTOR_TABLE_EXIT
00:00:02.147800 HM:   RDTSCP
00:00:02.147800 HM:   VIRT_X2APIC
00:00:02.147801 HM:   VPID
00:00:02.147802 HM:   WBINVD_EXIT
00:00:02.147803 HM:   UNRESTRICTED_GUEST
00:00:02.147804 HM:   APIC_REG_VIRT (must be cleared)
00:00:02.147804 HM:   VIRT_INTR_DELIVERY (must be cleared)
00:00:02.147805 HM:   PAUSE_LOOP_EXIT
00:00:02.147806 HM:   RDRAND_EXIT
00:00:02.147807 HM:   INVPCID
00:00:02.147807 HM:   VMFUNC
00:00:02.147808 HM:   VMCS_SHADOWING (must be cleared)
00:00:02.147809 HM:   ENCLS_EXIT (must be cleared)
00:00:02.147810 HM:   RDSEED_EXIT (must be cleared)
00:00:02.147810 HM:   PML (must be cleared)
00:00:02.147811 HM:   EPT_VE (must be cleared)
00:00:02.147812 HM:   CONCEAL_FROM_PT (must be cleared)
00:00:02.147813 HM:   XSAVES_XRSTORS (must be cleared)
00:00:02.147813 HM:   TSC_SCALING (must be cleared)
00:00:02.147814 HM: MSR_IA32_VMX_ENTRY_CTLS         = 0xffff000011ff
00:00:02.147816 HM:   LOAD_DEBUG (must be set)
00:00:02.147816 HM:   IA32E_MODE_GUEST
00:00:02.147817 HM:   ENTRY_SMM
00:00:02.147818 HM:   DEACTIVATE_DUALMON
00:00:02.147819 HM:   LOAD_GUEST_PERF_MSR
00:00:02.147838 HM:   LOAD_GUEST_PAT_MSR
00:00:02.147840 HM:   LOAD_GUEST_EFER_MSR
00:00:02.147841 HM: MSR_IA32_VMX_EXIT_CTLS          = 0x7fffff00036dff
00:00:02.147842 HM:   SAVE_DEBUG (must be set)
00:00:02.147843 HM:   HOST_ADDR_SPACE_SIZE
00:00:02.147844 HM:   LOAD_PERF_MSR
00:00:02.147845 HM:   ACK_EXT_INT
00:00:02.147845 HM:   SAVE_GUEST_PAT_MSR
00:00:02.147846 HM:   LOAD_HOST_PAT_MSR
00:00:02.147847 HM:   SAVE_GUEST_EFER_MSR
00:00:02.147848 HM:   LOAD_HOST_EFER_MSR
00:00:02.147848 HM:   SAVE_VMX_PREEMPT_TIMER
00:00:02.147849 HM: MSR_IA32_VMX_EPT_VPID_CAP       = 0xf0106334141
00:00:02.147872 HM:   RWX_X_ONLY
00:00:02.147872 HM:   PAGE_WALK_LENGTH_4
00:00:02.147873 HM:   EMT_UC
00:00:02.147874 HM:   EMT_WB
00:00:02.147874 HM:   PDE_2M
00:00:02.147875 HM:   PDPTE_1G
00:00:02.147876 HM:   INVEPT
00:00:02.147877 HM:   EPT_ACCESS_DIRTY
00:00:02.147877 HM:   INVEPT_SINGLE_CONTEXT
00:00:02.147878 HM:   INVEPT_ALL_CONTEXTS
00:00:02.147879 HM:   INVVPID
00:00:02.147879 HM:   INVVPID_INDIV_ADDR
00:00:02.147880 HM:   INVVPID_SINGLE_CONTEXT
00:00:02.147881 HM:   INVVPID_ALL_CONTEXTS
00:00:02.147882 HM:   INVVPID_SINGLE_CONTEXT_RETAIN_GLOBALS
00:00:02.147882 HM: MSR_IA32_VMX_MISC               = 0x300481e5
00:00:02.147884 HM:   PREEMPT_TSC_BIT                 = 0x5
00:00:02.147885 HM:   STORE_EFERLMA_VMEXIT            = true 
00:00:02.147886 HM:   ACTIVITY_STATES                 = 0x7
00:00:02.147887 HM:   CR3_TARGET                      = 0x4
00:00:02.147888 HM:   MAX_MSR                         = 512
00:00:02.147889 HM:   RDMSR_SMBASE_MSR_SMM            = true 
00:00:02.147891 HM:   SMM_MONITOR_CTL_B2              = true 
00:00:02.147892 HM:   VMWRITE_VMEXIT_INFO             = true 
00:00:02.147893 HM:   MSEG_ID                         = 0x0
00:00:02.147894 HM: MSR_IA32_VMX_CR0_FIXED0         = 0x80000021
00:00:02.147895 HM: MSR_IA32_VMX_CR0_FIXED1         = 0xffffffff
00:00:02.147896 HM: MSR_IA32_VMX_CR4_FIXED0         = 0x2000
00:00:02.147898 HM: MSR_IA32_VMX_CR4_FIXED1         = 0x1727ff
00:00:02.147899 HM: MSR_IA32_VMX_VMCS_ENUM          = 0x2a
00:00:02.147900 HM:   HIGHEST_INDEX                   = 0x15
00:00:02.147901 HM: MSR_IA32_VMX_VMFUNC             = 0x1
00:00:02.147903 HM:   EPTP_SWITCHING
00:00:02.147903 HM: APIC-access page physaddr       = 0x00000000109e9000
00:00:02.147905 HM: VCPU  0: MSR bitmap physaddr    = 0x00000000109f0000
00:00:02.147907 HM: VCPU  0: VMCS physaddr          = 0x00000000109eb000
00:00:02.147909 HM: Guest support: 32-bit and 64-bit
00:00:02.147923 HM: Supports VMCS EFER fields       = true 
00:00:02.147924 HM: Enabled VMX
00:00:02.147927 CPUM: SetGuestCpuIdFeature: Enabled SYSENTER/EXIT
00:00:02.147928 CPUM: SetGuestCpuIdFeature: Enabled PAE
00:00:02.147929 CPUM: SetGuestCpuIdFeature: Enabled LONG MODE
00:00:02.147930 CPUM: SetGuestCpuIdFeature: Enabled SYSCALL/RET
00:00:02.147931 CPUM: SetGuestCpuIdFeature: Enabled LAHF/SAHF
00:00:02.147932 CPUM: SetGuestCpuIdFeature: Enabled NX
00:00:02.147932 HM: Enabled nested paging
00:00:02.147933 HM:   EPT flush type                = VMXFLUSHEPT_SINGLE_CONTEXT
00:00:02.147934 HM: Enabled unrestricted guest execution
00:00:02.147935 HM: Enabled large page support
00:00:02.147936 HM: Enabled VPID
00:00:02.147936 HM:   VPID flush type               = VMXFLUSHVPID_SINGLE_CONTEXT
00:00:02.147937 HM: Enabled VMX-preemption timer (cPreemptTimerShift=5)
00:00:02.147939 HM: VT-x/AMD-V init method: GLOBAL
00:00:02.147961 CPUM: VCPU  0: Cached APIC base MSR = 0xfee00900
00:00:02.148409 PcBios: ATA LUN#0 LCHS=520/128/63
00:00:02.148448 APIC: fPostedIntrsEnabled=false fVirtApicRegsEnabled=false fSupportsTscDeadline=false
00:00:02.148470 VMM: fUsePeriodicPreemptionTimers=false
00:00:02.149134 CPUM: Logical host processors: 4 present, 4 max, 4 online, online mask: 000000000000000f
00:00:02.149145 CPUM: Physical host cores: 2
00:00:02.149147 ************************* CPUID dump ************************
00:00:02.150093          Raw Standard CPUID Leaves
00:00:02.150096      Leaf/sub-leaf  eax      ebx      ecx      edx
00:00:02.150097 Gst: 00000000/0000  0000000d 756e6547 6c65746e 49656e69
00:00:02.150101 Hst:                0000000d 756e6547 6c65746e 49656e69
00:00:02.150124 Gst: 00000001/0000  00040651 00000800 56d8220b 078bfbff
00:00:02.150127 Hst:                00040651 02100800 7ffafbbf bfebfbff
00:00:02.150129 Gst: 00000002/0000  76036301 00f0b5ff 00000000 00c10000
00:00:02.150132 Hst:                76036301 00f0b5ff 00000000 00c10000
00:00:02.150133 Gst: 00000003/0000  00000000 00000000 00000000 00000000
00:00:02.150135 Hst:                00000000 00000000 00000000 00000000
00:00:02.150136 Gst: 00000004/0000  00000121 01c0003f 0000003f 00000000
00:00:02.150138 Hst:                1c004121 01c0003f 0000003f 00000000
00:00:02.150140 Gst: 00000004/0001  00000122 01c0003f 0000003f 00000000
00:00:02.150141 Hst:                1c004122 01c0003f 0000003f 00000000
00:00:02.150143 Gst: 00000004/0002  00000143 01c0003f 000001ff 00000000
00:00:02.150145 Hst:                1c004143 01c0003f 000001ff 00000000
00:00:02.150149 Gst: 00000004/0003  00000163 02c0003f 00000fff 00000006
00:00:02.150150 Hst:                1c03c163 02c0003f 00000fff 00000006
00:00:02.150152 Gst: 00000004/0004  00000000 00000000 00000000 00000000
00:00:02.150153 Hst:                00000000 00000000 00000000 00000000
00:00:02.150155 Gst: 00000005/0000  00000040 00000040 00000000 00000000
00:00:02.150156 Hst:                00000040 00000040 00000003 11142120
00:00:02.150158 Gst: 00000006/0000  00000000 00000000 00000000 00000000
00:00:02.150160 Hst:                00000077 00000002 00000009 00000000
00:00:02.150161 Gst: 00000007/0000  00000000 00002000 00000000 00000000
00:00:02.150163 Hst:                00000000 000027ab 00000000 00000000
00:00:02.150164 Gst: 00000007/0001  00000000 00000000 00000000 00000000
00:00:02.150166 Hst:                00000000 00000000 00000000 00000000
00:00:02.150187 Gst: 00000008/0000  00000000 00000000 00000000 00000000
00:00:02.150189 Hst:                00000000 00000000 00000000 00000000
00:00:02.150190 Gst: 00000009/0000  00000000 00000000 00000000 00000000
00:00:02.150192 Hst:                00000000 00000000 00000000 00000000
00:00:02.150193 Gst: 0000000a/0000  00000000 00000000 00000000 00000000
00:00:02.150194 Hst:                07300403 00000000 00000000 00000603
00:00:02.150196 Gst: 0000000b/0000  00000000 00000001 00000100 00000000
00:00:02.150207 Hst:                00000001 00000002 00000100 00000002
00:00:02.150209 Gst: 0000000b/0001  00000001 00000001 00000201 00000000
00:00:02.150210 Hst:                00000004 00000004 00000201 00000002
00:00:02.150212 Gst: 0000000b/0002  00000000 00000000 00000002 00000000
00:00:02.150213 Hst:                00000000 00000000 00000002 00000002
00:00:02.150413 Gst: 0000000c/0000  00000000 00000000 00000000 00000000
00:00:02.150416 Hst:                00000000 00000000 00000000 00000000
00:00:02.150417 Gst: 0000000d/0000  00000007 00000340 00000340 00000000
00:00:02.150420 Hst:                00000007 00000340 00000340 00000000
00:00:02.150422 Gst: 0000000d/0001  00000000 00000000 00000000 00000000
00:00:02.150423 Hst:                00000001 00000000 00000000 00000000
00:00:02.150425 Gst: 0000000d/0002  00000100 00000240 00000000 00000000
00:00:02.150506 Hst:                00000100 00000240 00000000 00000000
00:00:02.150508 Gst: 0000000d/0003  00000000 00000000 00000000 00000000
00:00:02.150510 Hst:                00000000 00000000 00000000 00000000
00:00:02.150533                                Name: GenuineIntel
00:00:02.150535                            Supports: 0x00000000-0x0000000d
00:00:02.150538                              Family:  6 	Extended: 0 	Effective: 6
00:00:02.150541                               Model:  5 	Extended: 4 	Effective: 69
00:00:02.150544                            Stepping: 1
00:00:02.150546                                Type: 0 (primary)
00:00:02.150548                             APIC ID: 0x00
00:00:02.150550                        Logical CPUs: 0
00:00:02.150552                        CLFLUSH Size: 8
00:00:02.150553                            Brand ID: 0x00
00:00:02.150556 Features
00:00:02.150557   Mnemonic - Description                                  = guest (host)
00:00:02.150558   FPU - x87 FPU on Chip                                   = 1 (1)
00:00:02.150562   VME - Virtual 8086 Mode Enhancements                    = 1 (1)
00:00:02.150564   DE - Debugging extensions                               = 1 (1)
00:00:02.150567   PSE - Page Size Extension                               = 1 (1)
00:00:02.150569   TSC - Time Stamp Counter                                = 1 (1)
00:00:02.150572   MSR - Model Specific Registers                          = 1 (1)
00:00:02.150574   PAE - Physical Address Extension                        = 1 (1)
00:00:02.150576   MCE - Machine Check Exception                           = 1 (1)
00:00:02.150579   CX8 - CMPXCHG8B instruction                             = 1 (1)
00:00:02.150581   APIC - APIC On-Chip                                     = 1 (1)
00:00:02.150584   SEP - SYSENTER and SYSEXIT Present                      = 1 (1)
00:00:02.150586   MTRR - Memory Type Range Registers                      = 1 (1)
00:00:02.150588   PGE - PTE Global Bit                                    = 1 (1)
00:00:02.150591   MCA - Machine Check Architecture                        = 1 (1)
00:00:02.150593   CMOV - Conditional Move instructions                    = 1 (1)
00:00:02.150595   PAT - Page Attribute Table                              = 1 (1)
00:00:02.150598   PSE-36 - 36-bit Page Size Extension                     = 1 (1)
00:00:02.150600   PSN - Processor Serial Number                           = 0 (0)
00:00:02.150602   CLFSH - CLFLUSH instruction                             = 1 (1)
00:00:02.150605   DS - Debug Store                                        = 0 (1)
00:00:02.150608   ACPI - Thermal Mon. & Soft. Clock Ctrl.                 = 0 (1)
00:00:02.150610   MMX - Intel MMX Technology                              = 1 (1)
00:00:02.150612   FXSR - FXSAVE and FXRSTOR instructions                  = 1 (1)
00:00:02.150614   SSE - SSE support                                       = 1 (1)
00:00:02.150617   SSE2 - SSE2 support                                     = 1 (1)
00:00:02.150620   SS - Self Snoop                                         = 0 (1)
00:00:02.150622   HTT - Hyper-Threading Technology                        = 0 (1)
00:00:02.150625   TM - Therm. Monitor                                     = 0 (1)
00:00:02.150627   PBE - Pending Break Enabled                             = 0 (1)
00:00:02.150630   SSE3 - SSE3 support                                     = 1 (1)
00:00:02.150632   PCLMUL - PCLMULQDQ support (for AES-GCM)                = 1 (1)
00:00:02.150635   DTES64 - DS Area 64-bit Layout                          = 0 (1)
00:00:02.150637   MONITOR - MONITOR/MWAIT instructions                    = 1 (1)
00:00:02.150639   CPL-DS - CPL Qualified Debug Store                      = 0 (1)
00:00:02.150641   VMX - Virtual Machine Extensions                        = 0 (1)
00:00:02.150644   SMX - Safer Mode Extensions                             = 0 (0)
00:00:02.150646   EST - Enhanced SpeedStep Technology                     = 0 (1)
00:00:02.150649   TM2 - Terminal Monitor 2                                = 0 (1)
00:00:02.150651   SSSE3 - Supplemental Streaming SIMD Extensions 3        = 1 (1)
00:00:02.150653   CNTX-ID - L1 Context ID                                 = 0 (0)
00:00:02.150655   SDBG - Silicon Debug interface                          = 0 (1)
00:00:02.150658   FMA - Fused Multiply Add extensions                     = 0 (1)
00:00:02.150660   CX16 - CMPXCHG16B instruction                           = 1 (1)
00:00:02.150662   TPRUPDATE - xTPR Update Control                         = 0 (1)
00:00:02.150665   PDCM - Perf/Debug Capability MSR                        = 0 (1)
00:00:02.150667   PCID - Process Context Identifiers                      = 0 (1)
00:00:02.150670   DCA - Direct Cache Access                               = 0 (0)
00:00:02.150672   SSE4_1 - SSE4_1 support                                 = 1 (1)
00:00:02.150675   SSE4_2 - SSE4_2 support                                 = 1 (1)
00:00:02.150677   X2APIC - x2APIC support                                 = 0 (1)
00:00:02.150680   MOVBE - MOVBE instruction                               = 1 (1)
00:00:02.150682   POPCNT - POPCNT instruction                             = 1 (1)
00:00:02.150685   TSCDEADL - Time Stamp Counter Deadline                  = 0 (1)
00:00:02.150687   AES - AES instructions                                  = 1 (1)
00:00:02.150689   XSAVE - XSAVE instruction                               = 1 (1)
00:00:02.150692   OSXSAVE - OSXSAVE instruction                           = 0 (1)
00:00:02.150695   AVX - AVX support                                       = 1 (1)
00:00:02.150698   F16C - 16-bit floating point conversion instructions    = 0 (1)
00:00:02.150699   RDRAND - RDRAND instruction                             = 1 (1)
00:00:02.150702   HVP - Hypervisor Present (we're a guest)                = 0 (0)
00:00:02.150704 Structured Extended Feature Flags Enumeration (leaf 7):
00:00:02.150706   Mnemonic - Description                                  = guest (host)
00:00:02.150707   FSGSBASE - RDFSBASE/RDGSBASE/WRFSBASE/WRGSBASE instr.   = 0 (1)
00:00:02.150709   TSCADJUST - Supports MSR_IA32_TSC_ADJUST                = 0 (1)
00:00:02.150711   SGX - Supports Software Guard Extensions                = 0 (0)
00:00:02.150714   BMI1 - Advanced Bit Manipulation extension 1            = 0 (1)
00:00:02.150716   HLE - Hardware Lock Elision                             = 0 (0)
00:00:02.150718   AVX2 - Advanced Vector Extensions 2                     = 0 (1)
00:00:02.150720   FDP_EXCPTN_ONLY - FPU DP only updated on exceptions     = 0 (0)
00:00:02.150722   SMEP - Supervisor Mode Execution Prevention             = 0 (1)
00:00:02.150724   BMI2 - Advanced Bit Manipulation extension 2            = 0 (1)
00:00:02.150726   ERMS - Enhanced REP MOVSB/STOSB instructions            = 0 (1)
00:00:02.150728   INVPCID - INVPCID instruction                           = 0 (1)
00:00:02.150730   RTM - Restricted Transactional Memory                   = 0 (0)
00:00:02.150732   PQM - Platform Quality of Service Monitoring            = 0 (0)
00:00:02.150734   DEPFPU_CS_DS - Deprecates FPU CS, FPU DS values if set  = 1 (1)
00:00:02.150736   MPE - Intel Memory Protection Extensions                = 0 (0)
00:00:02.150738   PQE - Platform Quality of Service Enforcement           = 0 (0)
00:00:02.150739   AVX512F - AVX512 Foundation instructions                = 0 (0)
00:00:02.150741   RDSEED - RDSEED instruction                             = 0 (0)
00:00:02.150744   ADX - ADCX/ADOX instructions                            = 0 (0)
00:00:02.150746   SMAP - Supervisor Mode Access Prevention                = 0 (0)
00:00:02.150748   CLFLUSHOPT - CLFLUSHOPT (Cache Line Flush) instruction  = 0 (0)
00:00:02.150749   INTEL_PT - Intel Processor Trace                        = 0 (0)
00:00:02.150752   AVX512PF - AVX512 Prefetch instructions                 = 0 (0)
00:00:02.150753   AVX512ER - AVX512 Exponential & Reciprocal instructions = 0 (0)
00:00:02.150755   AVX512CD - AVX512 Conflict Detection instructions       = 0 (0)
00:00:02.150757   SHA - Secure Hash Algorithm extensions                  = 0 (0)
00:00:02.150759   PREFETCHWT1 - PREFETCHWT1 instruction                   = 0 (0)
00:00:02.150761   PKU - Protection Key for Usermode pages                 = 0 (0)
00:00:02.150763   OSPKU - CR4.PKU mirror                                  = 0 (0)
00:00:02.150766 Processor Extended State Enumeration (leaf 0xd):
00:00:02.150767    XSAVE area cur/max size by XCR0, guest: 0x340/0x340
00:00:02.150769     XSAVE area cur/max size by XCR0, host: 0x340/0x340
00:00:02.150771                    Valid XCR0 bits, guest: 0x00000000`00000007 ( x87 SSE YMM_Hi128 )
00:00:02.150775                     Valid XCR0 bits, host: 0x00000000`00000007 ( x87 SSE YMM_Hi128 )
00:00:02.150778                     XSAVE features, guest:
00:00:02.150780                      XSAVE features, host: XSAVEOPT
00:00:02.150783       XSAVE area cur size XCR0|XSS, guest: 0x0
00:00:02.150784        XSAVE area cur size XCR0|XSS, host: 0x0
00:00:02.150785                Valid IA32_XSS bits, guest: 0x00000000`00000000
00:00:02.150787                 Valid IA32_XSS bits, host: 0x00000000`00000000
00:00:02.150789   State #2, guest: off=0x0240, cb=0x0100 IA32_XSS-bit -- YMM_Hi128
00:00:02.150792   State #2, host:  off=0x0240, cb=0x0100 IA32_XSS-bit -- YMM_Hi128
00:00:02.150805          Raw Extended CPUID Leaves
00:00:02.150806      Leaf/sub-leaf  eax      ebx      ecx      edx
00:00:02.150807 Gst: 80000000/0000  80000008 00000000 00000000 00000000
00:00:02.150809 Hst:                80000008 00000000 00000000 00000000
00:00:02.150811 Gst: 80000001/0000  00000000 00000000 00000021 28100800
00:00:02.150814 Hst:                00000000 00000000 00000021 2c100800
00:00:02.150817 Gst: 80000002/0000  65746e49 2952286c 726f4320 4d542865
00:00:02.150819 Hst:                65746e49 2952286c 726f4320 4d542865
00:00:02.150822 Gst: 80000003/0000  35692029 3532342d 43205530 40205550
00:00:02.150825 Hst:                35692029 3532342d 43205530 40205550
00:00:02.150828 Gst: 80000004/0000  332e3120 7a484730 00000000 00000000
00:00:02.150830 Hst:                332e3120 7a484730 00000000 00000000
00:00:02.150832 Gst: 80000005/0000  00000000 00000000 00000000 00000000
00:00:02.150835 Hst:                00000000 00000000 00000000 00000000
00:00:02.150836 Gst: 80000006/0000  00000000 00000000 01006040 00000000
00:00:02.150839 Hst:                00000000 00000000 01006040 00000000
00:00:02.150841 Gst: 80000007/0000  00000000 00000000 00000000 00000100
00:00:02.150843 Hst:                00000000 00000000 00000000 00000100
00:00:02.150845 Gst: 80000008/0000  00003027 00000000 00000000 00000000
00:00:02.150847 Hst:                00003027 00000000 00000000 00000000
00:00:02.150849 Ext Name:                        
00:00:02.150850 Ext Supports:                    0x80000000-0x80000008
00:00:02.150975 Family:                          0  	Extended: 0 	Effective: 0
00:00:02.150978 Model:                           0  	Extended: 0 	Effective: 0
00:00:02.150980 Stepping:                        0
00:00:02.150980 Brand ID:                        0x000
00:00:02.150982 Ext Features
00:00:02.150983   Mnemonic - Description                                  = guest (host)
00:00:02.150984   FPU - x87 FPU on Chip                                   = 0 (0)
00:00:02.150987   VME - Virtual 8086 Mode Enhancements                    = 0 (0)
00:00:02.150989   DE - Debugging extensions                               = 0 (0)
00:00:02.150991   PSE - Page Size Extension                               = 0 (0)
00:00:02.150994   TSC - Time Stamp Counter                                = 0 (0)
00:00:02.150996   MSR - K86 Model Specific Registers                      = 0 (0)
00:00:02.150998   PAE - Physical Address Extension                        = 0 (0)
00:00:02.151001   MCE - Machine Check Exception                           = 0 (0)
00:00:02.151026   CX8 - CMPXCHG8B instruction                             = 0 (0)
00:00:02.151029   APIC - APIC On-Chip                                     = 0 (0)
00:00:02.151031   SEP - SYSCALL/SYSRET                                    = 1 (1)
00:00:02.151033   MTRR - Memory Type Range Registers                      = 0 (0)
00:00:02.151035   PGE - PTE Global Bit                                    = 0 (0)
00:00:02.151037   MCA - Machine Check Architecture                        = 0 (0)
00:00:02.151039   CMOV - Conditional Move instructions                    = 0 (0)
00:00:02.151041   PAT - Page Attribute Table                              = 0 (0)
00:00:02.151043   PSE-36 - 36-bit Page Size Extension                     = 0 (0)
00:00:02.151278   NX - No-Execute/Execute-Disable                         = 1 (1)
00:00:02.151281   AXMMX - AMD Extensions to MMX instructions              = 0 (0)
00:00:02.151284   MMX - Intel MMX Technology                              = 0 (0)
00:00:02.151286   FXSR - FXSAVE and FXRSTOR Instructions                  = 0 (0)
00:00:02.151288   FFXSR - AMD fast FXSAVE and FXRSTOR instructions        = 0 (0)
00:00:02.151290   Page1GB - 1 GB large page                               = 0 (1)
00:00:02.151293   RDTSCP - RDTSCP instruction                             = 1 (1)
00:00:02.151295   LM - AMD64 Long Mode                                    = 1 (1)
00:00:02.151298   3DNOWEXT - AMD Extensions to 3DNow                      = 0 (0)
00:00:02.151322   3DNOW - AMD 3DNow                                       = 0 (0)
00:00:02.151328   LahfSahf - LAHF/SAHF support in 64-bit mode             = 1 (1)
00:00:02.151330   CmpLegacy - Core multi-processing legacy mode           = 0 (0)
00:00:02.151331   SVM - AMD Secure Virtual Machine extensions             = 0 (0)
00:00:02.151333   EXTAPIC - AMD Extended APIC registers                   = 0 (0)
00:00:02.151335   CR8L - AMD LOCK MOV CR0 means MOV CR8                   = 0 (0)
00:00:02.151337   ABM - AMD Advanced Bit Manipulation                     = 1 (1)
00:00:02.151339   SSE4A - SSE4A instructions                              = 0 (0)
00:00:02.151341   MISALIGNSSE - AMD Misaligned SSE mode                   = 0 (0)
00:00:02.151343   3DNOWPRF - AMD PREFETCH and PREFETCHW instructions      = 0 (0)
00:00:02.151345   OSVW - AMD OS Visible Workaround                        = 0 (0)
00:00:02.151346   IBS - Instruct Based Sampling                           = 0 (0)
00:00:02.151348   XOP - Extended Operation support                        = 0 (0)
00:00:02.151350   SKINIT - SKINIT, STGI, and DEV support                  = 0 (0)
00:00:02.151352   WDT - AMD Watchdog Timer support                        = 0 (0)
00:00:02.151354   LWP - Lightweight Profiling support                     = 0 (0)
00:00:02.151356   FMA4 - Four operand FMA instruction support             = 0 (0)
00:00:02.151358   NodeId - NodeId in MSR C001_100C                        = 0 (0)
00:00:02.151360   TBM - Trailing Bit Manipulation instructions            = 0 (0)
00:00:02.151361   TOPOEXT - Topology Extensions                           = 0 (0)
00:00:02.151364 Full Name:                       "Intel(R) Core(TM) i5-4250U CPU @ 1.30GHz"
00:00:02.151365 TLB 2/4M Instr/Uni:              res0     0 entries
00:00:02.151367 TLB 2/4M Data:                   res0     0 entries
00:00:02.151368 TLB 4K Instr/Uni:                res0     0 entries
00:00:02.151369 TLB 4K Data:                     res0     0 entries
00:00:02.151370 L1 Instr Cache Line Size:        0 bytes
00:00:02.151371 L1 Instr Cache Lines Per Tag:    0
00:00:02.151372 L1 Instr Cache Associativity:    res0  
00:00:02.151373 L1 Instr Cache Size:             0 KB
00:00:02.151374 L1 Data Cache Line Size:         0 bytes
00:00:02.151375 L1 Data Cache Lines Per Tag:     0
00:00:02.151375 L1 Data Cache Associativity:     res0  
00:00:02.151376 L1 Data Cache Size:              0 KB
00:00:02.151377 L2 TLB 2/4M Instr/Uni:           off       0 entries
00:00:02.151379 L2 TLB 2/4M Data:                off       0 entries
00:00:02.151380 L2 TLB 4K Instr/Uni:             off       0 entries
00:00:02.151381 L2 TLB 4K Data:                  off       0 entries
00:00:02.151382 L2 Cache Line Size:              0 bytes
00:00:02.151383 L2 Cache Lines Per Tag:          0
00:00:02.151384 L2 Cache Associativity:          off   
00:00:02.151384 L2 Cache Size:                   0 KB
00:00:02.151385 APM Features:                    TscInvariant
00:00:02.151387 Host Invariant-TSC support:      true 
00:00:02.151390 Physical Address Width:          39 bits
00:00:02.151391 Virtual Address Width:           48 bits
00:00:02.151392 Guest Physical Address Width:    0 bits
00:00:02.151393 Physical Core Count:             1
00:00:02.151395 
00:00:02.151397 ******************** End of CPUID dump **********************
00:00:02.157325 VMEmt: Halt method global1 (5)
00:00:02.157365 VMEmt: HaltedGlobal1 config: cNsSpinBlockThresholdCfg=2000
00:00:02.157369 Changing the VM state from 'CREATING' to 'CREATED'
00:00:02.164855 Changing the VM state from 'CREATED' to 'POWERING_ON'
00:00:02.165276 Changing the VM state from 'POWERING_ON' to 'RUNNING'
00:00:02.165299 Console: Machine state changed to 'Running'
00:00:02.172723 VMMDev: Guest Log: BIOS: VirtualBox 5.1.22
00:00:02.176876 PIT: mode=2 count=0x10000 (65536) - 18.20 Hz (ch=0)
00:00:02.190398 Display::handleDisplayResize: uScreenId=0 pvVRAM=0000000000000000 w=720 h=400 bpp=0 cbLine=0x0 flags=0x0
00:00:02.190535 GUI: UIFrameBufferPrivate::NotifyChange: Screen=0, Origin=0x0, Size=720x400, Sending to async-handler
00:00:02.190624 GUI: UIMachineView::sltHandleNotifyChange: Screen=0, Size=720x400
00:00:02.190636 GUI: UIFrameBufferPrivate::handleNotifyChange: Size=720x400
00:00:02.190642 GUI: UIFrameBufferPrivate::performResize: Size=720x400, Directly using source bitmap content
00:00:02.198679 PIIX3 ATA: Ctl#0: RESET, DevSel=0 AIOIf=0 CmdIf0=0x00 (-1 usec ago) CmdIf1=0x00 (-1 usec ago)
00:00:02.198866 PIIX3 ATA: Ctl#0: finished processing RESET
00:00:02.201140 VMMDev: Guest Log: BIOS: ata0-0: PCHS=4161/16/63 LCHS=520/128/63
00:00:02.203035 PIIX3 ATA: Ctl#0: RESET, DevSel=1 AIOIf=0 CmdIf0=0xec (-1 usec ago) CmdIf1=0x00 (-1 usec ago)
00:00:02.203214 PIIX3 ATA: Ctl#0: finished processing RESET
00:00:02.240598 PIT: mode=2 count=0x48d3 (18643) - 64.00 Hz (ch=0)
00:00:02.260516 Display::handleDisplayResize: uScreenId=0 pvVRAM=0000000118a83000 w=640 h=480 bpp=32 cbLine=0xA00 flags=0x0
00:00:02.260683 GUI: UIFrameBufferPrivate::NotifyChange: Screen=0, Origin=0x0, Size=640x480, Sending to async-handler
00:00:02.261009 GUI: UIMachineView::sltHandleNotifyChange: Screen=0, Size=640x480
00:00:02.261028 GUI: UIFrameBufferPrivate::handleNotifyChange: Size=640x480
00:00:02.261051 GUI: UIFrameBufferPrivate::performResize: Size=640x480, Directly using source bitmap content
00:00:02.369591 GUI: UIMachineViewNormal::resendSizeHint: Restoring guest size-hint for screen 0 to 800x600
00:00:02.371172 VMMDev: SetVideoModeHint: Got a video mode hint (800x600x32)@(0x0),(1;0) at 0
00:00:02.375803 GUI: 2D video acceleration is disabled
00:00:02.375826 GUI: HID LEDs sync is enabled
00:00:02.389151 GUI: UIMachineLogicNormal::sltCheckForRequestedVisualStateType: Requested-state=0, Machine-state=5
00:00:03.167546 Changing the VM state from 'RUNNING' to 'SUSPENDING'
00:00:03.171450 PDMR3Suspend: 3 877 357 ns run time
00:00:03.171478 Changing the VM state from 'SUSPENDING' to 'SUSPENDED'
00:00:03.171494 Console: Machine state changed to 'Paused'
00:00:04.805292 GUI: Request for close-action to power VM off.
00:00:04.805320 GUI: Passing request to power VM off from machine-logic to UI session.
00:00:04.805325 GUI: Powering VM down on UI session power off request...
00:00:04.806608 Console: Machine state changed to 'Stopping'
00:00:04.807519 Console::powerDown(): A request to power off the VM has been issued (mMachineState=Stopping, InUninit=0)
00:00:04.807597 Display::handleDisplayResize: uScreenId=0 pvVRAM=0000000118a83000 w=640 h=480 bpp=32 cbLine=0xA00 flags=0x0
00:00:04.807673 GUI: UIFrameBufferPrivate::NotifyChange: Screen=0, Origin=0x0, Size=640x480, Sending to async-handler
00:00:04.809260 Changing the VM state from 'SUSPENDED' to 'POWERING_OFF'
00:00:04.809282 ****************** Guest state at power off for VCpu 0 ******************
00:00:04.809343 Guest CPUM (VCPU 0) state: 
00:00:04.809395 eax=00150100 ebx=00000015 ecx=00010000 edx=00000000 esi=00000054 edi=00000015
00:00:04.809400 eip=0000790f esp=000077cc ebp=000077de iopl=0         nv up ei pl zr na pe nc
00:00:04.809404 cs={f000 base=00000000000f0000 limit=0000ffff flags=0000009b} dr0=00000000 dr1=00000000
00:00:04.809409 ds={f000 base=00000000000f0000 limit=0000ffff flags=00000093} dr2=00000000 dr3=00000000
00:00:04.809412 es={0000 base=0000000000000000 limit=0000ffff flags=00000093} dr4=00000000 dr5=00000000
00:00:04.809415 fs={0000 base=0000000000000000 limit=0000ffff flags=00000093} dr6=ffff0ff0 dr7=00000400
00:00:04.809418 gs={0000 base=0000000000000000 limit=0000ffff flags=00000093} cr0=00000010 cr2=00000000
00:00:04.809421 ss={0000 base=0000000000000000 limit=0000ffff flags=00000093} cr3=00000000 cr4=00000000
00:00:04.809423 gdtr=00000000000fe898:0047  idtr=0000000000000000:ffff  eflags=00000202
00:00:04.809426 ldtr={0000 base=00000000 limit=0000ffff flags=00000082}
00:00:04.809428 tr  ={0000 base=00000000 limit=0000ffff flags=0000008b}
00:00:04.809429 SysEnter={cs=0000 eip=00000000 esp=00000000}
00:00:04.809431 xcr=0000000000000001 xcr1=0000000000000000 xss=0000000000000000 (fXStateMask=0000000000000000)
00:00:04.809435 FCW=037f FSW=0000 FTW=0000 FOP=0000 MXCSR=00001f80 MXCSR_MASK=0000ffff
00:00:04.809438 FPUIP=00000000 CS=0000 Rsrvd1=0000  FPUDP=00000000 DS=0000 Rsvrd2=0000
00:00:04.809441 ST(0)=FPR0={0000'00000000'00000000} t0 +0.0000000000000000000000 * 2 ^ -16383 (*)
00:00:04.809446 ST(1)=FPR1={0000'00000000'00000000} t0 +0.0000000000000000000000 * 2 ^ -16383 (*)
00:00:04.809449 ST(2)=FPR2={0000'00000000'00000000} t0 +0.0000000000000000000000 * 2 ^ -16383 (*)
00:00:04.809452 ST(3)=FPR3={0000'00000000'00000000} t0 +0.0000000000000000000000 * 2 ^ -16383 (*)
00:00:04.809455 ST(4)=FPR4={0000'00000000'00000000} t0 +0.0000000000000000000000 * 2 ^ -16383 (*)
00:00:04.809458 ST(5)=FPR5={0000'00000000'00000000} t0 +0.0000000000000000000000 * 2 ^ -16383 (*)
00:00:04.809461 ST(6)=FPR6={0000'00000000'00000000} t0 +0.0000000000000000000000 * 2 ^ -16383 (*)
00:00:04.809464 ST(7)=FPR7={0000'00000000'00000000} t0 +0.0000000000000000000000 * 2 ^ -16383 (*)
00:00:04.809466 XMM0 =00000000'00000000'00000000'00000000  XMM1 =00000000'00000000'00000000'00000000
00:00:04.809469 XMM2 =00000000'00000000'00000000'00000000  XMM3 =00000000'00000000'00000000'00000000
00:00:04.809472 XMM4 =00000000'00000000'00000000'00000000  XMM5 =00000000'00000000'00000000'00000000
00:00:04.809491 XMM6 =00000000'00000000'00000000'00000000  XMM7 =00000000'00000000'00000000'00000000
00:00:04.809496 XMM8 =00000000'00000000'00000000'00000000  XMM9 =00000000'00000000'00000000'00000000
00:00:04.809500 XMM10=00000000'00000000'00000000'00000000  XMM11=00000000'00000000'00000000'00000000
00:00:04.809505 XMM12=00000000'00000000'00000000'00000000  XMM13=00000000'00000000'00000000'00000000
00:00:04.809509 XMM14=00000000'00000000'00000000'00000000  XMM15=00000000'00000000'00000000'00000000
00:00:04.809514 EFER         =0000000000000000
00:00:04.809515 PAT          =0007040600070406
00:00:04.809517 STAR         =0000000000000000
00:00:04.809518 CSTAR        =0000000000000000
00:00:04.809519 LSTAR        =0000000000000000
00:00:04.809520 SFMASK       =0000000000000000
00:00:04.809521 KERNELGSBASE =0000000000000000
00:00:04.809523 ***
00:00:04.809529 Guest paging mode (VCPU #0):  Real (changed 4 times), A20 disabled (changed 1 times)
00:00:04.809556 Shadow paging mode (VCPU #0): EPT
00:00:04.809557 Host paging mode:              AMD64+G+NX
00:00:04.809559 ***
00:00:04.809561 Active Timers (pVM=00000001172a4000)
00:00:04.809563 pTimerR3         offNext  offPrev  offSched Clock               Time             Expire HzHint State                     Description
00:00:04.809568 0000000117a6e2f0 00008060 00000000 00000000 Real           164259561          164257920      0 2-ACTIVE                  VGA Refresh Timer
00:00:04.809574 0000000117a76350 ffffff80 ffff7fa0 00000000 Real           164259561          164257942      0 2-ACTIVE                  EMT Yielder
00:00:04.809580 0000000117a762d0 00000000 00000080 00000000 Real           164259561          164258889      0 2-ACTIVE                  CPU Load Timer
00:00:04.809611 0000000117a72a40 00000000 00000000 00000000 Virt          1017709507         1003143224      0 2-ACTIVE                  DevIchAc97
00:00:04.809617 0000000117a5fb10 000005e0 00000000 00000000 VrSy           994434249          996589888     64 2-ACTIVE                  i8254 Programmable Interval Timer
00:00:04.809623 0000000117a600f0 00016000 fffffa20 00000000 VrSy           994434249         1990000000      0 2-ACTIVE                  MC146818 RTC/CMOS - Second
00:00:04.809628 0000000117a760f0 00000000 fffea000 00000000 VrSy           994434249       599932015941      0 2-ACTIVE                  ACPI PM Timer
00:00:04.809634 ***
00:00:04.809639 ************** End of Guest state at power off ***************
00:00:04.835194 GUI: UIMachineView::sltHandleNotifyChange: Screen=0, Size=640x480
00:00:04.916670 PDMR3PowerOff: 106 992 739 ns run time
00:00:04.916720 Changing the VM state from 'POWERING_OFF' to 'OFF'
00:00:04.919729 Changing the VM state from 'OFF' to 'DESTROYING'
00:00:04.919817 ************************* Statistics *************************
00:00:04.919916 /CPUM/MSR-Totals/Reads                  0 times
00:00:04.919928 /CPUM/MSR-Totals/ReadsRaisingGP         0 times
00:00:04.919933 /CPUM/MSR-Totals/ReadsUnknown           0 times
00:00:04.919938 /CPUM/MSR-Totals/Writes                 0 times
00:00:04.919943 /CPUM/MSR-Totals/WritesRaisingGP        0 times
00:00:04.919948 /CPUM/MSR-Totals/WritesToIgnoredBits        0 times
00:00:04.919952 /CPUM/MSR-Totals/WritesUnknown          0 times
00:00:04.919957 /Devices/IDE0/ATA0/Unit0/AtapiDMA        0 times
00:00:04.919961 /Devices/IDE0/ATA0/Unit0/AtapiPIO        0 times
00:00:04.919966 /Devices/IDE0/ATA0/Unit0/DMA            0 times
00:00:04.919970 /Devices/IDE0/ATA0/Unit0/PIO            1 times
00:00:04.919974 /Devices/IDE0/ATA0/Unit0/ReadBytes        0 bytes
00:00:04.919978 /Devices/IDE0/ATA0/Unit0/WrittenBytes        0 bytes
00:00:04.920010 /Devices/IDE0/ATA0/Unit1/AtapiDMA        0 times
00:00:04.920016 /Devices/IDE0/ATA0/Unit1/AtapiPIO        0 times
00:00:04.920020 /Devices/IDE0/ATA0/Unit1/DMA            0 times
00:00:04.920025 /Devices/IDE0/ATA0/Unit1/PIO            0 times
00:00:04.920030 /Devices/IDE0/ATA0/Unit1/ReadBytes        0 bytes
00:00:04.920034 /Devices/IDE0/ATA0/Unit1/WrittenBytes        0 bytes
00:00:04.920039 /Devices/IDE0/ATA1/Unit0/AtapiDMA        0 times
00:00:04.920043 /Devices/IDE0/ATA1/Unit0/AtapiPIO        0 times
00:00:04.920047 /Devices/IDE0/ATA1/Unit0/DMA            0 times
00:00:04.920051 /Devices/IDE0/ATA1/Unit0/PIO            0 times
00:00:04.920055 /Devices/IDE0/ATA1/Unit0/ReadBytes        0 bytes
00:00:04.920059 /Devices/IDE0/ATA1/Unit0/WrittenBytes        0 bytes
00:00:04.920064 /Devices/IDE0/ATA1/Unit1/AtapiDMA        0 times
00:00:04.920068 /Devices/IDE0/ATA1/Unit1/AtapiPIO        0 times
00:00:04.920072 /Devices/IDE0/ATA1/Unit1/DMA            0 times
00:00:04.920076 /Devices/IDE0/ATA1/Unit1/PIO            0 times
00:00:04.920080 /Devices/IDE0/ATA1/Unit1/ReadBytes        0 bytes
00:00:04.920084 /Devices/IDE0/ATA1/Unit1/WrittenBytes        0 bytes
00:00:04.920089 /Devices/PCNet0/ReceiveBytes            0 bytes
00:00:04.920093 /Devices/PCNet0/TransmitBytes           0 bytes
00:00:04.920098 /Devices/VMMDev/BalloonChunks           0 count
00:00:04.920103 /FT/Checkpoint/Network                  0 times
00:00:04.920108 /FT/Checkpoint/Storage                  0 times
00:00:04.920112 /FT/Received/Mem                        0 bytes
00:00:04.920117 /FT/Received/State                      0 bytes
00:00:04.920122 /FT/Sent/Mem                            0 bytes
00:00:04.920127 /FT/Sent/State                          0 bytes
00:00:04.920132 /FT/Sync/DeltaMem                       0 times
00:00:04.920136 /FT/Sync/DeltaVM                        0 times
00:00:04.920141 /FT/Sync/Full                           0 times
00:00:04.920147 /GMM/VM/Allocated/cBasePages          545 pages
00:00:04.920151 /GMM/VM/Allocated/cFixedPages           0 pages
00:00:04.920155 /GMM/VM/Allocated/cShadowPages          0 pages
00:00:04.920159 /GMM/VM/Reserved/cBasePages         16542 pages
00:00:04.920163 /GMM/VM/Reserved/cFixedPages         2564 pages
00:00:04.920168 /GMM/VM/Reserved/cShadowPages           1 pages
00:00:04.920174 /GMM/VM/cBalloonedPages                 0 pages
00:00:04.920179 /GMM/VM/cMaxBalloonedPages              0 pages
00:00:04.920183 /GMM/VM/cPrivatePages                 545 pages
00:00:04.920187 /GMM/VM/cReqActuallyBalloonedPages        0 pages
00:00:04.920192 /GMM/VM/cReqBalloonedPages              0 pages
00:00:04.920197 /GMM/VM/cReqDeflatePages                0 pages
00:00:04.920202 /GMM/VM/cShareableModules               0 count
00:00:04.920206 /GMM/VM/cSharedPages                    0 pages
00:00:04.920211 /GMM/VM/enmPolicy                       1 
00:00:04.920215 /GMM/VM/enmPriority                     2 
00:00:04.920220 /GMM/VM/fBallooningEnabled       false    
00:00:04.920224 /GMM/VM/fMayAllocate             true     
00:00:04.920229 /GMM/VM/fSharedPagingEnabled     false    
00:00:04.920244 /GMM/cAllocatedPages                  545 pages
00:00:04.920256 /GMM/cBalloonedPages                    0 pages
00:00:04.920261 /GMM/cChunks                            2 count
00:00:04.920265 /GMM/cDuplicatePages                    0 pages
00:00:04.920270 /GMM/cFreedChunks                       0 count
00:00:04.920298 /GMM/cLeftBehindSharedPages             0 pages
00:00:04.920304 /GMM/cMaxPages                   4294967295 pages
00:00:04.920309 /GMM/cOverCommittedPages                0 pages
00:00:04.920313 /GMM/cReservedPages                 19107 pages
00:00:04.920347 /GMM/cShareableModules                  0 count
00:00:04.920358 /GMM/cSharedPages                       0 pages
00:00:04.920363 /GVMM/EMTs                              1 calls
00:00:04.920368 /GVMM/HostCPUs                          4 calls
00:00:04.920372 /GVMM/HostCpus/0                        0 
00:00:04.920377 /GVMM/HostCpus/0/CurTimerHz             0 Hz
00:00:04.920406 /GVMM/HostCpus/0/DesiredHz              0 Hz
00:00:04.920416 /GVMM/HostCpus/0/PPTChanges             0 times
00:00:04.920421 /GVMM/HostCpus/0/PPTStarts              0 times
00:00:04.920425 /GVMM/HostCpus/0/idxCpuSet              0 
00:00:04.920430 /GVMM/HostCpus/1                        1 
00:00:04.920435 /GVMM/HostCpus/1/CurTimerHz             0 Hz
00:00:04.920439 /GVMM/HostCpus/1/DesiredHz              0 Hz
00:00:04.920444 /GVMM/HostCpus/1/PPTChanges             0 times
00:00:04.920449 /GVMM/HostCpus/1/PPTStarts              0 times
00:00:04.920453 /GVMM/HostCpus/1/idxCpuSet              1 
00:00:04.920458 /GVMM/HostCpus/2                        2 
00:00:04.920464 /GVMM/HostCpus/2/CurTimerHz             0 Hz
00:00:04.920467 /GVMM/HostCpus/2/DesiredHz              0 Hz
00:00:04.920469 /GVMM/HostCpus/2/PPTChanges             0 times
00:00:04.920472 /GVMM/HostCpus/2/PPTStarts              0 times
00:00:04.920475 /GVMM/HostCpus/2/idxCpuSet              2 
00:00:04.920478 /GVMM/HostCpus/3                        3 
00:00:04.920481 /GVMM/HostCpus/3/CurTimerHz             0 Hz
00:00:04.920484 /GVMM/HostCpus/3/DesiredHz              0 Hz
00:00:04.920488 /GVMM/HostCpus/3/PPTChanges             0 times
00:00:04.920492 /GVMM/HostCpus/3/PPTStarts              0 times
00:00:04.920496 /GVMM/HostCpus/3/idxCpuSet              3 
00:00:04.920501 /GVMM/Sum/HaltBlocking                300 calls
00:00:04.920505 /GVMM/Sum/HaltCalls                   300 calls
00:00:04.920510 /GVMM/Sum/HaltNotBlocking               0 calls
00:00:04.920515 /GVMM/Sum/HaltTimeouts                211 calls
00:00:04.920519 /GVMM/Sum/HaltWakeUps                   0 calls
00:00:04.920524 /GVMM/Sum/PokeCalls                     0 calls
00:00:04.920528 /GVMM/Sum/PokeNotBusy                   0 calls
00:00:04.920543 /GVMM/Sum/PollCalls                     0 calls
00:00:04.920557 /GVMM/Sum/PollHalts                     0 calls
00:00:04.920562 /GVMM/Sum/PollWakeUps                   0 calls
00:00:04.920567 /GVMM/Sum/WakeUpCalls                  91 calls
00:00:04.920572 /GVMM/Sum/WakeUpNotHalted              65 calls
00:00:04.920577 /GVMM/Sum/WakeUpWakeUps                 0 calls
00:00:04.920582 /GVMM/VM/HaltBlocking                 300 calls
00:00:04.920587 /GVMM/VM/HaltCalls                    300 calls
00:00:04.920591 /GVMM/VM/HaltNotBlocking                0 calls
00:00:04.920596 /GVMM/VM/HaltTimeouts                 211 calls
00:00:04.920601 /GVMM/VM/HaltWakeUps                    0 calls
00:00:04.920606 /GVMM/VM/PokeCalls                      0 calls
00:00:04.920611 /GVMM/VM/PokeNotBusy                    0 calls
00:00:04.920616 /GVMM/VM/PollCalls                      0 calls
00:00:04.920621 /GVMM/VM/PollHalts                      0 calls
00:00:04.920626 /GVMM/VM/PollWakeUps                    0 calls
00:00:04.920631 /GVMM/VM/WakeUpCalls                   91 calls
00:00:04.920636 /GVMM/VM/WakeUpNotHalted               65 calls
00:00:04.920640 /GVMM/VM/WakeUpWakeUps                  0 calls
00:00:04.920645 /GVMM/VMs                               1 calls
00:00:04.920650 /HM/CPU0/Exit/HostNmiInGC               0 times
00:00:04.920655 /HM/CPU0/Switch/Preempting              0 times
00:00:04.920659 /IEM/CPU0/CodeTlb-Misses                0 count
00:00:04.920664 /IEM/CPU0/CodeTlb-PhysRev        ffffffffffff9c00 
00:00:04.920669 /IEM/CPU0/CodeTlb-Revision       fffff38000000000 
00:00:04.920674 /IEM/CPU0/CodeTlb-SlowReads             0 
00:00:04.920678 /IEM/CPU0/DataTlb-Misses                0 count
00:00:04.920683 /IEM/CPU0/DataTlb-PhysRev        ffffffffffff9c00 
00:00:04.920688 /IEM/CPU0/DataTlb-Revision       fffff38000000000 
00:00:04.920693 /IEM/CPU0/cInstructions               537 count
00:00:04.920698 /IEM/CPU0/cLongJumps                    0 bytes
00:00:04.920702 /IEM/CPU0/cPendingCommit                0 bytes
00:00:04.920707 /IEM/CPU0/cPotentialExits           20744 count
00:00:04.920712 /IEM/CPU0/cRetAspectNotImplemented        0 count
00:00:04.920716 /IEM/CPU0/cRetErrStatuses               0 count
00:00:04.920721 /IEM/CPU0/cRetInfStatuses               0 count
00:00:04.920743 /IEM/CPU0/cRetInstrNotImplemented        0 count
00:00:04.920747 /IEM/CPU0/cbWritten                 37135 bytes
00:00:04.920752 /MM/HyperHeap/cbFree               881712 bytes
00:00:04.920757 /MM/HyperHeap/cbHeap              1048256 bytes
00:00:04.920761 /PDM/BlkCache/cbCached                  0 bytes
00:00:04.920766 /PDM/BlkCache/cbCachedFru               0 bytes
00:00:04.920770 /PDM/BlkCache/cbCachedMruIn             0 bytes
00:00:04.920773 /PDM/BlkCache/cbCachedMruOut            0 bytes
00:00:04.920778 /PDM/BlkCache/cbMax               5242880 bytes
00:00:04.920783 /PDM/CritSects/8237A#0Auto/ContentionR3        0 times
00:00:04.920804 /PDM/CritSects/8237A#0Auto/ContentionRZLock        0 times
00:00:04.920820 /PDM/CritSects/8237A#0Auto/ContentionRZUnlock        0 times
00:00:04.920825 /PDM/CritSects/ATA#0-Ctl/ContentionR3        0 times
00:00:04.920829 /PDM/CritSects/ATA#0-Ctl/ContentionRZLock        1 times
00:00:04.920834 /PDM/CritSects/ATA#0-Ctl/ContentionRZUnlock        0 times
00:00:04.920838 /PDM/CritSects/ATA#0-Req/ContentionR3        0 times
00:00:04.920841 /PDM/CritSects/ATA#0-Req/ContentionRZLock        0 times
00:00:04.920844 /PDM/CritSects/ATA#0-Req/ContentionRZUnlock        0 times
00:00:04.920847 /PDM/CritSects/ATA#1-Ctl/ContentionR3        0 times
00:00:04.920849 /PDM/CritSects/ATA#1-Ctl/ContentionRZLock        0 times
00:00:04.920852 /PDM/CritSects/ATA#1-Ctl/ContentionRZUnlock        0 times
00:00:04.920854 /PDM/CritSects/ATA#1-Req/ContentionR3        0 times
00:00:04.920857 /PDM/CritSects/ATA#1-Req/ContentionRZLock        0 times
00:00:04.920860 /PDM/CritSects/ATA#1-Req/ContentionRZUnlock        0 times
00:00:04.920862 /PDM/CritSects/FTM/ContentionR3         0 times
00:00:04.920865 /PDM/CritSects/FTM/ContentionRZLock        0 times
00:00:04.920868 /PDM/CritSects/FTM/ContentionRZUnlock        0 times
00:00:04.920870 /PDM/CritSects/MM-HYPER/ContentionR3        0 times
00:00:04.920873 /PDM/CritSects/MM-HYPER/ContentionRZLock        0 times
00:00:04.920876 /PDM/CritSects/MM-HYPER/ContentionRZUnlock        0 times
00:00:04.920878 /PDM/CritSects/NOP/ContentionR3         0 times
00:00:04.920889 /PDM/CritSects/NOP/ContentionRZLock        0 times
00:00:04.920899 /PDM/CritSects/NOP/ContentionRZUnlock        0 times
00:00:04.920902 /PDM/CritSects/OHCI#0Irq/ContentionR3        0 times
00:00:04.920905 /PDM/CritSects/OHCI#0Irq/ContentionRZLock        0 times
00:00:04.920907 /PDM/CritSects/OHCI#0Irq/ContentionRZUnlock        0 times
00:00:04.920910 /PDM/CritSects/PCNet#0/ContentionR3        0 times
00:00:04.920913 /PDM/CritSects/PCNet#0/ContentionRZLock        0 times
00:00:04.920923 /PDM/CritSects/PCNet#0/ContentionRZUnlock        0 times
00:00:04.920933 /PDM/CritSects/PDM/ContentionR3         0 times
00:00:04.920938 /PDM/CritSects/PDM/ContentionRZLock        0 times
00:00:04.920943 /PDM/CritSects/PDM/ContentionRZUnlock        0 times
00:00:04.920947 /PDM/CritSects/PGM/ContentionR3         0 times
00:00:04.920952 /PDM/CritSects/PGM/ContentionRZLock        0 times
00:00:04.920957 /PDM/CritSects/PGM/ContentionRZUnlock        0 times
00:00:04.920961 /PDM/CritSects/TM Timer Lock/ContentionR3        0 times
00:00:04.920964 /PDM/CritSects/TM Timer Lock/ContentionRZLock        0 times
00:00:04.920967 /PDM/CritSects/TM Timer Lock/ContentionRZUnlock        0 times
00:00:04.920969 /PDM/CritSects/TM VirtualSync Lock/ContentionR3        0 times
00:00:04.920972 /PDM/CritSects/TM VirtualSync Lock/ContentionRZLock        0 times
00:00:04.920975 /PDM/CritSects/TM VirtualSync Lock/ContentionRZUnlock        0 times
00:00:04.920978 /PDM/CritSects/VGA#0/ContentionR3        0 times
00:00:04.920982 /PDM/CritSects/VGA#0/ContentionRZLock        0 times
00:00:04.920986 /PDM/CritSects/VGA#0/ContentionRZUnlock        0 times
00:00:04.921008 /PDM/CritSects/VGA#0_IRQ/ContentionR3        0 times
00:00:04.921019 /PDM/CritSects/VGA#0_IRQ/ContentionRZLock        0 times
00:00:04.921024 /PDM/CritSects/VGA#0_IRQ/ContentionRZUnlock        0 times
00:00:04.921026 /PDM/CritSects/VMMDev#0/ContentionR3        0 times
00:00:04.921050 /PDM/CritSects/VMMDev#0/ContentionRZLock        0 times
00:00:04.921057 /PDM/CritSects/VMMDev#0/ContentionRZUnlock        0 times
00:00:04.921060 /PDM/CritSects/acpi#0/ContentionR3        0 times
00:00:04.921064 /PDM/CritSects/acpi#0/ContentionRZLock        0 times
00:00:04.921068 /PDM/CritSects/acpi#0/ContentionRZUnlock        0 times
00:00:04.921072 /PDM/CritSects/ichac97#0Auto/ContentionR3        0 times
00:00:04.921076 /PDM/CritSects/ichac97#0Auto/ContentionRZLock        0 times
00:00:04.921080 /PDM/CritSects/ichac97#0Auto/ContentionRZUnlock        0 times
00:00:04.921085 /PDM/CritSects/mc146818#0Auto/ContentionR3        0 times
00:00:04.921089 /PDM/CritSects/mc146818#0Auto/ContentionRZLock        0 times
00:00:04.921093 /PDM/CritSects/mc146818#0Auto/ContentionRZUnlock        0 times
00:00:04.921098 /PDM/CritSects/pcarch#0Auto/ContentionR3        0 times
00:00:04.921100 /PDM/CritSects/pcarch#0Auto/ContentionRZLock        0 times
00:00:04.921103 /PDM/CritSects/pcarch#0Auto/ContentionRZUnlock        0 times
00:00:04.921106 /PDM/CritSects/pcbios#0Auto/ContentionR3        0 times
00:00:04.921109 /PDM/CritSects/pcbios#0Auto/ContentionRZLock        0 times
00:00:04.921113 /PDM/CritSects/pcbios#0Auto/ContentionRZUnlock        0 times
00:00:04.921127 /PDM/CritSects/pckbd#0Auto/ContentionR3        0 times
00:00:04.921136 /PDM/CritSects/pckbd#0Auto/ContentionRZLock        0 times
00:00:04.921139 /PDM/CritSects/pckbd#0Auto/ContentionRZUnlock        0 times
00:00:04.921142 /PDM/CritSects/pit#0/ContentionR3        0 times
00:00:04.921145 /PDM/CritSects/pit#0/ContentionRZLock        0 times
00:00:04.921147 /PDM/CritSects/pit#0/ContentionRZUnlock        0 times
00:00:04.921150 /PDM/CritSects/usb-ohci#0Auto/ContentionR3        0 times
00:00:04.921153 /PDM/CritSects/usb-ohci#0Auto/ContentionRZLock        0 times
00:00:04.921155 /PDM/CritSects/usb-ohci#0Auto/ContentionRZUnlock        0 times
00:00:04.921158 /PDM/CritSectsRw/IOM Lock/ContentionR3EnterExcl        0 times
00:00:04.921161 /PDM/CritSectsRw/IOM Lock/ContentionR3EnterShared        0 times
00:00:04.921163 /PDM/CritSectsRw/IOM Lock/ContentionRZEnterExcl        0 times
00:00:04.921182 /PDM/CritSectsRw/IOM Lock/ContentionRZEnterShared        0 times
00:00:04.921188 /PDM/CritSectsRw/IOM Lock/ContentionRZLeaveExcl        0 times
00:00:04.921201 /PDM/CritSectsRw/IOM Lock/ContentionRZLeaveShared        0 times
00:00:04.921213 /PDM/CritSectsRw/IOM Lock/R3EnterExcl      195 times
00:00:04.921216 /PDM/CritSectsRw/IOM Lock/R3EnterShared     1518 times
00:00:04.921219 /PDM/CritSectsRw/IOM Lock/RZEnterExcl        0 times
00:00:04.921221 /PDM/CritSectsRw/IOM Lock/RZEnterShared    26006 times
00:00:04.921224 /PDM/Queue/DevHlp/AllocFailures         0 times
00:00:04.921227 /PDM/Queue/DevHlp/Flush                 0 calls
00:00:04.921230 /PDM/Queue/DevHlp/FlushLeftovers        0 times
00:00:04.921232 /PDM/Queue/DevHlp/Insert                0 calls
00:00:04.921235 /PDM/Queue/DevHlp/cItems                8 count
00:00:04.921238 /PDM/Queue/DevHlp/cbItem               64 bytes
00:00:04.921241 /PDM/Queue/Keyboard/AllocFailures        0 times
00:00:04.921244 /PDM/Queue/Keyboard/Flush               0 calls
00:00:04.921247 /PDM/Queue/Keyboard/FlushLeftovers        0 times
00:00:04.921249 /PDM/Queue/Keyboard/Insert              0 calls
00:00:04.921252 /PDM/Queue/Keyboard/cItems             64 count
00:00:04.921264 /PDM/Queue/Keyboard/cbItem             32 bytes
00:00:04.921286 /PDM/Queue/Mouse/AllocFailures          0 times
00:00:04.921304 /PDM/Queue/Mouse/Flush                  0 calls
00:00:04.921314 /PDM/Queue/Mouse/FlushLeftovers         0 times
00:00:04.921319 /PDM/Queue/Mouse/Insert                 0 calls
00:00:04.921323 /PDM/Queue/Mouse/cItems               128 count
00:00:04.921328 /PDM/Queue/Mouse/cbItem                48 bytes
00:00:04.921332 /PDM/Queue/PCNet-Rcv/AllocFailures        0 times
00:00:04.921336 /PDM/Queue/PCNet-Rcv/Flush              0 calls
00:00:04.921341 /PDM/Queue/PCNet-Rcv/FlushLeftovers        0 times
00:00:04.921345 /PDM/Queue/PCNet-Rcv/Insert             0 calls
00:00:04.921360 /PDM/Queue/PCNet-Rcv/cItems             1 count
00:00:04.921364 /PDM/Queue/PCNet-Rcv/cbItem            24 bytes
00:00:04.921369 /PDM/Queue/PCNet-Xmit/AllocFailures        0 times
00:00:04.921382 /PDM/Queue/PCNet-Xmit/Flush             0 calls
00:00:04.921393 /PDM/Queue/PCNet-Xmit/FlushLeftovers        0 times
00:00:04.921396 /PDM/Queue/PCNet-Xmit/Insert            0 calls
00:00:04.921399 /PDM/Queue/PCNet-Xmit/cItems            1 count
00:00:04.921401 /PDM/Queue/PCNet-Xmit/cbItem           24 bytes
00:00:04.921404 /PGM/CPU0/cA20Changes                   1 times
00:00:04.921407 /PGM/CPU0/cGuestModeChanges             4 times
00:00:04.921410 /PGM/ChunkR3Map/Mapped                  2 count
00:00:04.921413 /PGM/ChunkR3Map/Unmapped                0 count
00:00:04.921416 /PGM/ChunkR3Map/c                       2 count
00:00:04.921418 /PGM/ChunkR3Map/cMax             4294967295 count
00:00:04.921429 /PGM/LargePage/Recheck                  0 times
00:00:04.921439 /PGM/LargePage/Refused                  1 times
00:00:04.921445 /PGM/LargePage/Reused                   0 times
00:00:04.921451 /PGM/Page/cAllPages                 18982 count
00:00:04.921456 /PGM/Page/cBalloonedPages               0 count
00:00:04.921460 /PGM/Page/cHandyPages                  32 count
00:00:04.921465 /PGM/Page/cLargePages                   0 count
00:00:04.921470 /PGM/Page/cLargePagesDisabled           0 count
00:00:04.921474 /PGM/Page/cMonitoredPages               0 count
00:00:04.921478 /PGM/Page/cPrivatePages              3077 count
00:00:04.921483 /PGM/Page/cPureMmioPages                4 count
00:00:04.921487 /PGM/Page/cReadLockedPages              0 count
00:00:04.921491 /PGM/Page/cReusedSharedPages            0 count
00:00:04.921496 /PGM/Page/cSharedPages                  0 count
00:00:04.921509 /PGM/Page/cWriteLockedPages             0 count
00:00:04.921516 /PGM/Page/cWrittenToPages               0 count
00:00:04.921519 /PGM/Page/cZeroPages                15901 count
00:00:04.921522 /PGM/ShMod/Check                        0 ticks/call (           0 ticks,       0 times, max         0, min      -1)
00:00:04.921526 /PGM/cRelocations                       0 times
00:00:04.921529 /PROF/CPU0/EM/Capped                    0 ticks/call (           0 ticks,       0 times, max         0, min      -1)
00:00:04.921533 /PROF/CPU0/EM/ForcedActions            90 times
00:00:04.921543 /PROF/CPU0/EM/Halted                   62 times
00:00:04.921551 /PROF/CPU0/EM/RAWTotal                  0 times
00:00:04.921556 /PROF/CPU0/EM/REMTotal                  0 times
00:00:04.921561 /PROF/CPU0/EM/Total              1933649956 ticks/call (  1933649956 ticks,       1 times, max 1933649956, min 1933649956)
00:00:04.921569 /PROF/CPU0/VM/Halt/Block          2979159 ns/call (   866935390 ticks,     291 times, max  13447818, min    3781)
00:00:04.921576 /PROF/CPU0/VM/Halt/BlockInsomnia        0 ns/call (           0 ticks,       0 times, max         0, min      -1)
00:00:04.921582 /PROF/CPU0/VM/Halt/BlockOnTime          0 ns/call (           0 ticks,       0 times, max         0, min      -1)
00:00:04.921585 /PROF/CPU0/VM/Halt/BlockOverslept        0 ns/call (           0 ticks,       0 times, max         0, min      -1)
00:00:04.921588 /PROF/CPU0/VM/Halt/Timers           35422 ns/call (    12504039 ticks,     353 times, max   3207289, min       2)
00:00:04.921593 /PROF/CPU0/VM/Halt/Yield                0 ns/call (           0 ticks,       0 times, max         0, min      -1)
00:00:04.921596 /Public/Net/PCNet0/BytesReceived        0 bytes
00:00:04.921600 /Public/Net/PCNet0/BytesTransmitted        0 bytes
00:00:04.921613 /SELM/LoadHidSel/GstReadErrors          0 times
00:00:04.921623 /SELM/LoadHidSel/NoGoodGuest            0 times
00:00:04.921628 /TM/CPU/00/cNsExecuting           7091483 ns
00:00:04.921632 /TM/CPU/00/cNsHalted             881002812 ns
00:00:04.921637 /TM/CPU/00/cNsOther              129618770 ns
00:00:04.921643 /TM/CPU/00/cNsTotal              1017713065 ns
00:00:04.921646 /TM/CPU/00/cPeriodsExecuting         5395 count
00:00:04.921649 /TM/CPU/00/cPeriodsHalted              62 count
00:00:04.921664 /TM/CPU/00/pctExecuting                 0 %
00:00:04.921669 /TM/CPU/00/pctHalted                   87 %
00:00:04.921673 /TM/CPU/00/pctOther                    11 %
00:00:04.921678 /TM/CPU/pctExecuting                    0 %
00:00:04.921682 /TM/CPU/pctHalted                      87 %
00:00:04.921687 /TM/CPU/pctOther                       11 %
00:00:04.921692 /TM/MaxHzHint                           0 Hz
00:00:04.921698 /TM/R0/1nsSteps                        45 times
00:00:04.921703 /TM/R3/1nsSteps                        55 times
00:00:04.921708 /TM/TSC/offCPU0                         0 ticks
00:00:04.921727 /TM/VirtualSync/CurrentOffset     7252631 ns
00:00:04.921737 /VUSB/0/cUrbsInPool                     0 count
00:00:04.921743 ********************* End of statistics **********************
00:00:04.925649 NAT: Zone(nm:mbuf_cluster, used:0)
00:00:04.926686 NAT: Zone(nm:mbuf_packet, used:0)
00:00:04.926705 NAT: Zone(nm:mbuf, used:0)
00:00:04.926878 NAT: Zone(nm:mbuf_jumbo_pagesize, used:0)
00:00:04.927799 NAT: Zone(nm:mbuf_jumbo_9k, used:0)
00:00:04.928328 NAT: Zone(nm:mbuf_jumbo_16k, used:0)
00:00:04.928660 NAT: Zone(nm:mbuf_ext_refcnt, used:0)
00:00:04.930117 Changing the VM state from 'DESTROYING' to 'TERMINATED'
00:00:04.937816 Console: Machine state changed to 'PoweredOff'
00:00:05.154105 GUI: Passing request to close Runtime UI from machine-logic to UI session.
